[{"score": 2.220621, "link": "http://dbpedia.org/resource/50_Cent"}, 
{"score": 2.184583, "link": "http://dbpedia.org/resource/West_Bengal"}, 
{"score": 2.184549, "link": "http://dbpedia.org/resource/Utah"}, 
{"score": 2.165160, "link": "http://dbpedia.org/resource/Cape_Town"}, 
{"score": 2.103936, "link": "http://dbpedia.org/resource/Joan_Jett"}, 
{"score": 2.090729, "link": "http://dbpedia.org/resource/Cyndi_Lauper"}, 
{"score": 2.089673, "link": "http://dbpedia.org/resource/Kerala"}, 
{"score": 2.086879, "link": "http://dbpedia.org/resource/Idaho"}, 
{"score": 2.086471, "link": "http://dbpedia.org/resource/Andy_Williams"}, 
{"score": 2.079956, "link": "http://dbpedia.org/resource/Pete_Townshend"}, 
{"score": 2.071747, "link": "http://dbpedia.org/resource/John_Lennon"}, 
{"score": 2.064852, "link": "http://dbpedia.org/resource/Cher"}, 
{"score": 2.053965, "link": "http://dbpedia.org/resource/Duane_Eddy"}, 
{"score": 2.050204, "link": "http://dbpedia.org/resource/Boise,_Idaho"}, 
{"score": 2.046451, "link": "http://dbpedia.org/resource/Uttar_Pradesh"}, 
{"score": 2.046073, "link": "http://dbpedia.org/resource/Saudi_Arabia"}, 
{"score": 2.041449, "link": "http://dbpedia.org/resource/India"}, 
{"score": 2.040846, "link": "http://dbpedia.org/resource/Gautama_Buddha"}, 
{"score": 2.036470, "link": "http://dbpedia.org/resource/Vasco_da_Gama"}, 
{"score": 2.029315, "link": "http://dbpedia.org/resource/Madhya_Pradesh"}, 
{"score": 2.027685, "link": "http://dbpedia.org/resource/Bing_Crosby"}, 
{"score": 2.025803, "link": "http://dbpedia.org/resource/David_Bowie"}, 
{"score": 2.023361, "link": "http://dbpedia.org/resource/Donna_Summer"}, 
{"score": 2.019435, "link": "http://dbpedia.org/resource/Tom_Wolfe"}, 
{"score": 2.016800, "link": "http://dbpedia.org/resource/Phil_Collins"}, 
{"score": 2.013696, "link": "http://dbpedia.org/resource/Patti_Smith"}, 
{"score": 2.012068, "link": "http://dbpedia.org/resource/Barry_White"}, 
{"score": 2.011514, "link": "http://dbpedia.org/resource/Gus_Van_Sant"}, 
{"score": 2.010951, "link": "http://dbpedia.org/resource/Desmond_Tutu"}, 
{"score": 2.010555, "link": "http://dbpedia.org/resource/Judy_Garland"}, 
{"score": 2.010132, "link": "http://dbpedia.org/resource/Sean_Combs"}, 
{"score": 2.002938, "link": "http://dbpedia.org/resource/Kanye_West"}, 
{"score": 2.000864, "link": "http://dbpedia.org/resource/Karachi"}, 
{"score": 1.988023, "link": "http://dbpedia.org/resource/Tommy_Dorsey"}, 
{"score": 1.987056, "link": "http://dbpedia.org/resource/Shimla"}, 
{"score": 1.983586, "link": "http://dbpedia.org/resource/David_Essex"}, 
{"score": 1.983546, "link": "http://dbpedia.org/resource/Paul_McCartney"}, 
{"score": 1.982084, "link": "http://dbpedia.org/resource/Wyatt_Earp"}, 
{"score": 1.977560, "link": "http://dbpedia.org/resource/Denver"}, 
{"score": 1.977510, "link": "http://dbpedia.org/resource/Neil_Young"}, 
{"score": 1.976472, "link": "http://dbpedia.org/resource/Brian_May"}, 
{"score": 1.974502, "link": "http://dbpedia.org/resource/West_Bromwich"}, 
{"score": 1.973215, "link": "http://dbpedia.org/resource/Manhattan"}, 
{"score": 1.968647, "link": "http://dbpedia.org/resource/Robert_Wyatt"}, 
{"score": 1.968018, "link": "http://dbpedia.org/resource/Gaza_Strip"}, 
{"score": 1.967892, "link": "http://dbpedia.org/resource/Gujarat"}, 
{"score": 1.967839, "link": "http://dbpedia.org/resource/Perry_Como"}, 
{"score": 1.966861, "link": "http://dbpedia.org/resource/Snoop_Dogg"}, 
{"score": 1.958739, "link": "http://dbpedia.org/resource/Andy_Devine"}, 
{"score": 1.957297, "link": "http://dbpedia.org/resource/Taiwan"}, 
{"score": 1.956600, "link": "http://dbpedia.org/resource/Dinah_Washington"}, 
{"score": 1.954969, "link": "http://dbpedia.org/resource/Tina_Turner"}, 
{"score": 1.953894, "link": "http://dbpedia.org/resource/Frank_Sinatra"}, 
{"score": 1.952352, "link": "http://dbpedia.org/resource/Tim_Buckley"}, 
{"score": 1.951305, "link": "http://dbpedia.org/resource/Elton_John"}, 
{"score": 1.950979, "link": "http://dbpedia.org/resource/West_Virginia"}, 
{"score": 1.948079, "link": "http://dbpedia.org/resource/Trey_Parker"}, 
{"score": 1.946714, "link": "http://dbpedia.org/resource/Bobby_Rydell"}, 
{"score": 1.945954, "link": "http://dbpedia.org/resource/Judy_Collins"}, 
{"score": 1.945451, "link": "http://dbpedia.org/resource/Pretoria"}, 
{"score": 1.944941, "link": "http://dbpedia.org/resource/Matt_Stone"}, 
{"score": 1.944565, "link": "http://dbpedia.org/resource/Brazil"}, 
{"score": 1.943522, "link": "http://dbpedia.org/resource/Frank_Loesser"}, 
{"score": 1.942921, "link": "http://dbpedia.org/resource/Sidney_Samson"}, 
{"score": 1.941992, "link": "http://dbpedia.org/resource/Christopher_Lloyd"}, 
{"score": 1.940575, "link": "http://dbpedia.org/resource/Jimi_Hendrix"}, 
{"score": 1.940494, "link": "http://dbpedia.org/resource/Sean_Paul"}, 
{"score": 1.939280, "link": "http://dbpedia.org/resource/Milton_Berle"}, 
{"score": 1.934947, "link": "http://dbpedia.org/resource/Betty_White"}, 
{"score": 1.933406, "link": "http://dbpedia.org/resource/Harry_Nilsson"}, 
{"score": 1.931560, "link": "http://dbpedia.org/resource/Wyoming"}, 
{"score": 1.929849, "link": "http://dbpedia.org/resource/Matt_Lucas"}, 
{"score": 1.929669, "link": "http://dbpedia.org/resource/Pete_Seeger"}, 
{"score": 1.928894, "link": "http://dbpedia.org/resource/Mariah_Carey"}, 
{"score": 1.928173, "link": "http://dbpedia.org/resource/Gateshead"}, 
{"score": 1.927309, "link": "http://dbpedia.org/resource/Hank_Marvin"}, 
{"score": 1.927067, "link": "http://dbpedia.org/resource/Ronnie_Wood"}, 
{"score": 1.925451, "link": "http://dbpedia.org/resource/Wisconsin"}, 
{"score": 1.924727, "link": "http://dbpedia.org/resource/Jennifer_Warnes"}, 
{"score": 1.924252, "link": "http://dbpedia.org/resource/East_Germany"}, 
{"score": 1.922907, "link": "http://dbpedia.org/resource/Colorado"}, 
{"score": 1.922306, "link": "http://dbpedia.org/resource/West_Yorkshire"}, 
{"score": 1.922080, "link": "http://dbpedia.org/resource/Diana_Ross"}, 
{"score": 1.920812, "link": "http://dbpedia.org/resource/Dwight_Yoakam"}, 
{"score": 1.920694, "link": "http://dbpedia.org/resource/Oregon"}, 
{"score": 1.920402, "link": "http://dbpedia.org/resource/Muddy_Waters"}, 
{"score": 1.920355, "link": "http://dbpedia.org/resource/Johnny_Thunders"}, 
{"score": 1.919799, "link": "http://dbpedia.org/resource/Big_Youth"}, 
{"score": 1.919614, "link": "http://dbpedia.org/resource/Phil_Coulter"}, 
{"score": 1.918538, "link": "http://dbpedia.org/resource/Oklahoma"}, 
{"score": 1.917112, "link": "http://dbpedia.org/resource/Elaine_Paige"}, 
{"score": 1.916381, "link": "http://dbpedia.org/resource/Mark_Ronson"}, 
{"score": 1.914138, "link": "http://dbpedia.org/resource/Ritchie_Valens"}, 
{"score": 1.913802, "link": "http://dbpedia.org/resource/Bihar"}, 
{"score": 1.911000, "link": "http://dbpedia.org/resource/Lou_Reed"}, 
{"score": 1.908557, "link": "http://dbpedia.org/resource/Jeff_Beck"}, 
{"score": 1.908423, "link": "http://dbpedia.org/resource/Bali"}, 
{"score": 1.906344, "link": "http://dbpedia.org/resource/Buddy_Holly"}, 
{"score": 1.905792, "link": "http://dbpedia.org/resource/Alice_Cooper"}, 
{"score": 1.905288, "link": "http://dbpedia.org/resource/Tim_Westwood"}, 
{"score": 1.904888, "link": "http://dbpedia.org/resource/Billy_Ocean"}, 
{"score": 1.904476, "link": "http://dbpedia.org/resource/Kenny_Rogers"}, 
{"score": 1.903982, "link": "http://dbpedia.org/resource/Beach"}, 
{"score": 1.902635, "link": "http://dbpedia.org/resource/Ted_Nugent"}, 
{"score": 1.902587, "link": "http://dbpedia.org/resource/George_Michael"}, 
{"score": 1.902455, "link": "http://dbpedia.org/resource/Oman"}, 
{"score": 1.902279, "link": "http://dbpedia.org/resource/Western_Cape"}, 
{"score": 1.901602, "link": "http://dbpedia.org/resource/Hadrian"}, 
{"score": 1.901410, "link": "http://dbpedia.org/resource/Pete_Tong"}, 
{"score": 1.901001, "link": "http://dbpedia.org/resource/David_Guetta"}, 
{"score": 1.899953, "link": "http://dbpedia.org/resource/Jerusalem"}, 
{"score": 1.899462, "link": "http://dbpedia.org/resource/Phil_Manzanera"}, 
{"score": 1.899380, "link": "http://dbpedia.org/resource/Peter_Gabriel"}, 
{"score": 1.898432, "link": "http://dbpedia.org/resource/Adelaide"}, 
{"score": 1.898364, "link": "http://dbpedia.org/resource/Charlotte,_North_Carolina"}, 
{"score": 1.897592, "link": "http://dbpedia.org/resource/Indian_subcontinent"}, 
{"score": 1.897314, "link": "http://dbpedia.org/resource/Arizona"}, 
{"score": 1.896533, "link": "http://dbpedia.org/resource/Phil_Lynott"}, 
{"score": 1.894835, "link": "http://dbpedia.org/resource/Gary_Numan"}, 
{"score": 1.894172, "link": "http://dbpedia.org/resource/Peggy_Lee"}, 
{"score": 1.893368, "link": "http://dbpedia.org/resource/Carl_Yastrzemski"}, 
{"score": 1.892624, "link": "http://dbpedia.org/resource/Roy_Harper"}, 
{"score": 1.892497, "link": "http://dbpedia.org/resource/Paul_Oakenfold"}, 
{"score": 1.892417, "link": "http://dbpedia.org/resource/Syria"}, 
{"score": 1.892254, "link": "http://dbpedia.org/resource/Rod_Stewart"}, 
{"score": 1.891074, "link": "http://dbpedia.org/resource/Lil_Wayne"}, 
{"score": 1.890402, "link": "http://dbpedia.org/resource/Tony_Blair"}, 
{"score": 1.890389, "link": "http://dbpedia.org/resource/England"}, 
{"score": 1.889308, "link": "http://dbpedia.org/resource/Pat_Metheny"}, 
{"score": 1.889059, "link": "http://dbpedia.org/resource/South_America"}, 
{"score": 1.888983, "link": "http://dbpedia.org/resource/Charleston,_South_Carolina"}, 
{"score": 1.888006, "link": "http://dbpedia.org/resource/Benny_Goodman"}, 
{"score": 1.887596, "link": "http://dbpedia.org/resource/Nepal"}, 
{"score": 1.885846, "link": "http://dbpedia.org/resource/Liberace"}, 
{"score": 1.884801, "link": "http://dbpedia.org/resource/Perth,_Western_Australia"}, 
{"score": 1.884569, "link": "http://dbpedia.org/resource/South_Shields"}, 
{"score": 1.883558, "link": "http://dbpedia.org/resource/Eminem"}, 
{"score": 1.883000, "link": "http://dbpedia.org/resource/Sandie_Shaw"}, 
{"score": 1.882925, "link": "http://dbpedia.org/resource/Bob_Hope"}, 
{"score": 1.882285, "link": "http://dbpedia.org/resource/James_Dean"}, 
{"score": 1.881736, "link": "http://dbpedia.org/resource/Robert_Plant"}, 
{"score": 1.879789, "link": "http://dbpedia.org/resource/Rickie_Lee_Jones"}, 
{"score": 1.878246, "link": "http://dbpedia.org/resource/Danny_Kaye"}, 
{"score": 1.878047, "link": "http://dbpedia.org/resource/Roger_Waters"}, 
{"score": 1.877473, "link": "http://dbpedia.org/resource/Billy_Preston"}, 
{"score": 1.877470, "link": "http://dbpedia.org/resource/Count_Basie"}, 
{"score": 1.877393, "link": "http://dbpedia.org/resource/Al_Stewart"}, 
{"score": 1.876338, "link": "http://dbpedia.org/resource/Tom_Petty"}, 
{"score": 1.876099, "link": "http://dbpedia.org/resource/Edie_Falco"}, 
{"score": 1.875808, "link": "http://dbpedia.org/resource/Tony_Rice"}, 
{"score": 1.875768, "link": "http://dbpedia.org/resource/Florence"}, 
{"score": 1.874954, "link": "http://dbpedia.org/resource/Grace_Jones"}, 
{"score": 1.873866, "link": "http://dbpedia.org/resource/Mr_Hudson"}, 
{"score": 1.873661, "link": "http://dbpedia.org/resource/Dizzee_Rascal"}, 
{"score": 1.872780, "link": "http://dbpedia.org/resource/Shania_Twain"}, 
{"score": 1.872024, "link": "http://dbpedia.org/resource/Jharkhand"}, 
{"score": 1.871859, "link": "http://dbpedia.org/resource/DJ_Mehdi"}, 
{"score": 1.871765, "link": "http://dbpedia.org/resource/Billy_Crystal"}, 
{"score": 1.871623, "link": "http://dbpedia.org/resource/Hannibal"}, 
{"score": 1.871560, "link": "http://dbpedia.org/resource/Matt_Damon"}, 
{"score": 1.869677, "link": "http://dbpedia.org/resource/Willie_Nelson"}, 
{"score": 1.869565, "link": "http://dbpedia.org/resource/Nick_Lowe"}, 
{"score": 1.869277, "link": "http://dbpedia.org/resource/Harry_Belafonte"}, 
{"score": 1.869110, "link": "http://dbpedia.org/resource/Sidney_Poitier"}, 
{"score": 1.868784, "link": "http://dbpedia.org/resource/Mecca"}, 
{"score": 1.868061, "link": "http://dbpedia.org/resource/Hollywood"}, 
{"score": 1.867947, "link": "http://dbpedia.org/resource/Western_Australia"}, 
{"score": 1.867729, "link": "http://dbpedia.org/resource/Cardiff"}, 
{"score": 1.867459, "link": "http://dbpedia.org/resource/Val_Kilmer"}, 
{"score": 1.867317, "link": "http://dbpedia.org/resource/Kelly_Rowland"}, 
{"score": 1.867278, "link": "http://dbpedia.org/resource/British_Raj"}, 
{"score": 1.867277, "link": "http://dbpedia.org/resource/Tammy_Wynette"}, 
{"score": 1.866580, "link": "http://dbpedia.org/resource/Yasser_Arafat"}, 
{"score": 1.866566, "link": "http://dbpedia.org/resource/Shiraz"}, 
{"score": 1.866320, "link": "http://dbpedia.org/resource/South_Africa"}, 
{"score": 1.865263, "link": "http://dbpedia.org/resource/Billy_Joel"}, 
{"score": 1.864477, "link": "http://dbpedia.org/resource/Alicia_Keys"}, 
{"score": 1.862719, "link": "http://dbpedia.org/resource/Tom_Paxton"}, 
{"score": 1.862600, "link": "http://dbpedia.org/resource/Neil_Warnock"}, 
{"score": 1.862460, "link": "http://dbpedia.org/resource/Shelley_Winters"}, 
{"score": 1.862083, "link": "http://dbpedia.org/resource/Humphrey_Bogart"}, 
{"score": 1.861887, "link": "http://dbpedia.org/resource/North_Carolina"}, 
{"score": 1.861670, "link": "http://dbpedia.org/resource/Detroit"}, 
{"score": 1.859517, "link": "http://dbpedia.org/resource/Lowestoft"}, 
{"score": 1.858694, "link": "http://dbpedia.org/resource/Seth_Rogen"}, 
{"score": 1.858046, "link": "http://dbpedia.org/resource/Donnie_Wahlberg"}, 
{"score": 1.857779, "link": "http://dbpedia.org/resource/Frank_Zappa"}, 
{"score": 1.857260, "link": "http://dbpedia.org/resource/Maida_Vale"}, 
{"score": 1.857029, "link": "http://dbpedia.org/resource/Croydon"}, 
{"score": 1.856900, "link": "http://dbpedia.org/resource/Nelson_Mandela"}, 
{"score": 1.856389, "link": "http://dbpedia.org/resource/Bhopal"}, 
{"score": 1.856235, "link": "http://dbpedia.org/resource/Pennsylvania"}, 
{"score": 1.854852, "link": "http://dbpedia.org/resource/Palm_Springs,_California"}, 
{"score": 1.854670, "link": "http://dbpedia.org/resource/Soweto"}, 
{"score": 1.854658, "link": "http://dbpedia.org/resource/Dr._John"}, 
{"score": 1.854556, "link": "http://dbpedia.org/resource/Eric_Clapton"}, 
{"score": 1.854451, "link": "http://dbpedia.org/resource/Gary_Busey"}, 
{"score": 1.853159, "link": "http://dbpedia.org/resource/Oaxaca"}, 
{"score": 1.853051, "link": "http://dbpedia.org/resource/Elvis_Costello"}, 
{"score": 1.852880, "link": "http://dbpedia.org/resource/Nevada"}, 
{"score": 1.852618, "link": "http://dbpedia.org/resource/Sammy_Davis,_Jr."}, 
{"score": 1.850797, "link": "http://dbpedia.org/resource/Brian_Eno"}, 
{"score": 1.850710, "link": "http://dbpedia.org/resource/Accra"}, 
{"score": 1.850486, "link": "http://dbpedia.org/resource/Kim_Darby"}, 
{"score": 1.848629, "link": "http://dbpedia.org/resource/Twiggy"}, 
{"score": 1.847979, "link": "http://dbpedia.org/resource/Big_Boi"}, 
{"score": 1.847818, "link": "http://dbpedia.org/resource/Gaza"}, 
{"score": 1.846648, "link": "http://dbpedia.org/resource/North_Korea"}, 
{"score": 1.846402, "link": "http://dbpedia.org/resource/Valletta"}, 
{"score": 1.845786, "link": "http://dbpedia.org/resource/Bob_Dylan"}, 
{"score": 1.844614, "link": "http://dbpedia.org/resource/Neil_Tennant"}, 
{"score": 1.844466, "link": "http://dbpedia.org/resource/Delhi"}, 
{"score": 1.843682, "link": "http://dbpedia.org/resource/North_Dakota"}, 
{"score": 1.843530, "link": "http://dbpedia.org/resource/Cat_Stevens"}, 
{"score": 1.843404, "link": "http://dbpedia.org/resource/Bangkok"}, 
{"score": 1.843195, "link": "http://dbpedia.org/resource/Africa"}, 
{"score": 1.842914, "link": "http://dbpedia.org/resource/Tom_Robinson"}, 
{"score": 1.842770, "link": "http://dbpedia.org/resource/Dean_Martin"}, 
{"score": 1.842536, "link": "http://dbpedia.org/resource/Doc_Holliday"}, 
{"score": 1.842065, "link": "http://dbpedia.org/resource/Chichester"}, 
{"score": 1.840829, "link": "http://dbpedia.org/resource/Boston"}, 
{"score": 1.840763, "link": "http://dbpedia.org/resource/Ludacris"}, 
{"score": 1.840574, "link": "http://dbpedia.org/resource/Kurt_Cobain"}, 
{"score": 1.840246, "link": "http://dbpedia.org/resource/Noel_Edmonds"}, 
{"score": 1.839535, "link": "http://dbpedia.org/resource/Kylie_Minogue"}, 
{"score": 1.838939, "link": "http://dbpedia.org/resource/Shirley_Bassey"}, 
{"score": 1.838841, "link": "http://dbpedia.org/resource/Natalie_Wood"}, 
{"score": 1.838701, "link": "http://dbpedia.org/resource/Andy_Mackay"}, 
{"score": 1.838460, "link": "http://dbpedia.org/resource/Leon_Russell"}, 
{"score": 1.837884, "link": "http://dbpedia.org/resource/Mae_West"}, 
{"score": 1.837429, "link": "http://dbpedia.org/resource/Stevie_Nicks"}, 
{"score": 1.837128, "link": "http://dbpedia.org/resource/Lytham_St_Annes"}, 
{"score": 1.836592, "link": "http://dbpedia.org/resource/Jimmy_Cliff"}, 
{"score": 1.835320, "link": "http://dbpedia.org/resource/Phil_Mickelson"}, 
{"score": 1.834829, "link": "http://dbpedia.org/resource/Jack_Black"}, 
{"score": 1.834619, "link": "http://dbpedia.org/resource/Debbie_Harry"}, 
{"score": 1.834578, "link": "http://dbpedia.org/resource/Ned_Beatty"}, 
{"score": 1.834377, "link": "http://dbpedia.org/resource/Robert_Maxwell"}, 
{"score": 1.834305, "link": "http://dbpedia.org/resource/Brighton"}, 
{"score": 1.833931, "link": "http://dbpedia.org/resource/Mumbai"}, 
{"score": 1.833834, "link": "http://dbpedia.org/resource/Meat_Loaf"}, 
{"score": 1.833753, "link": "http://dbpedia.org/resource/Billy_Idol"}, 
{"score": 1.833751, "link": "http://dbpedia.org/resource/Kabul"}, 
{"score": 1.833002, "link": "http://dbpedia.org/resource/Solomon"}, 
{"score": 1.832933, "link": "http://dbpedia.org/resource/Thom_Yorke"}, 
{"score": 1.832905, "link": "http://dbpedia.org/resource/Dili"}, 
{"score": 1.832719, "link": "http://dbpedia.org/resource/California"}, 
{"score": 1.832650, "link": "http://dbpedia.org/resource/Kenya"}, 
{"score": 1.832351, "link": "http://dbpedia.org/resource/James_Dean_Bradfield"}, 
{"score": 1.831851, "link": "http://dbpedia.org/resource/Stratford,_London"}, 
{"score": 1.831698, "link": "http://dbpedia.org/resource/Justin_Timberlake"}, 
{"score": 1.831421, "link": "http://dbpedia.org/resource/The_Beach_Boys"}, 
{"score": 1.831150, "link": "http://dbpedia.org/resource/Tamil_Nadu"}, 
{"score": 1.830981, "link": "http://dbpedia.org/resource/Mary_J._Blige"}, 
{"score": 1.830849, "link": "http://dbpedia.org/resource/Johannesburg"}, 
{"score": 1.830582, "link": "http://dbpedia.org/resource/Padstow"}, 
{"score": 1.830374, "link": "http://dbpedia.org/resource/Utah_Saints"}, 
{"score": 1.830147, "link": "http://dbpedia.org/resource/Kwame_Nkrumah"}, 
{"score": 1.828435, "link": "http://dbpedia.org/resource/DJ_Yoda"}, 
{"score": 1.828157, "link": "http://dbpedia.org/resource/Phill_Jupitus"}, 
{"score": 1.828077, "link": "http://dbpedia.org/resource/Carl_Perkins"}, 
{"score": 1.826407, "link": "http://dbpedia.org/resource/Harlow"}, 
{"score": 1.825801, "link": "http://dbpedia.org/resource/Bobby_Darin"}, 
{"score": 1.825633, "link": "http://dbpedia.org/resource/Oprah_Winfrey"}, 
{"score": 1.825131, "link": "http://dbpedia.org/resource/Los_Angeles"}, 
{"score": 1.824360, "link": "http://dbpedia.org/resource/Ascension_Island"}, 
{"score": 1.824264, "link": "http://dbpedia.org/resource/Joe_Cocker"}, 
{"score": 1.824210, "link": "http://dbpedia.org/resource/Shelby_Lynne"}, 
{"score": 1.824047, "link": "http://dbpedia.org/resource/Sid_Owen"}, 
{"score": 1.823761, "link": "http://dbpedia.org/resource/City"}, 
{"score": 1.823443, "link": "http://dbpedia.org/resource/Victoria_Wood"}, 
{"score": 1.823410, "link": "http://dbpedia.org/resource/Johnny_Mathis"}, 
{"score": 1.823314, "link": "http://dbpedia.org/resource/Anne_Murray"}, 
{"score": 1.822574, "link": "http://dbpedia.org/resource/Maya_Angelou"}, 
{"score": 1.822386, "link": "http://dbpedia.org/resource/Adam_West"}, 
{"score": 1.822047, "link": "http://dbpedia.org/resource/Alan_Price"}, 
{"score": 1.821963, "link": "http://dbpedia.org/resource/Francis_of_Assisi"}, 
{"score": 1.821532, "link": "http://dbpedia.org/resource/Rick_Wakeman"}, 
{"score": 1.821132, "link": "http://dbpedia.org/resource/Billy_Bragg"}, 
{"score": 1.820872, "link": "http://dbpedia.org/resource/Pat_Boone"}, 
{"score": 1.820375, "link": "http://dbpedia.org/resource/Dyan_Cannon"}, 
{"score": 1.820316, "link": "http://dbpedia.org/resource/Alison_Moyet"}, 
{"score": 1.820228, "link": "http://dbpedia.org/resource/Humphrey_Lyttelton"}, 
{"score": 1.820067, "link": "http://dbpedia.org/resource/South_Dakota"}, 
{"score": 1.819775, "link": "http://dbpedia.org/resource/Harrison_Ford"}, 
{"score": 1.819304, "link": "http://dbpedia.org/resource/Ida_Lupino"}, 
{"score": 1.819137, "link": "http://dbpedia.org/resource/Leona_Lewis"}, 
{"score": 1.818618, "link": "http://dbpedia.org/resource/Cape_Verde"}, 
{"score": 1.818576, "link": "http://dbpedia.org/resource/Danny_Glover"}, 
{"score": 1.818263, "link": "http://dbpedia.org/resource/Magic_Johnson"}, 
{"score": 1.817945, "link": "http://dbpedia.org/resource/Ryan_Adams"}, 
{"score": 1.817707, "link": "http://dbpedia.org/resource/Tony_Richardson"}, 
{"score": 1.817700, "link": "http://dbpedia.org/resource/North_Uist"}, 
{"score": 1.817607, "link": "http://dbpedia.org/resource/Tim_Allen"}, 
{"score": 1.817396, "link": "http://dbpedia.org/resource/Qatar"}, 
{"score": 1.817077, "link": "http://dbpedia.org/resource/Dorset"}, 
{"score": 1.816263, "link": "http://dbpedia.org/resource/Pablo_Escobar"}, 
{"score": 1.815732, "link": "http://dbpedia.org/resource/Buddy_Guy"}, 
{"score": 1.815629, "link": "http://dbpedia.org/resource/Neil_Diamond"}, 
{"score": 1.815317, "link": "http://dbpedia.org/resource/Timothy_B._Schmit"}, 
{"score": 1.814656, "link": "http://dbpedia.org/resource/Kaohsiung"}, 
{"score": 1.814501, "link": "http://dbpedia.org/resource/Jeanette_Winterson"}, 
{"score": 1.814404, "link": "http://dbpedia.org/resource/Tito_Puente"}, 
{"score": 1.814372, "link": "http://dbpedia.org/resource/Josh_Homme"}, 
{"score": 1.814198, "link": "http://dbpedia.org/resource/Chuck_Berry"}, 
{"score": 1.813963, "link": "http://dbpedia.org/resource/Tim_Conway"}, 
{"score": 1.813512, "link": "http://dbpedia.org/resource/Dawn_French"}, 
{"score": 1.813406, "link": "http://dbpedia.org/resource/Alice_Walker"}, 
{"score": 1.813086, "link": "http://dbpedia.org/resource/Peggy_Cummins"}, 
{"score": 1.812814, "link": "http://dbpedia.org/resource/Tony_Robinson"}, 
{"score": 1.812784, "link": "http://dbpedia.org/resource/Roman_Empire"}, 
{"score": 1.812545, "link": "http://dbpedia.org/resource/Alaska"}, 
{"score": 1.812138, "link": "http://dbpedia.org/resource/Nigel_Kennedy"}, 
{"score": 1.811666, "link": "http://dbpedia.org/resource/Louis_Armstrong"}, 
{"score": 1.811581, "link": "http://dbpedia.org/resource/Leroy_Sibbles"}, 
{"score": 1.810994, "link": "http://dbpedia.org/resource/Lena_Horne"}, 
{"score": 1.810896, "link": "http://dbpedia.org/resource/Cliff_Richard"}, 
{"score": 1.810650, "link": "http://dbpedia.org/resource/Khartoum"}, 
{"score": 1.810645, "link": "http://dbpedia.org/resource/Sonoma_County,_California"}, 
{"score": 1.810395, "link": "http://dbpedia.org/resource/James_Stewart"}, 
{"score": 1.809802, "link": "http://dbpedia.org/resource/Tom_Waits"}, 
{"score": 1.809733, "link": "http://dbpedia.org/resource/Kele_Okereke"}, 
{"score": 1.809564, "link": "http://dbpedia.org/resource/Patrick_Swayze"}, 
{"score": 1.809521, "link": "http://dbpedia.org/resource/Diana_Krall"}, 
{"score": 1.808639, "link": "http://dbpedia.org/resource/Woody_Allen"}, 
{"score": 1.808455, "link": "http://dbpedia.org/resource/Patty_Duke"}, 
{"score": 1.808425, "link": "http://dbpedia.org/resource/Ciara"}, 
{"score": 1.808285, "link": "http://dbpedia.org/resource/Solihull"}, 
{"score": 1.807833, "link": "http://dbpedia.org/resource/Van_Morrison"}, 
{"score": 1.807617, "link": "http://dbpedia.org/resource/George_Carlin"}, 
{"score": 1.807281, "link": "http://dbpedia.org/resource/Mr._T"}, 
{"score": 1.807268, "link": "http://dbpedia.org/resource/Richard_Pryor"}, 
{"score": 1.806927, "link": "http://dbpedia.org/resource/Tasmania"}, 
{"score": 1.806647, "link": "http://dbpedia.org/resource/Tony_Christie"}, 
{"score": 1.806629, "link": "http://dbpedia.org/resource/Rosemary_Clooney"}, 
{"score": 1.806516, "link": "http://dbpedia.org/resource/Jodie_Foster"}, 
{"score": 1.806370, "link": "http://dbpedia.org/resource/Savannah,_Georgia"}, 
{"score": 1.806342, "link": "http://dbpedia.org/resource/Sandi_Toksvig"}, 
{"score": 1.805535, "link": "http://dbpedia.org/resource/Gary_Sandy"}, 
{"score": 1.805484, "link": "http://dbpedia.org/resource/Lauren_Bacall"}, 
{"score": 1.805374, "link": "http://dbpedia.org/resource/Noel_Fielding"}, 
{"score": 1.805182, "link": "http://dbpedia.org/resource/Duke_Ellington"}, 
{"score": 1.804618, "link": "http://dbpedia.org/resource/Cumbria"}, 
{"score": 1.804359, "link": "http://dbpedia.org/resource/RZA"}, 
{"score": 1.804278, "link": "http://dbpedia.org/resource/Phil_Spector"}, 
{"score": 1.804232, "link": "http://dbpedia.org/resource/Ottawa"}, 
{"score": 1.803867, "link": "http://dbpedia.org/resource/George_Shearing"}, 
{"score": 1.803127, "link": "http://dbpedia.org/resource/Kings_Heath"}, 
{"score": 1.802718, "link": "http://dbpedia.org/resource/Ted_Demme"}, 
{"score": 1.802344, "link": "http://dbpedia.org/resource/Scotland"}, 
{"score": 1.802066, "link": "http://dbpedia.org/resource/Beardyman"}, 
{"score": 1.801732, "link": "http://dbpedia.org/resource/Atlanta"}, 
{"score": 1.801444, "link": "http://dbpedia.org/resource/Damascus"}, 
{"score": 1.801363, "link": "http://dbpedia.org/resource/Vermont"}, 
{"score": 1.801093, "link": "http://dbpedia.org/resource/Ralph_McTell"}, 
{"score": 1.800159, "link": "http://dbpedia.org/resource/Katy_Perry"}, 
{"score": 1.799974, "link": "http://dbpedia.org/resource/Mark_Antony"}, 
{"score": 1.799951, "link": "http://dbpedia.org/resource/Beth_Orton"}, 
{"score": 1.799497, "link": "http://dbpedia.org/resource/Rob_Lowe"}, 
{"score": 1.799428, "link": "http://dbpedia.org/resource/Dubrovnik"}, 
{"score": 1.799219, "link": "http://dbpedia.org/resource/Assam"}, 
{"score": 1.799151, "link": "http://dbpedia.org/resource/Luther_Vandross"}, 
{"score": 1.798863, "link": "http://dbpedia.org/resource/Rio_de_Janeiro"}, 
{"score": 1.798636, "link": "http://dbpedia.org/resource/Antonio_Banderas"}, 
{"score": 1.798563, "link": "http://dbpedia.org/resource/Nick_Drake"}, 
{"score": 1.797863, "link": "http://dbpedia.org/resource/Salman_Rushdie"}, 
{"score": 1.797672, "link": "http://dbpedia.org/resource/Eddi_Reader"}, 
{"score": 1.797627, "link": "http://dbpedia.org/resource/Frankie_Vaughan"}, 
{"score": 1.797362, "link": "http://dbpedia.org/resource/Benny_Carter"}, 
{"score": 1.797307, "link": "http://dbpedia.org/resource/Michigan"}, 
{"score": 1.797176, "link": "http://dbpedia.org/resource/Janet_Jackson"}, 
{"score": 1.797115, "link": "http://dbpedia.org/resource/David_Millar"}, 
{"score": 1.796672, "link": "http://dbpedia.org/resource/Roy_Orbison"}, 
{"score": 1.796247, "link": "http://dbpedia.org/resource/Georgie_Fame"}, 
{"score": 1.796035, "link": "http://dbpedia.org/resource/San_Antonio"}, 
{"score": 1.795608, "link": "http://dbpedia.org/resource/Whitney_Houston"}, 
{"score": 1.795515, "link": "http://dbpedia.org/resource/Method_Man"}, 
{"score": 1.795323, "link": "http://dbpedia.org/resource/Eric_Andersen"}, 
{"score": 1.795317, "link": "http://dbpedia.org/resource/Neil_Finn"}, 
{"score": 1.794745, "link": "http://dbpedia.org/resource/Curtis_Mayfield"}, 
{"score": 1.793401, "link": "http://dbpedia.org/resource/Bryan_Ferry"}, 
{"score": 1.793044, "link": "http://dbpedia.org/resource/Burt_Lancaster"}, 
{"score": 1.792659, "link": "http://dbpedia.org/resource/Bamako"}, 
{"score": 1.792582, "link": "http://dbpedia.org/resource/Hugh_Masekela"}, 
{"score": 1.791944, "link": "http://dbpedia.org/resource/Jeff_Buckley"}, 
{"score": 1.791796, "link": "http://dbpedia.org/resource/Haiti"}, 
{"score": 1.791737, "link": "http://dbpedia.org/resource/Bissau"}, 
{"score": 1.791509, "link": "http://dbpedia.org/resource/Paul_Merton"}, 
{"score": 1.791423, "link": "http://dbpedia.org/resource/Vietnam"}, 
{"score": 1.791079, "link": "http://dbpedia.org/resource/Bodmin"}, 
{"score": 1.790567, "link": "http://dbpedia.org/resource/John_Travolta"}, 
{"score": 1.790185, "link": "http://dbpedia.org/resource/Woody_Harrelson"}, 
{"score": 1.790025, "link": "http://dbpedia.org/resource/Joss_Stone"}, 
{"score": 1.789935, "link": "http://dbpedia.org/resource/Nelly"}, 
{"score": 1.789513, "link": "http://dbpedia.org/resource/Barry_Gibb"}, 
{"score": 1.789510, "link": "http://dbpedia.org/resource/Snettisham"}, 
{"score": 1.788415, "link": "http://dbpedia.org/resource/Melbourne"}, 
{"score": 1.788332, "link": "http://dbpedia.org/resource/John_Cooper_Clarke"}, 
{"score": 1.788257, "link": "http://dbpedia.org/resource/Bangladesh"}, 
{"score": 1.787717, "link": "http://dbpedia.org/resource/Moby"}, 
{"score": 1.787496, "link": "http://dbpedia.org/resource/Nas"}, 
{"score": 1.787227, "link": "http://dbpedia.org/resource/Seth_MacFarlane"}, 
{"score": 1.786074, "link": "http://dbpedia.org/resource/Islamabad"}, 
{"score": 1.786043, "link": "http://dbpedia.org/resource/Ann-Margret"}, 
{"score": 1.786011, "link": "http://dbpedia.org/resource/Andy_Griffith"}, 
{"score": 1.784880, "link": "http://dbpedia.org/resource/Lyme_Regis"}, 
{"score": 1.784825, "link": "http://dbpedia.org/resource/Sandy_Denny"}, 
{"score": 1.784537, "link": "http://dbpedia.org/resource/Isle_of_Wight"}, 
{"score": 1.784412, "link": "http://dbpedia.org/resource/Judy_Davis"}, 
{"score": 1.784285, "link": "http://dbpedia.org/resource/Mark_E._Smith"}, 
{"score": 1.784152, "link": "http://dbpedia.org/resource/Donald_Campbell"}, 
{"score": 1.784125, "link": "http://dbpedia.org/resource/Queensland"}, 
{"score": 1.784052, "link": "http://dbpedia.org/resource/Turkmenistan"}, 
{"score": 1.783623, "link": "http://dbpedia.org/resource/Roman_Republic"}, 
{"score": 1.782866, "link": "http://dbpedia.org/resource/Laidback_Luke"}, 
{"score": 1.782815, "link": "http://dbpedia.org/resource/Dionne_Warwick"}, 
{"score": 1.782636, "link": "http://dbpedia.org/resource/Arundhati_Roy"}, 
{"score": 1.782562, "link": "http://dbpedia.org/resource/Tony_Greig"}, 
{"score": 1.782200, "link": "http://dbpedia.org/resource/Tony_Bennett"}, 
{"score": 1.781912, "link": "http://dbpedia.org/resource/Mick_Jagger"}, 
{"score": 1.781756, "link": "http://dbpedia.org/resource/West_Sussex"}, 
{"score": 1.781593, "link": "http://dbpedia.org/resource/Prague"}, 
{"score": 1.781419, "link": "http://dbpedia.org/resource/Casey_Kasem"}, 
{"score": 1.781340, "link": "http://dbpedia.org/resource/Siena"}, 
{"score": 1.781054, "link": "http://dbpedia.org/resource/Harry_S._Truman"}, 
{"score": 1.780897, "link": "http://dbpedia.org/resource/Palm_Beach,_Florida"}, 
{"score": 1.780758, "link": "http://dbpedia.org/resource/Marianne_Faithfull"}, 
{"score": 1.780654, "link": "http://dbpedia.org/resource/Penang"}, 
{"score": 1.780471, "link": "http://dbpedia.org/resource/Kazakhstan"}, 
{"score": 1.780263, "link": "http://dbpedia.org/resource/Alan_Arkin"}, 
{"score": 1.780124, "link": "http://dbpedia.org/resource/Jim_Reeves"}, 
{"score": 1.779455, "link": "http://dbpedia.org/resource/Stephen_King"}, 
{"score": 1.779397, "link": "http://dbpedia.org/resource/South_Carolina"}, 
{"score": 1.779119, "link": "http://dbpedia.org/resource/Buzz_Aldrin"}, 
{"score": 1.779058, "link": "http://dbpedia.org/resource/Al_Green"}, 
{"score": 1.778840, "link": "http://dbpedia.org/resource/Faisalabad"}, 
{"score": 1.778596, "link": "http://dbpedia.org/resource/Greenwich"}, 
{"score": 1.778134, "link": "http://dbpedia.org/resource/Chris_Rea"}, 
{"score": 1.778097, "link": "http://dbpedia.org/resource/Mexico_City"}, 
{"score": 1.777916, "link": "http://dbpedia.org/resource/Robbie_Savage"}, 
{"score": 1.777666, "link": "http://dbpedia.org/resource/City_of_London"}, 
{"score": 1.777533, "link": "http://dbpedia.org/resource/Ron_Jeremy"}, 
{"score": 1.777366, "link": "http://dbpedia.org/resource/Mosul"}, 
{"score": 1.777229, "link": "http://dbpedia.org/resource/Ice-T"}, 
{"score": 1.777133, "link": "http://dbpedia.org/resource/Kris_Kristofferson"}, 
{"score": 1.776916, "link": "http://dbpedia.org/resource/Pharrell_Williams"}, 
{"score": 1.776518, "link": "http://dbpedia.org/resource/Michael_Morpurgo"}, 
{"score": 1.776389, "link": "http://dbpedia.org/resource/United_Arab_Emirates"}, 
{"score": 1.776343, "link": "http://dbpedia.org/resource/Derby"}, 
{"score": 1.776075, "link": "http://dbpedia.org/resource/John_Lee_Hooker"}, 
{"score": 1.775843, "link": "http://dbpedia.org/resource/Morocco"}, 
{"score": 1.775791, "link": "http://dbpedia.org/resource/Burgess_Meredith"}, 
{"score": 1.775161, "link": "http://dbpedia.org/resource/Gladys_Knight"}, 
{"score": 1.775099, "link": "http://dbpedia.org/resource/Poland"}, 
{"score": 1.774878, "link": "http://dbpedia.org/resource/Nelly_Furtado"}, 
{"score": 1.774767, "link": "http://dbpedia.org/resource/Big_Audio_Dynamite"}, 
{"score": 1.773314, "link": "http://dbpedia.org/resource/Ginger_Baker"}, 
{"score": 1.773226, "link": "http://dbpedia.org/resource/Ken_Dodd"}, 
{"score": 1.773180, "link": "http://dbpedia.org/resource/Steve_Lawrence"}, 
{"score": 1.772858, "link": "http://dbpedia.org/resource/Geoff_Hurst"}, 
{"score": 1.772782, "link": "http://dbpedia.org/resource/Ute_Lemper"}, 
{"score": 1.772419, "link": "http://dbpedia.org/resource/Wet_Wet_Wet"}, 
{"score": 1.772408, "link": "http://dbpedia.org/resource/Johnny_Cash"}, 
{"score": 1.772048, "link": "http://dbpedia.org/resource/Busta_Rhymes"}, 
{"score": 1.771491, "link": "http://dbpedia.org/resource/Tim_Thomerson"}, 
{"score": 1.771361, "link": "http://dbpedia.org/resource/Frank_Cottrell_Boyce"}, 
{"score": 1.771018, "link": "http://dbpedia.org/resource/Maidstone"}, 
{"score": 1.770979, "link": "http://dbpedia.org/resource/BBC_News"}, 
{"score": 1.770947, "link": "http://dbpedia.org/resource/Gailard_Sartain"}, 
{"score": 1.770495, "link": "http://dbpedia.org/resource/Cadel_Evans"}, 
{"score": 1.770477, "link": "http://dbpedia.org/resource/Burton_upon_Trent"}, 
{"score": 1.770403, "link": "http://dbpedia.org/resource/Bettie_Page"}, 
{"score": 1.770253, "link": "http://dbpedia.org/resource/Matt_Willis"}, 
{"score": 1.769225, "link": "http://dbpedia.org/resource/Ben_Stiller"}, 
{"score": 1.768971, "link": "http://dbpedia.org/resource/Patricia_Cornwell"}, 
{"score": 1.768753, "link": "http://dbpedia.org/resource/Brooke_Shields"}, 
{"score": 1.768670, "link": "http://dbpedia.org/resource/Elijah_Wood"}, 
{"score": 1.768397, "link": "http://dbpedia.org/resource/Vikram_Seth"}, 
{"score": 1.767972, "link": "http://dbpedia.org/resource/Algiers"}, 
{"score": 1.767781, "link": "http://dbpedia.org/resource/Leeds"}, 
{"score": 1.767620, "link": "http://dbpedia.org/resource/Kim_Richey"}, 
{"score": 1.767319, "link": "http://dbpedia.org/resource/Pat_Morita"}, 
{"score": 1.767288, "link": "http://dbpedia.org/resource/Patty_Griffin"}, 
{"score": 1.766824, "link": "http://dbpedia.org/resource/Indianapolis"}, 
{"score": 1.766115, "link": "http://dbpedia.org/resource/Eddie_Murphy"}, 
{"score": 1.766016, "link": "http://dbpedia.org/resource/Syd_Barrett"}, 
{"score": 1.766006, "link": "http://dbpedia.org/resource/Chester"}, 
{"score": 1.765719, "link": "http://dbpedia.org/resource/Jimmy_Durante"}, 
{"score": 1.765220, "link": "http://dbpedia.org/resource/Aretha_Franklin"}, 
{"score": 1.765079, "link": "http://dbpedia.org/resource/Bill_Wyman"}, 
{"score": 1.764724, "link": "http://dbpedia.org/resource/Basra"}, 
{"score": 1.764579, "link": "http://dbpedia.org/resource/Greta_Scacchi"}, 
{"score": 1.764525, "link": "http://dbpedia.org/resource/Ray_Charles"}, 
{"score": 1.764370, "link": "http://dbpedia.org/resource/Rhode_Island"}, 
{"score": 1.764311, "link": "http://dbpedia.org/resource/Orlando_Bloom"}, 
{"score": 1.764074, "link": "http://dbpedia.org/resource/Tom_Baker"}, 
{"score": 1.763978, "link": "http://dbpedia.org/resource/Vic_Reeves"}, 
{"score": 1.763362, "link": "http://dbpedia.org/resource/Ipswich"}, 
{"score": 1.763215, "link": "http://dbpedia.org/resource/George_Burns"}, 
{"score": 1.762208, "link": "http://dbpedia.org/resource/Abu_Dhabi"}, 
{"score": 1.752256, "link": "http://dbpedia.org/resource/BBC_Radiophonic_Workshop"}, 
{"score": 1.733537, "link": "http://dbpedia.org/resource/The_Who"}, 
{"score": 1.723104, "link": "http://dbpedia.org/resource/The_Andrews_Sisters"}, 
{"score": 1.716083, "link": "http://dbpedia.org/resource/South_India"}, 
{"score": 1.705206, "link": "http://dbpedia.org/resource/Ninja_Tune"}, 
{"score": 1.704751, "link": "http://dbpedia.org/resource/Hull_City_A.F.C."}, 
{"score": 1.693467, "link": "http://dbpedia.org/resource/Guitar"}, 
{"score": 1.690455, "link": "http://dbpedia.org/resource/The_Black_Keys"}, 
{"score": 1.686492, "link": "http://dbpedia.org/resource/Whitesnake"}, 
{"score": 1.680962, "link": "http://dbpedia.org/resource/West_Bromwich_Albion_F.C."}, 
{"score": 1.680172, "link": "http://dbpedia.org/resource/West_Bank"}, 
{"score": 1.676771, "link": "http://dbpedia.org/resource/Dead_Sea"}, 
{"score": 1.668537, "link": "http://dbpedia.org/resource/Multitrack_recording"}, 
{"score": 1.667926, "link": "http://dbpedia.org/resource/Boys_Like_Girls"}, 
{"score": 1.664823, "link": "http://dbpedia.org/resource/Sheffield_United_F.C."}, 
{"score": 1.661937, "link": "http://dbpedia.org/resource/Bay_City_Rollers"}, 
{"score": 1.659085, "link": "http://dbpedia.org/resource/Tom_Petty_and_the_Heartbreakers"}, 
{"score": 1.658597, "link": "http://dbpedia.org/resource/Bristol_City_F.C."}, 
{"score": 1.658337, "link": "http://dbpedia.org/resource/Leeds_United_A.F.C."}, 
{"score": 1.658018, "link": "http://dbpedia.org/resource/West_Africa"}, 
{"score": 1.657358, "link": "http://dbpedia.org/resource/Millwall_F.C."}, 
{"score": 1.652680, "link": "http://dbpedia.org/resource/Cardiff_City_F.C."}, 
{"score": 1.649877, "link": "http://dbpedia.org/resource/Grateful_Dead"}, 
{"score": 1.647179, "link": "http://dbpedia.org/resource/Primal_Scream"}, 
{"score": 1.646689, "link": "http://dbpedia.org/resource/Swansea_City_A.F.C."}, 
{"score": 1.645306, "link": "http://dbpedia.org/resource/Asda"}, 
{"score": 1.640295, "link": "http://dbpedia.org/resource/Punk_rock"}, 
{"score": 1.638705, "link": "http://dbpedia.org/resource/Northern_pike"}, 
{"score": 1.638636, "link": "http://dbpedia.org/resource/East_Africa"}, 
{"score": 1.637527, "link": "http://dbpedia.org/resource/A.F.C._Bournemouth"}, 
{"score": 1.634222, "link": "http://dbpedia.org/resource/Studio"}, 
{"score": 1.633235, "link": "http://dbpedia.org/resource/Green_Day"}, 
{"score": 1.633226, "link": "http://dbpedia.org/resource/Silicon_Valley"}, 
{"score": 1.633201, "link": "http://dbpedia.org/resource/The_Big_Bang_Theory"}, 
{"score": 1.631734, "link": "http://dbpedia.org/resource/Carthage"}, 
{"score": 1.629752, "link": "http://dbpedia.org/resource/Guys_and_Dolls"}, 
{"score": 1.626232, "link": "http://dbpedia.org/resource/Arabian_Sea"}, 
{"score": 1.625202, "link": "http://dbpedia.org/resource/Bradford_City_A.F.C."}, 
{"score": 1.624724, "link": "http://dbpedia.org/resource/Taj_Mahal"}, 
{"score": 1.622779, "link": "http://dbpedia.org/resource/Wind_farm"}, 
{"score": 1.621008, "link": "http://dbpedia.org/resource/Village"}, 
{"score": 1.619299, "link": "http://dbpedia.org/resource/The_Guardian"}, 
{"score": 1.614562, "link": "http://dbpedia.org/resource/Death_Valley"}, 
{"score": 1.613331, "link": "http://dbpedia.org/resource/Hawkwind"}, 
{"score": 1.612901, "link": "http://dbpedia.org/resource/Stoke_City_F.C."}, 
{"score": 1.612407, "link": "http://dbpedia.org/resource/Bad_Company"}, 
{"score": 1.611085, "link": "http://dbpedia.org/resource/Drum"}, 
{"score": 1.611083, "link": "http://dbpedia.org/resource/Ricky_Butcher"}, 
{"score": 1.610967, "link": "http://dbpedia.org/resource/West_Ham_United_F.C."}, 
{"score": 1.607027, "link": "http://dbpedia.org/resource/BBC_Four"}, 
{"score": 1.606919, "link": "http://dbpedia.org/resource/Blackpool_F.C."}, 
{"score": 1.604057, "link": "http://dbpedia.org/resource/Plymouth_Argyle_F.C."}, 
{"score": 1.601677, "link": "http://dbpedia.org/resource/Amphitheatre"}, 
{"score": 1.601057, "link": "http://dbpedia.org/resource/Gargoyle"}, 
{"score": 1.596490, "link": "http://dbpedia.org/resource/Queens_of_the_Stone_Age"}, 
{"score": 1.596044, "link": "http://dbpedia.org/resource/Tuscany"}, 
{"score": 1.595473, "link": "http://dbpedia.org/resource/Cypress_Hill"}, 
{"score": 1.594897, "link": "http://dbpedia.org/resource/Wembley_Stadium"}, 
{"score": 1.594874, "link": "http://dbpedia.org/resource/Bank"}, 
{"score": 1.593179, "link": "http://dbpedia.org/resource/Coventry_City_F.C."}, 
{"score": 1.591256, "link": "http://dbpedia.org/resource/Kashmir"}, 
{"score": 1.590599, "link": "http://dbpedia.org/resource/Youth"}, 
{"score": 1.589873, "link": "http://dbpedia.org/resource/River_Tyne"}, 
{"score": 1.589838, "link": "http://dbpedia.org/resource/Town"}, 
{"score": 1.588004, "link": "http://dbpedia.org/resource/Family_Guy"}, 
{"score": 1.586527, "link": "http://dbpedia.org/resource/Sex_and_the_City"}, 
{"score": 1.586455, "link": "http://dbpedia.org/resource/Electric_Light_Orchestra"}, 
{"score": 1.586440, "link": "http://dbpedia.org/resource/The_Beatles"}, 
{"score": 1.586006, "link": "http://dbpedia.org/resource/Hillsborough_Stadium"}, 
{"score": 1.585636, "link": "http://dbpedia.org/resource/Ipswich_Town_F.C."}, 
{"score": 1.582159, "link": "http://dbpedia.org/resource/Sonic_Youth"}, 
{"score": 1.581896, "link": "http://dbpedia.org/resource/Easter"}, 
{"score": 1.581621, "link": "http://dbpedia.org/resource/Port_Vale_F.C."}, 
{"score": 1.581406, "link": "http://dbpedia.org/resource/World_Heritage_Site"}, 
{"score": 1.581363, "link": "http://dbpedia.org/resource/Band_of_Horses"}, 
{"score": 1.580144, "link": "http://dbpedia.org/resource/Kilometre"}, 
{"score": 1.579148, "link": "http://dbpedia.org/resource/San_Francisco_49ers"}, 
{"score": 1.578979, "link": "http://dbpedia.org/resource/The_Rolling_Stones"}, 
{"score": 1.578497, "link": "http://dbpedia.org/resource/Ebony"}, 
{"score": 1.578453, "link": "http://dbpedia.org/resource/Sound_recording_and_reproduction"}, 
{"score": 1.578395, "link": "http://dbpedia.org/resource/Natural_gas"}, 
{"score": 1.577304, "link": "http://dbpedia.org/resource/Mosque"}, 
{"score": 1.574908, "link": "http://dbpedia.org/resource/Blackburn_Rovers_F.C."}, 
{"score": 1.574832, "link": "http://dbpedia.org/resource/Goldfrapp"}, 
{"score": 1.573929, "link": "http://dbpedia.org/resource/The_Smiths"}, 
{"score": 1.573177, "link": "http://dbpedia.org/resource/Mesopotamia"}, 
{"score": 1.573152, "link": "http://dbpedia.org/resource/Singing"}, 
{"score": 1.572777, "link": "http://dbpedia.org/resource/Norwich_City_F.C."}, 
{"score": 1.572582, "link": "http://dbpedia.org/resource/Burnley_F.C."}, 
{"score": 1.569871, "link": "http://dbpedia.org/resource/Berlin_Wall"}, 
{"score": 1.568814, "link": "http://dbpedia.org/resource/Drum_and_bass"}, 
{"score": 1.568787, "link": "http://dbpedia.org/resource/Celtic_F.C."}, 
{"score": 1.567700, "link": "http://dbpedia.org/resource/Stupa"}, 
{"score": 1.567482, "link": "http://dbpedia.org/resource/Pizza"}, 
{"score": 1.566841, "link": "http://dbpedia.org/resource/East_Anglia"}, 
{"score": 1.566603, "link": "http://dbpedia.org/resource/Madchester"}, 
{"score": 1.566566, "link": "http://dbpedia.org/resource/Poco"}, 
{"score": 1.566090, "link": "http://dbpedia.org/resource/Rice"}, 
{"score": 1.565741, "link": "http://dbpedia.org/resource/Kiss"}, 
{"score": 1.565665, "link": "http://dbpedia.org/resource/Disco"}, 
{"score": 1.564944, "link": "http://dbpedia.org/resource/Aerosmith"}, 
{"score": 1.564833, "link": "http://dbpedia.org/resource/Girls_Aloud"}, 
{"score": 1.562646, "link": "http://dbpedia.org/resource/Synthesizer"}, 
{"score": 1.562569, "link": "http://dbpedia.org/resource/Teenage_Fanclub"}, 
{"score": 1.562222, "link": "http://dbpedia.org/resource/Moloko"}, 
{"score": 1.561684, "link": "http://dbpedia.org/resource/Dire_Straits"}, 
{"score": 1.561149, "link": "http://dbpedia.org/resource/Thar_Desert"}, 
{"score": 1.561146, "link": "http://dbpedia.org/resource/Country_music"}, 
{"score": 1.560732, "link": "http://dbpedia.org/resource/White_people"}, 
{"score": 1.560093, "link": "http://dbpedia.org/resource/Resort"}, 
{"score": 1.560037, "link": "http://dbpedia.org/resource/Ice_age"}, 
{"score": 1.560008, "link": "http://dbpedia.org/resource/Himalayas"}, 
{"score": 1.559948, "link": "http://dbpedia.org/resource/Preston_North_End_F.C."}, 
{"score": 1.559730, "link": "http://dbpedia.org/resource/Pink_Floyd"}, 
{"score": 1.559698, "link": "http://dbpedia.org/resource/Empire_State_Building"}, 
{"score": 1.559601, "link": "http://dbpedia.org/resource/North_East_England"}, 
{"score": 1.559224, "link": "http://dbpedia.org/resource/Powys"}, 
{"score": 1.558843, "link": "http://dbpedia.org/resource/Sheffield_Wednesday_F.C."}, 
{"score": 1.556820, "link": "http://dbpedia.org/resource/Power_station"}, 
{"score": 1.556798, "link": "http://dbpedia.org/resource/Buddy_Greco"}, 
{"score": 1.556725, "link": "http://dbpedia.org/resource/Post-punk"}, 
{"score": 1.556191, "link": "http://dbpedia.org/resource/The_Stooges"}, 
{"score": 1.555107, "link": "http://dbpedia.org/resource/Red_Sea"}, 
{"score": 1.554778, "link": "http://dbpedia.org/resource/Hajj"}, 
{"score": 1.554484, "link": "http://dbpedia.org/resource/American_Old_West"}, 
{"score": 1.554316, "link": "http://dbpedia.org/resource/Muslim"}, 
{"score": 1.553883, "link": "http://dbpedia.org/resource/Toy_Story"}, 
{"score": 1.553576, "link": "http://dbpedia.org/resource/Andy_Capp"}, 
{"score": 1.553445, "link": "http://dbpedia.org/resource/Christmas_Eve"}, 
{"score": 1.553040, "link": "http://dbpedia.org/resource/HBOS"}, 
{"score": 1.552924, "link": "http://dbpedia.org/resource/FA_Cup"}, 
{"score": 1.552504, "link": "http://dbpedia.org/resource/Crookers"}, 
{"score": 1.552170, "link": "http://dbpedia.org/resource/BBC_Radio_1Xtra"}, 
{"score": 1.551657, "link": "http://dbpedia.org/resource/Pet_Shop_Boys"}, 
{"score": 1.551509, "link": "http://dbpedia.org/resource/Ganges"}, 
{"score": 1.551394, "link": "http://dbpedia.org/resource/Chas_&_Dave"}, 
{"score": 1.550736, "link": "http://dbpedia.org/resource/Bon_Jovi"}, 
{"score": 1.550547, "link": "http://dbpedia.org/resource/Cigarette"}, 
{"score": 1.549652, "link": "http://dbpedia.org/resource/English_poetry"}, 
{"score": 1.549013, "link": "http://dbpedia.org/resource/Culture_Club"}, 
{"score": 1.548681, "link": "http://dbpedia.org/resource/Jurassic_Coast"}, 
{"score": 1.548476, "link": "http://dbpedia.org/resource/BBC_Television"}, 
{"score": 1.547084, "link": "http://dbpedia.org/resource/Chambal_River"}, 
{"score": 1.546319, "link": "http://dbpedia.org/resource/Sweet_Home_Alabama"}, 
{"score": 1.545615, "link": "http://dbpedia.org/resource/Surfing"}, 
{"score": 1.545532, "link": "http://dbpedia.org/resource/Belinda_Carlisle"}, 
{"score": 1.545391, "link": "http://dbpedia.org/resource/South_Africa_national_football_team"}, 
{"score": 1.543916, "link": "http://dbpedia.org/resource/Palestinian_people"}, 
{"score": 1.542991, "link": "http://dbpedia.org/resource/Big_Bang"}, 
{"score": 1.541951, "link": "http://dbpedia.org/resource/Statue_of_Liberty"}, 
{"score": 1.541709, "link": "http://dbpedia.org/resource/The_Archers"}, 
{"score": 1.541689, "link": "http://dbpedia.org/resource/Rocky_Mountains"}, 
{"score": 1.541301, "link": "http://dbpedia.org/resource/Acoustic_guitar"}, 
{"score": 1.540926, "link": "http://dbpedia.org/resource/R.E.M."}, 
{"score": 1.540787, "link": "http://dbpedia.org/resource/The_Hold_Steady"}, 
{"score": 1.540437, "link": "http://dbpedia.org/resource/Sugababes"}, 
{"score": 1.539840, "link": "http://dbpedia.org/resource/Gym_Class_Heroes"}, 
{"score": 1.539799, "link": "http://dbpedia.org/resource/Airport"}, 
{"score": 1.539469, "link": "http://dbpedia.org/resource/Bible"}, 
{"score": 1.538685, "link": "http://dbpedia.org/resource/East_End_of_London"}, 
{"score": 1.538279, "link": "http://dbpedia.org/resource/Oud"}, 
{"score": 1.537851, "link": "http://dbpedia.org/resource/Bank_holiday"}, 
{"score": 1.537426, "link": "http://dbpedia.org/resource/House_music"}, 
{"score": 1.536922, "link": "http://dbpedia.org/resource/Blackmail"}, 
{"score": 1.536691, "link": "http://dbpedia.org/resource/National_Football_League"}, 
{"score": 1.536387, "link": "http://dbpedia.org/resource/The_Lemonheads"}, 
{"score": 1.536040, "link": "http://dbpedia.org/resource/Abbey_Road_Studios"}, 
{"score": 1.535608, "link": "http://dbpedia.org/resource/Currency"}, 
{"score": 1.535542, "link": "http://dbpedia.org/resource/South_West_England"}, 
{"score": 1.535539, "link": "http://dbpedia.org/resource/Drag_racing"}, 
{"score": 1.535201, "link": "http://dbpedia.org/resource/Frightened_Rabbit"}, 
{"score": 1.535076, "link": "http://dbpedia.org/resource/Navajo_people"}, 
{"score": 1.535023, "link": "http://dbpedia.org/resource/Iron_Maiden"}, 
{"score": 1.534831, "link": "http://dbpedia.org/resource/Slade"}, 
{"score": 1.534031, "link": "http://dbpedia.org/resource/Don_Draper"}, 
{"score": 1.533170, "link": "http://dbpedia.org/resource/Sicily"}, 
{"score": 1.532598, "link": "http://dbpedia.org/resource/Tokyo_Police_Club"}, 
{"score": 1.532441, "link": "http://dbpedia.org/resource/Chalk"}, 
{"score": 1.532298, "link": "http://dbpedia.org/resource/Bronze"}, 
{"score": 1.532126, "link": "http://dbpedia.org/resource/Sound"}, 
{"score": 1.531476, "link": "http://dbpedia.org/resource/Bus"}, 
{"score": 1.531383, "link": "http://dbpedia.org/resource/Shopping_mall"}, 
{"score": 1.530863, "link": "http://dbpedia.org/resource/Gang"}, 
{"score": 1.530742, "link": "http://dbpedia.org/resource/Relic"}, 
{"score": 1.530214, "link": "http://dbpedia.org/resource/MC5"}, 
{"score": 1.529962, "link": "http://dbpedia.org/resource/Ivory"}, 
{"score": 1.529210, "link": "http://dbpedia.org/resource/Shooting_Stars"}, 
{"score": 1.528705, "link": "http://dbpedia.org/resource/The_Pogues"}, 
{"score": 1.528388, "link": "http://dbpedia.org/resource/Great_Wall_of_China"}, 
{"score": 1.528325, "link": "http://dbpedia.org/resource/Trout"}, 
{"score": 1.527627, "link": "http://dbpedia.org/resource/Tesco"}, 
{"score": 1.527206, "link": "http://dbpedia.org/resource/Rock_and_roll"}, 
{"score": 1.526487, "link": "http://dbpedia.org/resource/South_Downs"}, 
{"score": 1.526363, "link": "http://dbpedia.org/resource/Thyme"}, 
{"score": 1.526187, "link": "http://dbpedia.org/resource/EastEnders"}, 
{"score": 1.525940, "link": "http://dbpedia.org/resource/Wigan_Athletic_F.C."}, 
{"score": 1.525632, "link": "http://dbpedia.org/resource/The_Human_League"}, 
{"score": 1.525229, "link": "http://dbpedia.org/resource/Park"}, 
{"score": 1.525141, "link": "http://dbpedia.org/resource/New_Statesman"}, 
{"score": 1.524997, "link": "http://dbpedia.org/resource/The_Clash"}, 
{"score": 1.524862, "link": "http://dbpedia.org/resource/The_Rise_and_Fall_of_Ziggy_Stardust_and_the_Spiders_from_Mars"}, 
{"score": 1.524268, "link": "http://dbpedia.org/resource/Happy_Days"}, 
{"score": 1.524231, "link": "http://dbpedia.org/resource/Thin_Lizzy"}, 
{"score": 1.524226, "link": "http://dbpedia.org/resource/The_Daily_Telegraph"}, 
{"score": 1.524225, "link": "http://dbpedia.org/resource/Central_Park"}, 
{"score": 1.524024, "link": "http://dbpedia.org/resource/Omelette"}, 
{"score": 1.524007, "link": "http://dbpedia.org/resource/Nile"}, 
{"score": 1.523801, "link": "http://dbpedia.org/resource/River_Stour,_Kent"}, 
{"score": 1.523604, "link": "http://dbpedia.org/resource/Beastie_Boys"}, 
{"score": 1.522850, "link": "http://dbpedia.org/resource/Lamb_and_mutton"}, 
{"score": 1.522679, "link": "http://dbpedia.org/resource/BBC_Micro"}, 
{"score": 1.522396, "link": "http://dbpedia.org/resource/The_Police"}, 
{"score": 1.522263, "link": "http://dbpedia.org/resource/Andy_Kershaw"}, 
{"score": 1.522229, "link": "http://dbpedia.org/resource/Johann_Sebastian_Bach"}, 
{"score": 1.522197, "link": "http://dbpedia.org/resource/Fireman_Sam"}, 
{"score": 1.522033, "link": "http://dbpedia.org/resource/Average_White_Band"}, 
{"score": 1.521919, "link": "http://dbpedia.org/resource/Oxford_University_Press"}, 
{"score": 1.521457, "link": "http://dbpedia.org/resource/Concorde"}, 
{"score": 1.521427, "link": "http://dbpedia.org/resource/Simon_&_Garfunkel"}, 
{"score": 1.521263, "link": "http://dbpedia.org/resource/Jimmy_Eat_World"}, 
{"score": 1.521140, "link": "http://dbpedia.org/resource/All_Time_Low"}, 
{"score": 1.520268, "link": "http://dbpedia.org/resource/Nevermind"}, 
{"score": 1.519990, "link": "http://dbpedia.org/resource/Premier_League"}, 
{"score": 1.519907, "link": "http://dbpedia.org/resource/2010_FIFA_World_Cup"}, 
{"score": 1.519790, "link": "http://dbpedia.org/resource/The_Housemartins"}, 
{"score": 1.519459, "link": "http://dbpedia.org/resource/BBC_Asian_Network"}, 
{"score": 1.519442, "link": "http://dbpedia.org/resource/Santa_Claus"}, 
{"score": 1.519235, "link": "http://dbpedia.org/resource/Meat"}, 
{"score": 1.517889, "link": "http://dbpedia.org/resource/Audio_engineering"}, 
{"score": 1.517820, "link": "http://dbpedia.org/resource/Drummer"}, 
{"score": 1.517403, "link": "http://dbpedia.org/resource/Record_label"}, 
{"score": 1.517043, "link": "http://dbpedia.org/resource/Pompeii"}, 
{"score": 1.516919, "link": "http://dbpedia.org/resource/Sea_level"}, 
{"score": 1.516590, "link": "http://dbpedia.org/resource/Eiffel_Tower"}, 
{"score": 1.516031, "link": "http://dbpedia.org/resource/Day_Tripper"}, 
{"score": 1.515954, "link": "http://dbpedia.org/resource/Middle_Ages"}, 
{"score": 1.515843, "link": "http://dbpedia.org/resource/Lynyrd_Skynyrd"}, 
{"score": 1.515766, "link": "http://dbpedia.org/resource/Lesbian"}, 
{"score": 1.515492, "link": "http://dbpedia.org/resource/Samosa"}, 
{"score": 1.515350, "link": "http://dbpedia.org/resource/Stonehenge"}, 
{"score": 1.514865, "link": "http://dbpedia.org/resource/Dump_truck"}, 
{"score": 1.514608, "link": "http://dbpedia.org/resource/Tarmac"}, 
{"score": 1.514551, "link": "http://dbpedia.org/resource/Trouble_Funk"}, 
{"score": 1.514393, "link": "http://dbpedia.org/resource/Black_Sabbath"}, 
{"score": 1.514211, "link": "http://dbpedia.org/resource/Metallica"}, 
{"score": 1.513597, "link": "http://dbpedia.org/resource/Live_Aid"}, 
{"score": 1.513490, "link": "http://dbpedia.org/resource/Despicable_Me"}, 
{"score": 1.513464, "link": "http://dbpedia.org/resource/Elbe"}, 
{"score": 1.513153, "link": "http://dbpedia.org/resource/Supermarket"}, 
{"score": 1.512748, "link": "http://dbpedia.org/resource/The_Open_Championship"}, 
{"score": 1.512216, "link": "http://dbpedia.org/resource/Department_store"}, 
{"score": 1.512171, "link": "http://dbpedia.org/resource/Home_computer"}, 
{"score": 1.512016, "link": "http://dbpedia.org/resource/Solent"}, 
{"score": 1.511769, "link": "http://dbpedia.org/resource/Fiddle"}, 
{"score": 1.511462, "link": "http://dbpedia.org/resource/Banyan"}, 
{"score": 1.510704, "link": "http://dbpedia.org/resource/Duet"}, 
{"score": 1.510427, "link": "http://dbpedia.org/resource/Ted_Baker"}, 
{"score": 1.510161, "link": "http://dbpedia.org/resource/Cricket"}, 
{"score": 1.509696, "link": "http://dbpedia.org/resource/Bronze_Age"}, 
{"score": 1.509536, "link": "http://dbpedia.org/resource/Beady_Eye"}, 
{"score": 1.509476, "link": "http://dbpedia.org/resource/Negev"}, 
{"score": 1.509296, "link": "http://dbpedia.org/resource/Linton_Kwesi_Johnson"}, 
{"score": 1.509110, "link": "http://dbpedia.org/resource/Peat"}, 
{"score": 1.509061, "link": "http://dbpedia.org/resource/Football_League_Cup"}, 
{"score": 1.509057, "link": "http://dbpedia.org/resource/Bagpipes"}, 
{"score": 1.508991, "link": "http://dbpedia.org/resource/Ruins"}, 
{"score": 1.508897, "link": "http://dbpedia.org/resource/Limestone"}, 
{"score": 1.508625, "link": "http://dbpedia.org/resource/River_Usk"}, 
{"score": 1.507802, "link": "http://dbpedia.org/resource/Teletubbies"}, 
{"score": 1.507691, "link": "http://dbpedia.org/resource/Boyzone"}, 
{"score": 1.506940, "link": "http://dbpedia.org/resource/Personal_computer_game"}, 
{"score": 1.506339, "link": "http://dbpedia.org/resource/Record_shop"}, 
{"score": 1.505851, "link": "http://dbpedia.org/resource/New_Forest"}, 
{"score": 1.505166, "link": "http://dbpedia.org/resource/Paddy_Moloney"}, 
{"score": 1.505118, "link": "http://dbpedia.org/resource/Studio_60_on_the_Sunset_Strip"}, 
{"score": 1.505079, "link": "http://dbpedia.org/resource/Aston_Villa_F.C."}, 
{"score": 1.504191, "link": "http://dbpedia.org/resource/Monmouthshire"}, 
{"score": 1.503894, "link": "http://dbpedia.org/resource/Barbecue"}, 
{"score": 1.503758, "link": "http://dbpedia.org/resource/Viola"}, 
{"score": 1.503231, "link": "http://dbpedia.org/resource/Southampton_F.C."}, 
{"score": 1.503104, "link": "http://dbpedia.org/resource/Bank_of_America"}, 
{"score": 1.502917, "link": "http://dbpedia.org/resource/Lighthouse"}, 
{"score": 1.502770, "link": "http://dbpedia.org/resource/Bounty_hunter"}, 
{"score": 1.502718, "link": "http://dbpedia.org/resource/Fishing"}, 
{"score": 1.502678, "link": "http://dbpedia.org/resource/John_Eliot_Gardiner"}, 
{"score": 1.502653, "link": "http://dbpedia.org/resource/Stiff_Records"}, 
{"score": 1.501768, "link": "http://dbpedia.org/resource/Sleigh_Bells"}, 
{"score": 1.501757, "link": "http://dbpedia.org/resource/UK_garage"}, 
{"score": 1.501547, "link": "http://dbpedia.org/resource/Grand_Canyon"}, 
{"score": 1.500261, "link": "http://dbpedia.org/resource/Ewood_Park"}, 
{"score": 1.499827, "link": "http://dbpedia.org/resource/Concrete"}, 
{"score": 1.499486, "link": "http://dbpedia.org/resource/Life_support"}, 
{"score": 1.499326, "link": "http://dbpedia.org/resource/Euphrates"}, 
{"score": 1.499232, "link": "http://dbpedia.org/resource/Spandau_Ballet"}, 
{"score": 1.499103, "link": "http://dbpedia.org/resource/Dalek"}, 
{"score": 1.498944, "link": "http://dbpedia.org/resource/General_Motors"}, 
{"score": 1.498803, "link": "http://dbpedia.org/resource/South_Pole"}, 
{"score": 1.498395, "link": "http://dbpedia.org/resource/Nutmeg"}, 
{"score": 1.498309, "link": "http://dbpedia.org/resource/Annie_Mac"}, 
{"score": 1.497872, "link": "http://dbpedia.org/resource/Citigroup"}, 
{"score": 1.497743, "link": "http://dbpedia.org/resource/Sand"}, 
{"score": 1.497658, "link": "http://dbpedia.org/resource/Tiger"}, 
{"score": 1.497116, "link": "http://dbpedia.org/resource/Suicide"}, 
{"score": 1.496748, "link": "http://dbpedia.org/resource/Beef"}, 
{"score": 1.496723, "link": "http://dbpedia.org/resource/Lloyd_Cole_and_the_Commotions"}, 
{"score": 1.496629, "link": "http://dbpedia.org/resource/Queens_Park_Rangers_F.C."}, 
{"score": 1.496629, "link": "http://dbpedia.org/resource/Star_Trek"}, 
{"score": 1.496404, "link": "http://dbpedia.org/resource/Copper"}, 
{"score": 1.496336, "link": "http://dbpedia.org/resource/BBC_iPlayer"}, 
{"score": 1.495958, "link": "http://dbpedia.org/resource/The_New_York_Times"}, 
{"score": 1.495680, "link": "http://dbpedia.org/resource/River_Thames"}, 
{"score": 1.495416, "link": "http://dbpedia.org/resource/Binge_drinking"}, 
{"score": 1.495231, "link": "http://dbpedia.org/resource/Sound_design"}, 
{"score": 1.495014, "link": "http://dbpedia.org/resource/Bloc_Party"}, 
{"score": 1.494679, "link": "http://dbpedia.org/resource/Tourism"}, 
{"score": 1.494499, "link": "http://dbpedia.org/resource/Gnarls_Barkley"}, 
{"score": 1.493662, "link": "http://dbpedia.org/resource/Pacific_Ocean"}, 
{"score": 1.493653, "link": "http://dbpedia.org/resource/Police_officer"}, 
{"score": 1.493487, "link": "http://dbpedia.org/resource/Klaxons"}, 
{"score": 1.493100, "link": "http://dbpedia.org/resource/Persian_Gulf"}, 
{"score": 1.492783, "link": "http://dbpedia.org/resource/Hippie"}, 
{"score": 1.492564, "link": "http://dbpedia.org/resource/Elland_Road"}, 
{"score": 1.492500, "link": "http://dbpedia.org/resource/Independent_record_label"}, 
{"score": 1.492185, "link": "http://dbpedia.org/resource/Ultravox"}, 
{"score": 1.491937, "link": "http://dbpedia.org/resource/Beer"}, 
{"score": 1.490755, "link": "http://dbpedia.org/resource/Archipelago"}, 
{"score": 1.490506, "link": "http://dbpedia.org/resource/Supergrass"}, 
{"score": 1.490342, "link": "http://dbpedia.org/resource/Picnic"}, 
{"score": 1.490280, "link": "http://dbpedia.org/resource/Ton_Koopman"}, 
{"score": 1.490252, "link": "http://dbpedia.org/resource/Chili_pepper"}, 
{"score": 1.489875, "link": "http://dbpedia.org/resource/Stone_Age"}, 
{"score": 1.489844, "link": "http://dbpedia.org/resource/BBC_Two"}, 
{"score": 1.489825, "link": "http://dbpedia.org/resource/Steve_Miller_Band"}, 
{"score": 1.489706, "link": "http://dbpedia.org/resource/Role-playing_game"}, 
{"score": 1.489673, "link": "http://dbpedia.org/resource/HarperCollins"}, 
{"score": 1.489662, "link": "http://dbpedia.org/resource/Battersea_Power_Station"}, 
{"score": 1.489659, "link": "http://dbpedia.org/resource/Cassava"}, 
{"score": 1.488831, "link": "http://dbpedia.org/resource/Indian_Ocean"}, 
{"score": 1.488527, "link": "http://dbpedia.org/resource/Linen"}, 
{"score": 1.488462, "link": "http://dbpedia.org/resource/Modest_Mouse"}, 
{"score": 1.487893, "link": "http://dbpedia.org/resource/Rise_Against"}, 
{"score": 1.487657, "link": "http://dbpedia.org/resource/China"}, 
{"score": 1.487014, "link": "http://dbpedia.org/resource/Rock_music"}, 
{"score": 1.486900, "link": "http://dbpedia.org/resource/Massive_Attack"}, 
{"score": 1.486647, "link": "http://dbpedia.org/resource/Soundtrack"}, 
{"score": 1.486600, "link": "http://dbpedia.org/resource/Village_People"}, 
{"score": 1.486291, "link": "http://dbpedia.org/resource/Jeff_Barry"}, 
{"score": 1.485965, "link": "http://dbpedia.org/resource/Buzzcocks"}, 
{"score": 1.485907, "link": "http://dbpedia.org/resource/The_Chris_Moyles_Show"}, 
{"score": 1.485891, "link": "http://dbpedia.org/resource/Leicester_City_F.C."}, 
{"score": 1.485618, "link": "http://dbpedia.org/resource/The_Jackson_5"}, 
{"score": 1.485260, "link": "http://dbpedia.org/resource/Arsenal_F.C."}, 
{"score": 1.485077, "link": "http://dbpedia.org/resource/Earth"}, 
{"score": 1.484730, "link": "http://dbpedia.org/resource/Talk_radio"}, 
{"score": 1.484375, "link": "http://dbpedia.org/resource/Wiltshire"}, 
{"score": 1.483514, "link": "http://dbpedia.org/resource/Yeasayer"}, 
{"score": 1.483331, "link": "http://dbpedia.org/resource/The_Doors"}, 
{"score": 1.482722, "link": "http://dbpedia.org/resource/BBC_6_Music"}, 
{"score": 1.482464, "link": "http://dbpedia.org/resource/Longman"}, 
{"score": 1.482301, "link": "http://dbpedia.org/resource/River_Severn"}, 
{"score": 1.482127, "link": "http://dbpedia.org/resource/Maize"}, 
{"score": 1.482074, "link": "http://dbpedia.org/resource/Hattusa"}, 
{"score": 1.481950, "link": "http://dbpedia.org/resource/The_Times"}, 
{"score": 1.481154, "link": "http://dbpedia.org/resource/Notts_County_F.C."}, 
{"score": 1.481137, "link": "http://dbpedia.org/resource/Baseball"}, 
{"score": 1.480912, "link": "http://dbpedia.org/resource/Funeral"}, 
{"score": 1.480886, "link": "http://dbpedia.org/resource/Bon_Iver"}, 
{"score": 1.480863, "link": "http://dbpedia.org/resource/Palestine"}, 
{"score": 1.480838, "link": "http://dbpedia.org/resource/Postage_stamp"}, 
{"score": 1.480749, "link": "http://dbpedia.org/resource/Irish_people"}, 
{"score": 1.480735, "link": "http://dbpedia.org/resource/Ancient_Rome"}, 
{"score": 1.480525, "link": "http://dbpedia.org/resource/Foals"}, 
{"score": 1.480477, "link": "http://dbpedia.org/resource/Gorillaz"}, 
{"score": 1.479821, "link": "http://dbpedia.org/resource/Population"}, 
{"score": 1.479765, "link": "http://dbpedia.org/resource/Huw_Stephens"}, 
{"score": 1.479665, "link": "http://dbpedia.org/resource/Alice_in_Chains"}, 
{"score": 1.479384, "link": "http://dbpedia.org/resource/Big_Spender"}, 
{"score": 1.479381, "link": "http://dbpedia.org/resource/Banjo"}, 
{"score": 1.479248, "link": "http://dbpedia.org/resource/Grinderman"}, 
{"score": 1.479201, "link": "http://dbpedia.org/resource/BBC_Three"}, 
{"score": 1.478761, "link": "http://dbpedia.org/resource/Albert_Square"}, 
{"score": 1.478696, "link": "http://dbpedia.org/resource/Rangers_F.C."}, 
{"score": 1.478692, "link": "http://dbpedia.org/resource/Philistines"}, 
{"score": 1.478667, "link": "http://dbpedia.org/resource/Ashram"}, 
{"score": 1.478433, "link": "http://dbpedia.org/resource/Brentford_F.C."}, 
{"score": 1.478255, "link": "http://dbpedia.org/resource/Shrine"}, 
{"score": 1.478249, "link": "http://dbpedia.org/resource/The_Libertines"}, 
{"score": 1.478195, "link": "http://dbpedia.org/resource/Royal_Bank_of_Scotland"}, 
{"score": 1.478100, "link": "http://dbpedia.org/resource/Christian"}, 
{"score": 1.477924, "link": "http://dbpedia.org/resource/Charlton_Athletic_F.C."}, 
{"score": 1.477921, "link": "http://dbpedia.org/resource/Beachy_Head"}, 
{"score": 1.477883, "link": "http://dbpedia.org/resource/The_Temper_Trap"}, 
{"score": 1.477835, "link": "http://dbpedia.org/resource/Southeast_Asia"}, 
{"score": 1.477650, "link": "http://dbpedia.org/resource/Cello"}, 
{"score": 1.477646, "link": "http://dbpedia.org/resource/Turf_Moor"}, 
{"score": 1.477555, "link": "http://dbpedia.org/resource/The_Wind_in_the_Willows"}, 
{"score": 1.477447, "link": "http://dbpedia.org/resource/A.C._Milan"}, 
{"score": 1.477297, "link": "http://dbpedia.org/resource/NOFX"}, 
{"score": 1.477278, "link": "http://dbpedia.org/resource/Marble"}, 
{"score": 1.477224, "link": "http://dbpedia.org/resource/Basement_Jaxx"}, 
{"score": 1.476592, "link": "http://dbpedia.org/resource/Mid_Wales"}, 
{"score": 1.476394, "link": "http://dbpedia.org/resource/Blink-182"}, 
{"score": 1.476299, "link": "http://dbpedia.org/resource/Landfill"}, 
{"score": 1.475772, "link": "http://dbpedia.org/resource/Tabla"}, 
{"score": 1.475772, "link": "http://dbpedia.org/resource/Quarantine"}, 
{"score": 1.475496, "link": "http://dbpedia.org/resource/Haiku"}, 
{"score": 1.474890, "link": "http://dbpedia.org/resource/Basketball"}, 
{"score": 1.474639, "link": "http://dbpedia.org/resource/Middle_East"}, 
{"score": 1.474174, "link": "http://dbpedia.org/resource/Slogan"}, 
{"score": 1.474125, "link": "http://dbpedia.org/resource/BBC_Radio_4"}, 
{"score": 1.474032, "link": "http://dbpedia.org/resource/Border"}, 
{"score": 1.473681, "link": "http://dbpedia.org/resource/Far_East"}, 
{"score": 1.473479, "link": "http://dbpedia.org/resource/Saint"}, 
{"score": 1.472939, "link": "http://dbpedia.org/resource/Pythia"}, 
{"score": 1.472886, "link": "http://dbpedia.org/resource/Toyota"}, 
{"score": 1.472700, "link": "http://dbpedia.org/resource/Wolverhampton_Wanderers_F.C."}, 
{"score": 1.472542, "link": "http://dbpedia.org/resource/McFly"}, 
{"score": 1.472375, "link": "http://dbpedia.org/resource/Pearl"}, 
{"score": 1.472298, "link": "http://dbpedia.org/resource/Second_Intifada"}, 
{"score": 1.472203, "link": "http://dbpedia.org/resource/Elephant"}, 
{"score": 1.472009, "link": "http://dbpedia.org/resource/African_American"}, 
{"score": 1.471667, "link": "http://dbpedia.org/resource/United_States_Capitol"}, 
{"score": 1.471539, "link": "http://dbpedia.org/resource/Wind_turbine"}, 
{"score": 1.471535, "link": "http://dbpedia.org/resource/Denver_Broncos"}, 
{"score": 1.471298, "link": "http://dbpedia.org/resource/Squatting"}, 
{"score": 1.471137, "link": "http://dbpedia.org/resource/Anfield"}, 
{"score": 1.471099, "link": "http://dbpedia.org/resource/Six-Day_War"}, 
{"score": 1.470388, "link": "http://dbpedia.org/resource/Gulf_of_Mexico"}, 
{"score": 1.470296, "link": "http://dbpedia.org/resource/M4_motorway"}, 
{"score": 1.470250, "link": "http://dbpedia.org/resource/Karen_people"}, 
{"score": 1.469966, "link": "http://dbpedia.org/resource/Madison_Avenue"}, 
{"score": 1.469258, "link": "http://dbpedia.org/resource/Deep_Purple"}, 
{"score": 1.469222, "link": "http://dbpedia.org/resource/Police"}, 
{"score": 1.468886, "link": "http://dbpedia.org/resource/Phil_Mitchell"}, 
{"score": 1.468787, "link": "http://dbpedia.org/resource/Don_Carlos"}, 
{"score": 1.468608, "link": "http://dbpedia.org/resource/Swindon_Town_F.C."}, 
{"score": 1.468396, "link": "http://dbpedia.org/resource/Australian_Aborigines"}]
