[{"score": 2.138367, "link": "http://dbpedia.org/resource/Sean_Combs"}, 
{"score": 2.093156, "link": "http://dbpedia.org/resource/Gautama_Buddha"}, 
{"score": 2.051356, "link": "http://dbpedia.org/resource/Snoop_Dogg"}, 
{"score": 2.016560, "link": "http://dbpedia.org/resource/50_Cent"}, 
{"score": 1.971491, "link": "http://dbpedia.org/resource/David_Guetta"}, 
{"score": 1.968558, "link": "http://dbpedia.org/resource/Pat_Garrett"}, 
{"score": 1.956849, "link": "http://dbpedia.org/resource/Mos_Def"}, 
{"score": 1.954314, "link": "http://dbpedia.org/resource/Cher"}, 
{"score": 1.940754, "link": "http://dbpedia.org/resource/Lil_Wayne"}, 
{"score": 1.933709, "link": "http://dbpedia.org/resource/Justin_Timberlake"}, 
{"score": 1.904972, "link": "http://dbpedia.org/resource/Method_Man"}, 
{"score": 1.897854, "link": "http://dbpedia.org/resource/Pete_Townshend"}, 
{"score": 1.896786, "link": "http://dbpedia.org/resource/County_Tyrone"}, 
{"score": 1.890908, "link": "http://dbpedia.org/resource/Nelly"}, 
{"score": 1.886659, "link": "http://dbpedia.org/resource/Chuck_Berry"}, 
{"score": 1.884082, "link": "http://dbpedia.org/resource/David_Bowie"}, 
{"score": 1.877690, "link": "http://dbpedia.org/resource/Boise,_Idaho"}, 
{"score": 1.876537, "link": "http://dbpedia.org/resource/Tinie_Tempah"}, 
{"score": 1.869929, "link": "http://dbpedia.org/resource/Katy_Perry"}, 
{"score": 1.867735, "link": "http://dbpedia.org/resource/Kanye_West"}, 
{"score": 1.867199, "link": "http://dbpedia.org/resource/Beth_Nielsen_Chapman"}, 
{"score": 1.866547, "link": "http://dbpedia.org/resource/Cape_Town"}, 
{"score": 1.865500, "link": "http://dbpedia.org/resource/Kenny_Rogers"}, 
{"score": 1.864595, "link": "http://dbpedia.org/resource/Ryan_Adams"}, 
{"score": 1.863526, "link": "http://dbpedia.org/resource/Pete_Seeger"}, 
{"score": 1.862927, "link": "http://dbpedia.org/resource/Frank_Sinatra"}, 
{"score": 1.860461, "link": "http://dbpedia.org/resource/Kathy_Bates"}, 
{"score": 1.860411, "link": "http://dbpedia.org/resource/Mariah_Carey"}, 
{"score": 1.855240, "link": "http://dbpedia.org/resource/Mecca"}, 
{"score": 1.854741, "link": "http://dbpedia.org/resource/Paul_McCartney"}, 
{"score": 1.854357, "link": "http://dbpedia.org/resource/Mick_Fleetwood"}, 
{"score": 1.851253, "link": "http://dbpedia.org/resource/Robert_Wyatt"}, 
{"score": 1.850799, "link": "http://dbpedia.org/resource/Master_P"}, 
{"score": 1.844807, "link": "http://dbpedia.org/resource/Tom_Petty"}, 
{"score": 1.831485, "link": "http://dbpedia.org/resource/Busta_Rhymes"}, 
{"score": 1.830475, "link": "http://dbpedia.org/resource/John_Lennon"}, 
{"score": 1.830243, "link": "http://dbpedia.org/resource/Shania_Twain"}, 
{"score": 1.829906, "link": "http://dbpedia.org/resource/Count_Basie"}, 
{"score": 1.829516, "link": "http://dbpedia.org/resource/Kurt_Cobain"}, 
{"score": 1.827669, "link": "http://dbpedia.org/resource/Dwight_Yoakam"}, 
{"score": 1.825289, "link": "http://dbpedia.org/resource/Elton_John"}, 
{"score": 1.822458, "link": "http://dbpedia.org/resource/Sammy_Davis,_Jr."}, 
{"score": 1.817839, "link": "http://dbpedia.org/resource/Cyndi_Lauper"}, 
{"score": 1.817408, "link": "http://dbpedia.org/resource/Big_Boi"}, 
{"score": 1.813654, "link": "http://dbpedia.org/resource/Wisconsin"}, 
{"score": 1.808252, "link": "http://dbpedia.org/resource/Kat_Dennings"}, 
{"score": 1.808139, "link": "http://dbpedia.org/resource/Hanoi"}, 
{"score": 1.807828, "link": "http://dbpedia.org/resource/Dennis_Quaid"}, 
{"score": 1.807665, "link": "http://dbpedia.org/resource/Buddy_Holly"}, 
{"score": 1.805386, "link": "http://dbpedia.org/resource/RZA"}, 
{"score": 1.804141, "link": "http://dbpedia.org/resource/Seth_Green"}, 
{"score": 1.801388, "link": "http://dbpedia.org/resource/Colorado"}, 
{"score": 1.800701, "link": "http://dbpedia.org/resource/Ludacris"}, 
{"score": 1.798415, "link": "http://dbpedia.org/resource/Cat_Stevens"}, 
{"score": 1.798206, "link": "http://dbpedia.org/resource/Christopher_Lloyd"}, 
{"score": 1.797610, "link": "http://dbpedia.org/resource/Jeff_Beck"}, 
{"score": 1.795125, "link": "http://dbpedia.org/resource/Ted_Nugent"}, 
{"score": 1.794352, "link": "http://dbpedia.org/resource/Idaho"}, 
{"score": 1.793275, "link": "http://dbpedia.org/resource/Eric_Clapton"}, 
{"score": 1.791243, "link": "http://dbpedia.org/resource/Mike_Mills"}, 
{"score": 1.790470, "link": "http://dbpedia.org/resource/Kelly_Rowland"}, 
{"score": 1.790032, "link": "http://dbpedia.org/resource/Wyatt_Earp"}, 
{"score": 1.788720, "link": "http://dbpedia.org/resource/Kim_Basinger"}, 
{"score": 1.788673, "link": "http://dbpedia.org/resource/Billy_Preston"}, 
{"score": 1.784056, "link": "http://dbpedia.org/resource/Eminem"}, 
{"score": 1.783336, "link": "http://dbpedia.org/resource/Kate_Rusby"}, 
{"score": 1.783274, "link": "http://dbpedia.org/resource/Peggy_Lee"}, 
{"score": 1.782494, "link": "http://dbpedia.org/resource/Elvis_Costello"}, 
{"score": 1.781856, "link": "http://dbpedia.org/resource/Thom_Yorke"}, 
{"score": 1.781253, "link": "http://dbpedia.org/resource/Ice-T"}, 
{"score": 1.775317, "link": "http://dbpedia.org/resource/Neil_Diamond"}, 
{"score": 1.775235, "link": "http://dbpedia.org/resource/Kwame_Nkrumah"}, 
{"score": 1.775206, "link": "http://dbpedia.org/resource/Bill_Wyman"}, 
{"score": 1.774745, "link": "http://dbpedia.org/resource/Cliff_Richard"}, 
{"score": 1.774037, "link": "http://dbpedia.org/resource/Justin_Bieber"}, 
{"score": 1.773318, "link": "http://dbpedia.org/resource/Roy_Harper"}, 
{"score": 1.769749, "link": "http://dbpedia.org/resource/Calvin_Harris"}, 
{"score": 1.768986, "link": "http://dbpedia.org/resource/Keith_Urban"}, 
{"score": 1.768617, "link": "http://dbpedia.org/resource/Peter_Gabriel"}, 
{"score": 1.768482, "link": "http://dbpedia.org/resource/Saudi_Arabia"}, 
{"score": 1.767958, "link": "http://dbpedia.org/resource/Tina_Turner"}, 
{"score": 1.767394, "link": "http://dbpedia.org/resource/Sean_Paul"}, 
{"score": 1.767093, "link": "http://dbpedia.org/resource/Nas"}, 
{"score": 1.767026, "link": "http://dbpedia.org/resource/Rod_Stewart"}, 
{"score": 1.764467, "link": "http://dbpedia.org/resource/Tom_Stoppard"}, 
{"score": 1.763318, "link": "http://dbpedia.org/resource/Kylie_Minogue"}, 
{"score": 1.762358, "link": "http://dbpedia.org/resource/Manhattan"}, 
{"score": 1.762220, "link": "http://dbpedia.org/resource/Al_Stewart"}, 
{"score": 1.762142, "link": "http://dbpedia.org/resource/Barbara_Windsor"}, 
{"score": 1.761985, "link": "http://dbpedia.org/resource/Keith_David"}, 
{"score": 1.757617, "link": "http://dbpedia.org/resource/Johnny_Mathis"}, 
{"score": 1.756180, "link": "http://dbpedia.org/resource/Ray_Charles"}, 
{"score": 1.754513, "link": "http://dbpedia.org/resource/Judy_Garland"}, 
{"score": 1.754480, "link": "http://dbpedia.org/resource/Dean_Martin"}, 
{"score": 1.754422, "link": "http://dbpedia.org/resource/Grace_Jones"}, 
{"score": 1.753948, "link": "http://dbpedia.org/resource/Will_Young"}, 
{"score": 1.753670, "link": "http://dbpedia.org/resource/Duke_Ellington"}, 
{"score": 1.752116, "link": "http://dbpedia.org/resource/Elizabeth_Hurley"}, 
{"score": 1.751976, "link": "http://dbpedia.org/resource/Diana_Ross"}, 
{"score": 1.751882, "link": "http://dbpedia.org/resource/Kent"}, 
{"score": 1.751805, "link": "http://dbpedia.org/resource/Tonga"}, 
{"score": 1.751804, "link": "http://dbpedia.org/resource/County_Cork"}, 
{"score": 1.751399, "link": "http://dbpedia.org/resource/Tommy_Dorsey"}, 
{"score": 1.751015, "link": "http://dbpedia.org/resource/Richard_Kind"}, 
{"score": 1.748924, "link": "http://dbpedia.org/resource/Danny_Kaye"}, 
{"score": 1.748162, "link": "http://dbpedia.org/resource/Bonnie_Tyler"}, 
{"score": 1.747121, "link": "http://dbpedia.org/resource/Seth_Rogen"}, 
{"score": 1.746597, "link": "http://dbpedia.org/resource/Mary_J._Blige"}, 
{"score": 1.746471, "link": "http://dbpedia.org/resource/Tim_Conway"}, 
{"score": 1.745517, "link": "http://dbpedia.org/resource/Dinah_Washington"}, 
{"score": 1.745355, "link": "http://dbpedia.org/resource/Kevin_Bacon"}, 
{"score": 1.744579, "link": "http://dbpedia.org/resource/Woody_Harrelson"}, 
{"score": 1.744459, "link": "http://dbpedia.org/resource/Kelis"}, 
{"score": 1.743372, "link": "http://dbpedia.org/resource/Don_Cheadle"}, 
{"score": 1.742728, "link": "http://dbpedia.org/resource/Ronnie_Wood"}, 
{"score": 1.742121, "link": "http://dbpedia.org/resource/Johnny_Cash"}, 
{"score": 1.742089, "link": "http://dbpedia.org/resource/Utah"}, 
{"score": 1.742007, "link": "http://dbpedia.org/resource/Nebraska"}, 
{"score": 1.741821, "link": "http://dbpedia.org/resource/Oklahoma"}, 
{"score": 1.741652, "link": "http://dbpedia.org/resource/Syd_Barrett"}, 
{"score": 1.740903, "link": "http://dbpedia.org/resource/Pat_Metheny"}, 
{"score": 1.740616, "link": "http://dbpedia.org/resource/Alec_Bedser"}, 
{"score": 1.740296, "link": "http://dbpedia.org/resource/Randy_Travis"}, 
{"score": 1.739758, "link": "http://dbpedia.org/resource/Michael_Bolton"}, 
{"score": 1.737823, "link": "http://dbpedia.org/resource/Ciara"}, 
{"score": 1.737350, "link": "http://dbpedia.org/resource/Neil_Young"}, 
{"score": 1.737004, "link": "http://dbpedia.org/resource/Charlie_Watts"}, 
{"score": 1.736459, "link": "http://dbpedia.org/resource/Bob_Dylan"}, 
{"score": 1.736155, "link": "http://dbpedia.org/resource/Duane_Eddy"}, 
{"score": 1.735811, "link": "http://dbpedia.org/resource/Diana_Krall"}, 
{"score": 1.734633, "link": "http://dbpedia.org/resource/Dee_Bradley_Baker"}, 
{"score": 1.734072, "link": "http://dbpedia.org/resource/Bruce_Springsteen"}, 
{"score": 1.733791, "link": "http://dbpedia.org/resource/Queens"}, 
{"score": 1.732661, "link": "http://dbpedia.org/resource/Matt_Damon"}, 
{"score": 1.731972, "link": "http://dbpedia.org/resource/Mick_Jagger"}, 
{"score": 1.731025, "link": "http://dbpedia.org/resource/Bernie_Mac"}, 
{"score": 1.730020, "link": "http://dbpedia.org/resource/Nick_Lowe"}, 
{"score": 1.729889, "link": "http://dbpedia.org/resource/Quincy_Jones"}, 
{"score": 1.729489, "link": "http://dbpedia.org/resource/Seth_MacFarlane"}, 
{"score": 1.729407, "link": "http://dbpedia.org/resource/North_Dakota"}, 
{"score": 1.728740, "link": "http://dbpedia.org/resource/Herbie_Hancock"}, 
{"score": 1.727005, "link": "http://dbpedia.org/resource/Laidback_Luke"}, 
{"score": 1.726721, "link": "http://dbpedia.org/resource/Tom_Paxton"}, 
{"score": 1.724461, "link": "http://dbpedia.org/resource/Kenneth_Williams"}, 
{"score": 1.724343, "link": "http://dbpedia.org/resource/Taiwan"}, 
{"score": 1.723771, "link": "http://dbpedia.org/resource/George_Michael"}, 
{"score": 1.723336, "link": "http://dbpedia.org/resource/Tony_Christie"}, 
{"score": 1.722623, "link": "http://dbpedia.org/resource/Don_McLean"}, 
{"score": 1.721677, "link": "http://dbpedia.org/resource/Mark_Twain"}, 
{"score": 1.721613, "link": "http://dbpedia.org/resource/Liv_Tyler"}, 
{"score": 1.721395, "link": "http://dbpedia.org/resource/Donna_Summer"}, 
{"score": 1.720633, "link": "http://dbpedia.org/resource/Woody_Allen"}, 
{"score": 1.720330, "link": "http://dbpedia.org/resource/Indianapolis"}, 
{"score": 1.720282, "link": "http://dbpedia.org/resource/Carl_Perkins"}, 
{"score": 1.719943, "link": "http://dbpedia.org/resource/Antonio_Banderas"}, 
{"score": 1.719463, "link": "http://dbpedia.org/resource/Kerala"}, 
{"score": 1.719003, "link": "http://dbpedia.org/resource/Denver"}, 
{"score": 1.717690, "link": "http://dbpedia.org/resource/Timothy_B._Schmit"}, 
{"score": 1.717582, "link": "http://dbpedia.org/resource/Harry_Nilsson"}, 
{"score": 1.716831, "link": "http://dbpedia.org/resource/John_Bonham"}, 
{"score": 1.716492, "link": "http://dbpedia.org/resource/Canada"}, 
{"score": 1.715926, "link": "http://dbpedia.org/resource/Peter_Griffin"}, 
{"score": 1.715006, "link": "http://dbpedia.org/resource/Alan_Price"}, 
{"score": 1.714946, "link": "http://dbpedia.org/resource/Frankie_Howerd"}, 
{"score": 1.713585, "link": "http://dbpedia.org/resource/Lily_Allen"}, 
{"score": 1.712662, "link": "http://dbpedia.org/resource/Trey_Songz"}, 
{"score": 1.712621, "link": "http://dbpedia.org/resource/South_Dakota"}, 
{"score": 1.712286, "link": "http://dbpedia.org/resource/Brad_Pitt"}, 
{"score": 1.712237, "link": "http://dbpedia.org/resource/Luther_Vandross"}, 
{"score": 1.711910, "link": "http://dbpedia.org/resource/Miley_Cyrus"}, 
{"score": 1.710648, "link": "http://dbpedia.org/resource/Fred_Trueman"}, 
{"score": 1.707927, "link": "http://dbpedia.org/resource/Vermont"}, 
{"score": 1.706375, "link": "http://dbpedia.org/resource/Keith_Richards"}, 
{"score": 1.706343, "link": "http://dbpedia.org/resource/Whitney_Houston"}, 
{"score": 1.704482, "link": "http://dbpedia.org/resource/Ella_Fitzgerald"}, 
{"score": 1.703505, "link": "http://dbpedia.org/resource/County_Down"}, 
{"score": 1.703399, "link": "http://dbpedia.org/resource/Van_Morrison"}, 
{"score": 1.703191, "link": "http://dbpedia.org/resource/George_Shearing"}, 
{"score": 1.703063, "link": "http://dbpedia.org/resource/Kathy_Burke"}, 
{"score": 1.702159, "link": "http://dbpedia.org/resource/Jimi_Hendrix"}, 
{"score": 1.701407, "link": "http://dbpedia.org/resource/Brad_Paisley"}, 
{"score": 1.701054, "link": "http://dbpedia.org/resource/Wyoming"}, 
{"score": 1.700933, "link": "http://dbpedia.org/resource/Socrates"}, 
{"score": 1.700704, "link": "http://dbpedia.org/resource/Ben_Kingsley"}, 
{"score": 1.700692, "link": "http://dbpedia.org/resource/Breckin_Meyer"}, 
{"score": 1.700150, "link": "http://dbpedia.org/resource/Tammy_Wynette"}, 
{"score": 1.699914, "link": "http://dbpedia.org/resource/Adam_Brody"}, 
{"score": 1.699709, "link": "http://dbpedia.org/resource/Indiana"}, 
{"score": 1.699638, "link": "http://dbpedia.org/resource/Nigel_Kennedy"}, 
{"score": 1.699475, "link": "http://dbpedia.org/resource/Barry_White"}, 
{"score": 1.699379, "link": "http://dbpedia.org/resource/South_Carolina"}, 
{"score": 1.699208, "link": "http://dbpedia.org/resource/Chiwetel_Ejiofor"}, 
{"score": 1.697942, "link": "http://dbpedia.org/resource/Desmond_Tutu"}, 
{"score": 1.697802, "link": "http://dbpedia.org/resource/Bury_St_Edmunds"}, 
{"score": 1.697327, "link": "http://dbpedia.org/resource/Nelly_Furtado"}, 
{"score": 1.697167, "link": "http://dbpedia.org/resource/Dr._John"}, 
{"score": 1.697160, "link": "http://dbpedia.org/resource/Ne-Yo"}, 
{"score": 1.697146, "link": "http://dbpedia.org/resource/Liberace"}, 
{"score": 1.696772, "link": "http://dbpedia.org/resource/Sammy_Cahn"}, 
{"score": 1.696498, "link": "http://dbpedia.org/resource/Brian_May"}, 
{"score": 1.696481, "link": "http://dbpedia.org/resource/Lorrie_Morgan"}, 
{"score": 1.696353, "link": "http://dbpedia.org/resource/Christina_Applegate"}, 
{"score": 1.695884, "link": "http://dbpedia.org/resource/Nancy_Sinatra"}, 
{"score": 1.695715, "link": "http://dbpedia.org/resource/Buddy_Guy"}, 
{"score": 1.695346, "link": "http://dbpedia.org/resource/Francis_of_Assisi"}, 
{"score": 1.694753, "link": "http://dbpedia.org/resource/Long_John_Baldry"}, 
{"score": 1.694714, "link": "http://dbpedia.org/resource/Jay-Z"}, 
{"score": 1.694386, "link": "http://dbpedia.org/resource/Peter_Buck"}, 
{"score": 1.694349, "link": "http://dbpedia.org/resource/Empedocles"}, 
{"score": 1.694330, "link": "http://dbpedia.org/resource/Cat_Power"}, 
{"score": 1.694196, "link": "http://dbpedia.org/resource/Missouri"}, 
{"score": 1.693949, "link": "http://dbpedia.org/resource/Westminster"}, 
{"score": 1.693275, "link": "http://dbpedia.org/resource/Ricky_Martin"}, 
{"score": 1.693141, "link": "http://dbpedia.org/resource/Gil_Scott-Heron"}, 
{"score": 1.692910, "link": "http://dbpedia.org/resource/North_Carolina"}, 
{"score": 1.692742, "link": "http://dbpedia.org/resource/Nick_Cave"}, 
{"score": 1.691474, "link": "http://dbpedia.org/resource/Kyoto"}, 
{"score": 1.691396, "link": "http://dbpedia.org/resource/Rufus_Wainwright"}, 
{"score": 1.690548, "link": "http://dbpedia.org/resource/Tracey_Thorn"}, 
{"score": 1.689597, "link": "http://dbpedia.org/resource/Betty_White"}, 
{"score": 1.689262, "link": "http://dbpedia.org/resource/Dawn_French"}, 
{"score": 1.689232, "link": "http://dbpedia.org/resource/Mica_Paris"}, 
{"score": 1.688405, "link": "http://dbpedia.org/resource/Arundhati_Roy"}, 
{"score": 1.688396, "link": "http://dbpedia.org/resource/Phil_Collins"}, 
{"score": 1.687587, "link": "http://dbpedia.org/resource/Robbie_Williams"}, 
{"score": 1.687299, "link": "http://dbpedia.org/resource/Curtis_Mayfield"}, 
{"score": 1.687014, "link": "http://dbpedia.org/resource/Pat_Morita"}, 
{"score": 1.686849, "link": "http://dbpedia.org/resource/Jack_Black"}, 
{"score": 1.686482, "link": "http://dbpedia.org/resource/Angelina_Jolie"}, 
{"score": 1.686465, "link": "http://dbpedia.org/resource/Jennifer_Lopez"}, 
{"score": 1.686073, "link": "http://dbpedia.org/resource/Shelby_Lynne"}, 
{"score": 1.685640, "link": "http://dbpedia.org/resource/Los_Angeles_County,_California"}, 
{"score": 1.684296, "link": "http://dbpedia.org/resource/Nelson_Mandela"}, 
{"score": 1.684002, "link": "http://dbpedia.org/resource/Chris_Rea"}, 
{"score": 1.683592, "link": "http://dbpedia.org/resource/Jim_Cummings"}, 
{"score": 1.683019, "link": "http://dbpedia.org/resource/Enrique_Iglesias"}, 
{"score": 1.682795, "link": "http://dbpedia.org/resource/Mavis_Staples"}, 
{"score": 1.682431, "link": "http://dbpedia.org/resource/Jon_Culshaw"}, 
{"score": 1.682352, "link": "http://dbpedia.org/resource/Alice_Cooper"}, 
{"score": 1.682306, "link": "http://dbpedia.org/resource/Smokey_Robinson"}, 
{"score": 1.682079, "link": "http://dbpedia.org/resource/Donnie_Wahlberg"}, 
{"score": 1.681699, "link": "http://dbpedia.org/resource/Lauryn_Hill"}, 
{"score": 1.681412, "link": "http://dbpedia.org/resource/John_Lee_Hooker"}, 
{"score": 1.680846, "link": "http://dbpedia.org/resource/Rosemary_Clooney"}, 
{"score": 1.680539, "link": "http://dbpedia.org/resource/Jacqueline_Kennedy_Onassis"}, 
{"score": 1.680525, "link": "http://dbpedia.org/resource/Lisa_Maffia"}, 
{"score": 1.679905, "link": "http://dbpedia.org/resource/Willie_Nelson"}, 
{"score": 1.679903, "link": "http://dbpedia.org/resource/Kate_Bush"}, 
{"score": 1.679839, "link": "http://dbpedia.org/resource/Tim_Burton"}, 
{"score": 1.679525, "link": "http://dbpedia.org/resource/Patty_Duke"}, 
{"score": 1.679376, "link": "http://dbpedia.org/resource/Benny_Carter"}, 
{"score": 1.679244, "link": "http://dbpedia.org/resource/John_Hiatt"}, 
{"score": 1.679227, "link": "http://dbpedia.org/resource/Danny_Glover"}, 
{"score": 1.679121, "link": "http://dbpedia.org/resource/Patti_Smith"}, 
{"score": 1.678721, "link": "http://dbpedia.org/resource/James_Dean"}, 
{"score": 1.677784, "link": "http://dbpedia.org/resource/Dionne_Warwick"}, 
{"score": 1.677679, "link": "http://dbpedia.org/resource/Pennsylvania"}, 
{"score": 1.677321, "link": "http://dbpedia.org/resource/Robert_Plant"}, 
{"score": 1.676629, "link": "http://dbpedia.org/resource/Oregon"}, 
{"score": 1.675752, "link": "http://dbpedia.org/resource/Milton_Berle"}, 
{"score": 1.674795, "link": "http://dbpedia.org/resource/Kuwait"}, 
{"score": 1.674373, "link": "http://dbpedia.org/resource/Trey_Parker"}, 
{"score": 1.674266, "link": "http://dbpedia.org/resource/Perry_Como"}, 
{"score": 1.674160, "link": "http://dbpedia.org/resource/Katie_Melua"}, 
{"score": 1.673895, "link": "http://dbpedia.org/resource/Leon_Russell"}, 
{"score": 1.673879, "link": "http://dbpedia.org/resource/Western_Cape"}, 
{"score": 1.673682, "link": "http://dbpedia.org/resource/Michigan"}, 
{"score": 1.673303, "link": "http://dbpedia.org/resource/Arizona"}, 
{"score": 1.672057, "link": "http://dbpedia.org/resource/Mylo"}, 
{"score": 1.671933, "link": "http://dbpedia.org/resource/Harry_Belafonte"}, 
{"score": 1.671800, "link": "http://dbpedia.org/resource/Ennio_Morricone"}, 
{"score": 1.670874, "link": "http://dbpedia.org/resource/Adelaide"}, 
{"score": 1.670867, "link": "http://dbpedia.org/resource/Tinchy_Stryder"}, 
{"score": 1.670817, "link": "http://dbpedia.org/resource/Woody_Guthrie"}, 
{"score": 1.670670, "link": "http://dbpedia.org/resource/Mike_Tyson"}, 
{"score": 1.670656, "link": "http://dbpedia.org/resource/Christina_Aguilera"}, 
{"score": 1.670653, "link": "http://dbpedia.org/resource/Hattie_Jacques"}, 
{"score": 1.670258, "link": "http://dbpedia.org/resource/Beanie_Sigel"}, 
{"score": 1.669802, "link": "http://dbpedia.org/resource/Leonardo_DiCaprio"}, 
{"score": 1.669506, "link": "http://dbpedia.org/resource/Dante_Alighieri"}, 
{"score": 1.669404, "link": "http://dbpedia.org/resource/Johnny_Depp"}, 
{"score": 1.668701, "link": "http://dbpedia.org/resource/Dundee"}, 
{"score": 1.668657, "link": "http://dbpedia.org/resource/Benny_Goodman"}, 
{"score": 1.668416, "link": "http://dbpedia.org/resource/J._K._Rowling"}, 
{"score": 1.668160, "link": "http://dbpedia.org/resource/Debbie_Harry"}, 
{"score": 1.668054, "link": "http://dbpedia.org/resource/Mark_Ronson"}, 
{"score": 1.667531, "link": "http://dbpedia.org/resource/Solomon"}, 
{"score": 1.667400, "link": "http://dbpedia.org/resource/Rick_Rubin"}, 
{"score": 1.667054, "link": "http://dbpedia.org/resource/Tony_Bennett"}, 
{"score": 1.666775, "link": "http://dbpedia.org/resource/Tony_Rice"}, 
{"score": 1.666755, "link": "http://dbpedia.org/resource/Billy_Idol"}, 
{"score": 1.666027, "link": "http://dbpedia.org/resource/Armin_van_Buuren"}, 
{"score": 1.664913, "link": "http://dbpedia.org/resource/Kansas"}, 
{"score": 1.664877, "link": "http://dbpedia.org/resource/Robyn"}, 
{"score": 1.664769, "link": "http://dbpedia.org/resource/Paul_Brady"}, 
{"score": 1.664253, "link": "http://dbpedia.org/resource/Kris_Kristofferson"}, 
{"score": 1.664201, "link": "http://dbpedia.org/resource/Bangkok"}, 
{"score": 1.664094, "link": "http://dbpedia.org/resource/Michael_Stipe"}, 
{"score": 1.663782, "link": "http://dbpedia.org/resource/Kele_Okereke"}, 
{"score": 1.663293, "link": "http://dbpedia.org/resource/K.d._lang"}, 
{"score": 1.663099, "link": "http://dbpedia.org/resource/Bing_Crosby"}, 
{"score": 1.662878, "link": "http://dbpedia.org/resource/Tom_Selleck"}, 
{"score": 1.662056, "link": "http://dbpedia.org/resource/Merle_Haggard"}, 
{"score": 1.661451, "link": "http://dbpedia.org/resource/Gordon_Lightfoot"}, 
{"score": 1.660947, "link": "http://dbpedia.org/resource/Rae_Dawn_Chong"}, 
{"score": 1.660787, "link": "http://dbpedia.org/resource/Tony_Blair"}, 
{"score": 1.660336, "link": "http://dbpedia.org/resource/Peter_Capaldi"}, 
{"score": 1.659311, "link": "http://dbpedia.org/resource/Andy_Williams"}, 
{"score": 1.658911, "link": "http://dbpedia.org/resource/Kevin_Davies"}, 
{"score": 1.658854, "link": "http://dbpedia.org/resource/Hadrian"}, 
{"score": 1.658561, "link": "http://dbpedia.org/resource/Liza_Minnelli"}, 
{"score": 1.658331, "link": "http://dbpedia.org/resource/Jimmy_Page"}, 
{"score": 1.658270, "link": "http://dbpedia.org/resource/Norwich"}, 
{"score": 1.658228, "link": "http://dbpedia.org/resource/Noel_Edmonds"}, 
{"score": 1.657986, "link": "http://dbpedia.org/resource/Denzel_Washington"}, 
{"score": 1.657493, "link": "http://dbpedia.org/resource/Ginger_Baker"}, 
{"score": 1.656824, "link": "http://dbpedia.org/resource/Jimmy_Durante"}, 
{"score": 1.656703, "link": "http://dbpedia.org/resource/Marc_Almond"}, 
{"score": 1.656612, "link": "http://dbpedia.org/resource/Louis_Armstrong"}, 
{"score": 1.656396, "link": "http://dbpedia.org/resource/George_Carlin"}, 
{"score": 1.656304, "link": "http://dbpedia.org/resource/Aretha_Franklin"}, 
{"score": 1.656146, "link": "http://dbpedia.org/resource/Rob_Lowe"}, 
{"score": 1.655918, "link": "http://dbpedia.org/resource/Charleston,_South_Carolina"}, 
{"score": 1.655769, "link": "http://dbpedia.org/resource/Twickenham"}, 
{"score": 1.655288, "link": "http://dbpedia.org/resource/Nashville,_Tennessee"}, 
{"score": 1.654821, "link": "http://dbpedia.org/resource/Anjelica_Huston"}, 
{"score": 1.654742, "link": "http://dbpedia.org/resource/Penang"}, 
{"score": 1.654191, "link": "http://dbpedia.org/resource/Suzanne_Vega"}, 
{"score": 1.653768, "link": "http://dbpedia.org/resource/James_Brown"}, 
{"score": 1.653337, "link": "http://dbpedia.org/resource/Nina_Simone"}, 
{"score": 1.653215, "link": "http://dbpedia.org/resource/Tito_Puente"}, 
{"score": 1.653137, "link": "http://dbpedia.org/resource/George_A._Romero"}, 
{"score": 1.651917, "link": "http://dbpedia.org/resource/Greta_Scacchi"}, 
{"score": 1.651900, "link": "http://dbpedia.org/resource/Judy_Collins"}, 
{"score": 1.651865, "link": "http://dbpedia.org/resource/Kenneth_Clarke"}, 
{"score": 1.651802, "link": "http://dbpedia.org/resource/Forest_Whitaker"}, 
{"score": 1.651019, "link": "http://dbpedia.org/resource/Eric_Andersen"}, 
{"score": 1.650908, "link": "http://dbpedia.org/resource/Jane_Fonda"}, 
{"score": 1.650866, "link": "http://dbpedia.org/resource/Plato"}, 
{"score": 1.650532, "link": "http://dbpedia.org/resource/Paris_Hilton"}, 
{"score": 1.650528, "link": "http://dbpedia.org/resource/George_Harrison"}, 
{"score": 1.650455, "link": "http://dbpedia.org/resource/Brian_Wilson"}, 
{"score": 1.650439, "link": "http://dbpedia.org/resource/Salman_Rushdie"}, 
{"score": 1.649902, "link": "http://dbpedia.org/resource/Macy_Gray"}, 
{"score": 1.648828, "link": "http://dbpedia.org/resource/Steven_Seagal"}, 
{"score": 1.648783, "link": "http://dbpedia.org/resource/Charlotte,_North_Carolina"}, 
{"score": 1.648587, "link": "http://dbpedia.org/resource/Kurt_Russell"}, 
{"score": 1.648349, "link": "http://dbpedia.org/resource/Lakeland,_Florida"}, 
{"score": 1.647136, "link": "http://dbpedia.org/resource/Hank_Marvin"}, 
{"score": 1.646706, "link": "http://dbpedia.org/resource/Mickey_Rooney"}, 
{"score": 1.646496, "link": "http://dbpedia.org/resource/Billy_Crystal"}, 
{"score": 1.646407, "link": "http://dbpedia.org/resource/David"}, 
{"score": 1.646011, "link": "http://dbpedia.org/resource/Bernie_Casey"}, 
{"score": 1.645980, "link": "http://dbpedia.org/resource/Stevie_Nicks"}, 
{"score": 1.645769, "link": "http://dbpedia.org/resource/Carlos_Santana"}, 
{"score": 1.645380, "link": "http://dbpedia.org/resource/Chris_Moyles"}, 
{"score": 1.645304, "link": "http://dbpedia.org/resource/Patty_Griffin"}, 
{"score": 1.645205, "link": "http://dbpedia.org/resource/Janet_Jackson"}, 
{"score": 1.645080, "link": "http://dbpedia.org/resource/Diane_Warren"}, 
{"score": 1.644997, "link": "http://dbpedia.org/resource/Seamus_Heaney"}, 
{"score": 1.644714, "link": "http://dbpedia.org/resource/Raquel_Welch"}, 
{"score": 1.644666, "link": "http://dbpedia.org/resource/Ken_Boothe"}, 
{"score": 1.644108, "link": "http://dbpedia.org/resource/England"}, 
{"score": 1.643165, "link": "http://dbpedia.org/resource/The_Beach_Boys"}, 
{"score": 1.642877, "link": "http://dbpedia.org/resource/Cameron_Diaz"}, 
{"score": 1.642785, "link": "http://dbpedia.org/resource/Mr._T"}, 
{"score": 1.641887, "link": "http://dbpedia.org/resource/David_Walliams"}, 
{"score": 1.641800, "link": "http://dbpedia.org/resource/County_Monaghan"}, 
{"score": 1.641571, "link": "http://dbpedia.org/resource/Music_video"}, 
{"score": 1.640629, "link": "http://dbpedia.org/resource/Maidstone"}, 
{"score": 1.640537, "link": "http://dbpedia.org/resource/Detroit"}, 
{"score": 1.640314, "link": "http://dbpedia.org/resource/Patti_LaBelle"}, 
{"score": 1.640225, "link": "http://dbpedia.org/resource/David_Essex"}, 
{"score": 1.639723, "link": "http://dbpedia.org/resource/Mike_Oldfield"}, 
{"score": 1.639477, "link": "http://dbpedia.org/resource/Hertfordshire"}, 
{"score": 1.639013, "link": "http://dbpedia.org/resource/Ernest_Borgnine"}, 
{"score": 1.638953, "link": "http://dbpedia.org/resource/San_Antonio"}, 
{"score": 1.638621, "link": "http://dbpedia.org/resource/Rashida_Jones"}, 
{"score": 1.638521, "link": "http://dbpedia.org/resource/Lady_Gaga"}, 
{"score": 1.637716, "link": "http://dbpedia.org/resource/West_Virginia"}, 
{"score": 1.637612, "link": "http://dbpedia.org/resource/Joss_Stone"}, 
{"score": 1.637420, "link": "http://dbpedia.org/resource/Worcestershire"}, 
{"score": 1.637346, "link": "http://dbpedia.org/resource/Paul_Oakenfold"}, 
{"score": 1.637249, "link": "http://dbpedia.org/resource/Professor_Green"}, 
{"score": 1.636654, "link": "http://dbpedia.org/resource/Jharkhand"}, 
{"score": 1.636405, "link": "http://dbpedia.org/resource/Aeschylus"}, 
{"score": 1.636322, "link": "http://dbpedia.org/resource/Moby"}, 
{"score": 1.636184, "link": "http://dbpedia.org/resource/Melanie_Chisholm"}, 
{"score": 1.635923, "link": "http://dbpedia.org/resource/Cheryl_Cole"}, 
{"score": 1.635753, "link": "http://dbpedia.org/resource/Oscar_Hammerstein_II"}, 
{"score": 1.635733, "link": "http://dbpedia.org/resource/Augustine_of_Hippo"}, 
{"score": 1.635477, "link": "http://dbpedia.org/resource/Beach"}, 
{"score": 1.635187, "link": "http://dbpedia.org/resource/Kingsley_Amis"}, 
{"score": 1.634580, "link": "http://dbpedia.org/resource/Pharrell_Williams"}, 
{"score": 1.634531, "link": "http://dbpedia.org/resource/R._Kelly"}, 
{"score": 1.634296, "link": "http://dbpedia.org/resource/Richard_Rodgers"}, 
{"score": 1.633784, "link": "http://dbpedia.org/resource/Leona_Lewis"}, 
{"score": 1.633660, "link": "http://dbpedia.org/resource/Tom_Petty_and_the_Heartbreakers"}, 
{"score": 1.633563, "link": "http://dbpedia.org/resource/Mantua"}, 
{"score": 1.633379, "link": "http://dbpedia.org/resource/Matt_Stone"}, 
{"score": 1.633334, "link": "http://dbpedia.org/resource/Damon_Albarn"}, 
{"score": 1.632904, "link": "http://dbpedia.org/resource/Martin_Landau"}, 
{"score": 1.632706, "link": "http://dbpedia.org/resource/Croydon"}, 
{"score": 1.632207, "link": "http://dbpedia.org/resource/John_Cale"}, 
{"score": 1.632129, "link": "http://dbpedia.org/resource/Natalie_Wood"}, 
{"score": 1.631040, "link": "http://dbpedia.org/resource/Brooke_Shields"}, 
{"score": 1.630862, "link": "http://dbpedia.org/resource/Charlize_Theron"}, 
{"score": 1.630571, "link": "http://dbpedia.org/resource/Orlando,_Florida"}, 
{"score": 1.630555, "link": "http://dbpedia.org/resource/Burt_Reynolds"}, 
{"score": 1.630051, "link": "http://dbpedia.org/resource/The_Edge"}, 
{"score": 1.629684, "link": "http://dbpedia.org/resource/Kirsten_Dunst"}, 
{"score": 1.629658, "link": "http://dbpedia.org/resource/Snoopy"}, 
{"score": 1.629319, "link": "http://dbpedia.org/resource/Nina_Wadia"}, 
{"score": 1.628703, "link": "http://dbpedia.org/resource/Hannibal"}, 
{"score": 1.628697, "link": "http://dbpedia.org/resource/Los_Angeles"}, 
{"score": 1.628319, "link": "http://dbpedia.org/resource/Angela_Lansbury"}, 
{"score": 1.627967, "link": "http://dbpedia.org/resource/County_Wexford"}, 
{"score": 1.627730, "link": "http://dbpedia.org/resource/Rita_Hayworth"}, 
{"score": 1.627696, "link": "http://dbpedia.org/resource/Jennifer_Saunders"}, 
{"score": 1.627646, "link": "http://dbpedia.org/resource/Dorset"}, 
{"score": 1.627490, "link": "http://dbpedia.org/resource/Magic_Johnson"}, 
{"score": 1.627480, "link": "http://dbpedia.org/resource/Steve_Lacy"}, 
{"score": 1.627392, "link": "http://dbpedia.org/resource/Memphis_Bleek"}, 
{"score": 1.627042, "link": "http://dbpedia.org/resource/Xzibit"}, 
{"score": 1.626973, "link": "http://dbpedia.org/resource/Ann-Margret"}, 
{"score": 1.626962, "link": "http://dbpedia.org/resource/City"}, 
{"score": 1.626575, "link": "http://dbpedia.org/resource/Isaac"}, 
{"score": 1.626469, "link": "http://dbpedia.org/resource/Elvis_Presley"}, 
{"score": 1.626209, "link": "http://dbpedia.org/resource/Savannah,_Georgia"}, 
{"score": 1.626201, "link": "http://dbpedia.org/resource/Hollywood"}, 
{"score": 1.626131, "link": "http://dbpedia.org/resource/Douglas_Adams"}, 
{"score": 1.626100, "link": "http://dbpedia.org/resource/Maya_Angelou"}, 
{"score": 1.625978, "link": "http://dbpedia.org/resource/John_Lithgow"}, 
{"score": 1.625397, "link": "http://dbpedia.org/resource/Jennifer_Warnes"}, 
{"score": 1.624979, "link": "http://dbpedia.org/resource/Diane_Lane"}, 
{"score": 1.624968, "link": "http://dbpedia.org/resource/Jade_Goody"}, 
{"score": 1.624861, "link": "http://dbpedia.org/resource/Carole_King"}, 
{"score": 1.624700, "link": "http://dbpedia.org/resource/Judi_Dench"}, 
{"score": 1.624446, "link": "http://dbpedia.org/resource/Akon"}, 
{"score": 1.623777, "link": "http://dbpedia.org/resource/Fabian_Cancellara"}, 
{"score": 1.623386, "link": "http://dbpedia.org/resource/Gillian_Anderson"}, 
{"score": 1.623337, "link": "http://dbpedia.org/resource/Barry_Manilow"}, 
{"score": 1.623258, "link": "http://dbpedia.org/resource/Pete_Tong"}, 
{"score": 1.622914, "link": "http://dbpedia.org/resource/South_Korea"}, 
{"score": 1.622797, "link": "http://dbpedia.org/resource/Russell_Brand"}, 
{"score": 1.622693, "link": "http://dbpedia.org/resource/James_Stewart"}, 
{"score": 1.622519, "link": "http://dbpedia.org/resource/Roy_Orbison"}, 
{"score": 1.622422, "link": "http://dbpedia.org/resource/Burt_Lancaster"}, 
{"score": 1.621606, "link": "http://dbpedia.org/resource/Krist_Novoselic"}, 
{"score": 1.621506, "link": "http://dbpedia.org/resource/Jule_Styne"}, 
{"score": 1.621472, "link": "http://dbpedia.org/resource/Buddy_Miller"}, 
{"score": 1.621428, "link": "http://dbpedia.org/resource/Julia_Roberts"}, 
{"score": 1.621326, "link": "http://dbpedia.org/resource/Cardiff"}, 
{"score": 1.621257, "link": "http://dbpedia.org/resource/Robbie_Robertson"}, 
{"score": 1.621244, "link": "http://dbpedia.org/resource/Donkey"}, 
{"score": 1.620493, "link": "http://dbpedia.org/resource/County_Donegal"}, 
{"score": 1.620486, "link": "http://dbpedia.org/resource/Brad_Garrett"}, 
{"score": 1.620047, "link": "http://dbpedia.org/resource/Hank_Williams"}, 
{"score": 1.620010, "link": "http://dbpedia.org/resource/Tom_Baker"}, 
{"score": 1.619992, "link": "http://dbpedia.org/resource/Didier_Drogba"}, 
{"score": 1.619951, "link": "http://dbpedia.org/resource/Atlanta"}, 
{"score": 1.619784, "link": "http://dbpedia.org/resource/Tasmania"}, 
{"score": 1.619137, "link": "http://dbpedia.org/resource/Wet_Wet_Wet"}, 
{"score": 1.619129, "link": "http://dbpedia.org/resource/Whitstable"}, 
{"score": 1.619073, "link": "http://dbpedia.org/resource/Amy_Winehouse"}, 
{"score": 1.617848, "link": "http://dbpedia.org/resource/Jane_Curtin"}, 
{"score": 1.617801, "link": "http://dbpedia.org/resource/Susan_Sarandon"}, 
{"score": 1.617053, "link": "http://dbpedia.org/resource/Hoagy_Carmichael"}, 
{"score": 1.616729, "link": "http://dbpedia.org/resource/Tennessee"}, 
{"score": 1.616729, "link": "http://dbpedia.org/resource/Meg_Ryan"}, 
{"score": 1.616474, "link": "http://dbpedia.org/resource/Frank_Loesser"}, 
{"score": 1.615945, "link": "http://dbpedia.org/resource/Oprah_Winfrey"}, 
{"score": 1.615936, "link": "http://dbpedia.org/resource/Colin_Farrell"}, 
{"score": 1.615816, "link": "http://dbpedia.org/resource/Norah_Jones"}, 
{"score": 1.615644, "link": "http://dbpedia.org/resource/Greenwich"}, 
{"score": 1.615618, "link": "http://dbpedia.org/resource/Stephen_Root"}, 
{"score": 1.615606, "link": "http://dbpedia.org/resource/Steve_Jobs"}, 
{"score": 1.615590, "link": "http://dbpedia.org/resource/Charlie_Chaplin"}, 
{"score": 1.615575, "link": "http://dbpedia.org/resource/Humphrey_Lyttelton"}, 
{"score": 1.615560, "link": "http://dbpedia.org/resource/North_Korea"}, 
{"score": 1.615305, "link": "http://dbpedia.org/resource/Hugh_Masekela"}, 
{"score": 1.614141, "link": "http://dbpedia.org/resource/Nicole_Scherzinger"}, 
{"score": 1.614122, "link": "http://dbpedia.org/resource/California"}, 
{"score": 1.613929, "link": "http://dbpedia.org/resource/Kentucky"}, 
{"score": 1.613758, "link": "http://dbpedia.org/resource/Gina_McKee"}, 
{"score": 1.613754, "link": "http://dbpedia.org/resource/Cole_Porter"}, 
{"score": 1.613738, "link": "http://dbpedia.org/resource/Phil_Manzanera"}, 
{"score": 1.613543, "link": "http://dbpedia.org/resource/Joan_Baez"}, 
{"score": 1.613524, "link": "http://dbpedia.org/resource/South_America"}, 
{"score": 1.613311, "link": "http://dbpedia.org/resource/Jamie_Cullum"}, 
{"score": 1.613259, "link": "http://dbpedia.org/resource/Lindsay_Lohan"}, 
{"score": 1.613000, "link": "http://dbpedia.org/resource/Brian_Eno"}, 
{"score": 1.612836, "link": "http://dbpedia.org/resource/John_Carpenter"}, 
{"score": 1.612793, "link": "http://dbpedia.org/resource/Mac_Davis"}, 
{"score": 1.612776, "link": "http://dbpedia.org/resource/Boston"}, 
{"score": 1.612719, "link": "http://dbpedia.org/resource/County_Dublin"}, 
{"score": 1.612228, "link": "http://dbpedia.org/resource/John_Goodman"}, 
{"score": 1.612157, "link": "http://dbpedia.org/resource/Anne_Murray"}, 
{"score": 1.611895, "link": "http://dbpedia.org/resource/Joe_Cocker"}, 
{"score": 1.611579, "link": "http://dbpedia.org/resource/Stephen_King"}, 
{"score": 1.611455, "link": "http://dbpedia.org/resource/Dizzee_Rascal"}, 
{"score": 1.611453, "link": "http://dbpedia.org/resource/South_Africa"}, 
{"score": 1.611135, "link": "http://dbpedia.org/resource/Kim_Richey"}, 
{"score": 1.610898, "link": "http://dbpedia.org/resource/Margate"}, 
{"score": 1.610773, "link": "http://dbpedia.org/resource/Billy_Joel"}, 
{"score": 1.610768, "link": "http://dbpedia.org/resource/Mr_Hudson"}, 
{"score": 1.610640, "link": "http://dbpedia.org/resource/Drew_Barrymore"}, 
{"score": 1.609956, "link": "http://dbpedia.org/resource/Tina_Fey"}, 
{"score": 1.609734, "link": "http://dbpedia.org/resource/Cilla_Black"}, 
{"score": 1.609715, "link": "http://dbpedia.org/resource/Michelle_Phillips"}, 
{"score": 1.609633, "link": "http://dbpedia.org/resource/Lou_Reed"}, 
{"score": 1.609331, "link": "http://dbpedia.org/resource/Andrea_Corr"}, 
{"score": 1.609326, "link": "http://dbpedia.org/resource/Brighton"}, 
{"score": 1.609193, "link": "http://dbpedia.org/resource/Georgie_Fame"}, 
{"score": 1.608731, "link": "http://dbpedia.org/resource/Jon_Lord"}, 
{"score": 1.608211, "link": "http://dbpedia.org/resource/George_Benson"}, 
{"score": 1.607953, "link": "http://dbpedia.org/resource/Dusty_Springfield"}, 
{"score": 1.607952, "link": "http://dbpedia.org/resource/Louis_Prima"}, 
{"score": 1.607674, "link": "http://dbpedia.org/resource/David_Gilmour"}, 
{"score": 1.607298, "link": "http://dbpedia.org/resource/Billie_Holiday"}, 
{"score": 1.607276, "link": "http://dbpedia.org/resource/Frank_Zappa"}, 
{"score": 1.607078, "link": "http://dbpedia.org/resource/Dublin"}, 
{"score": 1.606710, "link": "http://dbpedia.org/resource/Dave_Eggers"}, 
{"score": 1.606388, "link": "http://dbpedia.org/resource/B.B._King"}, 
{"score": 1.606097, "link": "http://dbpedia.org/resource/Marilyn_Monroe"}, 
{"score": 1.605957, "link": "http://dbpedia.org/resource/Ronan_Keating"}, 
{"score": 1.605819, "link": "http://dbpedia.org/resource/Bobby_Darin"}, 
{"score": 1.605762, "link": "http://dbpedia.org/resource/Benmont_Tench"}, 
{"score": 1.605623, "link": "http://dbpedia.org/resource/Seoul"}, 
{"score": 1.605593, "link": "http://dbpedia.org/resource/Patrick_Swayze"}, 
{"score": 1.605533, "link": "http://dbpedia.org/resource/Monaghan"}, 
{"score": 1.604486, "link": "http://dbpedia.org/resource/John_Travolta"}, 
{"score": 1.604437, "link": "http://dbpedia.org/resource/Brazil"}, 
{"score": 1.604302, "link": "http://dbpedia.org/resource/Bat_for_Lashes"}, 
{"score": 1.604121, "link": "http://dbpedia.org/resource/John_Kerry"}, 
{"score": 1.603531, "link": "http://dbpedia.org/resource/Elaine_Paige"}, 
{"score": 1.603498, "link": "http://dbpedia.org/resource/John_F._Kennedy"}, 
{"score": 1.603314, "link": "http://dbpedia.org/resource/Edward_the_Confessor"}, 
{"score": 1.602905, "link": "http://dbpedia.org/resource/Phil_Coulter"}, 
{"score": 1.602759, "link": "http://dbpedia.org/resource/Charles_Dickens"}, 
{"score": 1.602212, "link": "http://dbpedia.org/resource/Barry_Adamson"}, 
{"score": 1.602011, "link": "http://dbpedia.org/resource/Philip_K._Dick"}, 
{"score": 1.601662, "link": "http://dbpedia.org/resource/Maine"}, 
{"score": 1.601537, "link": "http://dbpedia.org/resource/Micky_Dolenz"}, 
{"score": 1.601497, "link": "http://dbpedia.org/resource/Joan_Jett"}, 
{"score": 1.601418, "link": "http://dbpedia.org/resource/Morrissey"}, 
{"score": 1.600625, "link": "http://dbpedia.org/resource/Selena_Gomez"}, 
{"score": 1.600543, "link": "http://dbpedia.org/resource/Denis_Healey"}, 
{"score": 1.600516, "link": "http://dbpedia.org/resource/Moses"}, 
{"score": 1.600190, "link": "http://dbpedia.org/resource/Bobby_Womack"}, 
{"score": 1.599844, "link": "http://dbpedia.org/resource/Uttar_Pradesh"}, 
{"score": 1.599711, "link": "http://dbpedia.org/resource/Melanie_Brown"}, 
{"score": 1.599627, "link": "http://dbpedia.org/resource/Tracey_Emin"}, 
{"score": 1.599588, "link": "http://dbpedia.org/resource/KT_Tunstall"}, 
{"score": 1.599452, "link": "http://dbpedia.org/resource/Worcester"}, 
{"score": 1.599256, "link": "http://dbpedia.org/resource/Jack_Bruce"}, 
{"score": 1.599190, "link": "http://dbpedia.org/resource/Lena_Horne"}, 
{"score": 1.599086, "link": "http://dbpedia.org/resource/Adam_Kennedy"}, 
{"score": 1.599065, "link": "http://dbpedia.org/resource/Bihar"}, 
{"score": 1.598942, "link": "http://dbpedia.org/resource/Gary_Numan"}, 
{"score": 1.598939, "link": "http://dbpedia.org/resource/LL_Cool_J"}, 
{"score": 1.598873, "link": "http://dbpedia.org/resource/Vancouver"}, 
{"score": 1.598870, "link": "http://dbpedia.org/resource/Irving_Berlin"}, 
{"score": 1.598784, "link": "http://dbpedia.org/resource/Forres"}, 
{"score": 1.598767, "link": "http://dbpedia.org/resource/Tom_Waits"}, 
{"score": 1.598723, "link": "http://dbpedia.org/resource/Rihanna"}, 
{"score": 1.598713, "link": "http://dbpedia.org/resource/John_Malkovich"}, 
{"score": 1.598331, "link": "http://dbpedia.org/resource/Mohandas_Karamchand_Gandhi"}, 
{"score": 1.598218, "link": "http://dbpedia.org/resource/South_Shields"}, 
{"score": 1.598217, "link": "http://dbpedia.org/resource/Jodie_Foster"}, 
{"score": 1.598216, "link": "http://dbpedia.org/resource/Bernard_Cribbins"}, 
{"score": 1.598153, "link": "http://dbpedia.org/resource/Eddi_Reader"}, 
{"score": 1.598072, "link": "http://dbpedia.org/resource/Ice_Cube"}, 
{"score": 1.597746, "link": "http://dbpedia.org/resource/Bram_Stoker"}, 
{"score": 1.597557, "link": "http://dbpedia.org/resource/Andy_Devine"}, 
{"score": 1.597494, "link": "http://dbpedia.org/resource/Machu_Picchu"}, 
{"score": 1.597322, "link": "http://dbpedia.org/resource/Alison_Krauss"}, 
{"score": 1.596809, "link": "http://dbpedia.org/resource/John_Donne"}, 
{"score": 1.596701, "link": "http://dbpedia.org/resource/Alfred_the_Great"}, 
{"score": 1.596511, "link": "http://dbpedia.org/resource/Nevada"}, 
{"score": 1.596419, "link": "http://dbpedia.org/resource/Billie_Piper"}, 
{"score": 1.596337, "link": "http://dbpedia.org/resource/Soho"}, 
{"score": 1.596221, "link": "http://dbpedia.org/resource/Audrey_Hepburn"}, 
{"score": 1.596198, "link": "http://dbpedia.org/resource/Tate_Donovan"}, 
{"score": 1.595970, "link": "http://dbpedia.org/resource/Alec_Baldwin"}, 
{"score": 1.595953, "link": "http://dbpedia.org/resource/Michel_Legrand"}, 
{"score": 1.595797, "link": "http://dbpedia.org/resource/Juliette_Lewis"}, 
{"score": 1.595580, "link": "http://dbpedia.org/resource/Shelley_Winters"}, 
{"score": 1.595488, "link": "http://dbpedia.org/resource/Barbra_Streisand"}, 
{"score": 1.594957, "link": "http://dbpedia.org/resource/Scotland"}, 
{"score": 1.594651, "link": "http://dbpedia.org/resource/George_Martin"}, 
{"score": 1.594296, "link": "http://dbpedia.org/resource/Ipswich"}, 
{"score": 1.594052, "link": "http://dbpedia.org/resource/Bolton"}, 
{"score": 1.593963, "link": "http://dbpedia.org/resource/Danny_Dyer"}, 
{"score": 1.593952, "link": "http://dbpedia.org/resource/Ringo_Starr"}, 
{"score": 1.593844, "link": "http://dbpedia.org/resource/LeAnn_Rimes"}, 
{"score": 1.593800, "link": "http://dbpedia.org/resource/Jerusalem"}, 
{"score": 1.593265, "link": "http://dbpedia.org/resource/Alan_Rickman"}, 
{"score": 1.593253, "link": "http://dbpedia.org/resource/Todd_Field"}, 
{"score": 1.593133, "link": "http://dbpedia.org/resource/Lisa_Kudrow"}, 
{"score": 1.593023, "link": "http://dbpedia.org/resource/Molly_Shannon"}, 
{"score": 1.592830, "link": "http://dbpedia.org/resource/Daryl_Hannah"}, 
{"score": 1.592764, "link": "http://dbpedia.org/resource/Simon_Webbe"}, 
{"score": 1.592650, "link": "http://dbpedia.org/resource/Bernie_Taupin"}, 
{"score": 1.592642, "link": "http://dbpedia.org/resource/Lauren_Bacall"}, 
{"score": 1.592569, "link": "http://dbpedia.org/resource/Jonathan_Swift"}, 
{"score": 1.592317, "link": "http://dbpedia.org/resource/Tony_Curtis"}, 
{"score": 1.592042, "link": "http://dbpedia.org/resource/Matt_Lucas"}, 
{"score": 1.592017, "link": "http://dbpedia.org/resource/Uma_Thurman"}, 
{"score": 1.591977, "link": "http://dbpedia.org/resource/Terrence_Howard"}, 
{"score": 1.591840, "link": "http://dbpedia.org/resource/Lacey_Chabert"}, 
{"score": 1.591685, "link": "http://dbpedia.org/resource/Johnny_Thunders"}, 
{"score": 1.591438, "link": "http://dbpedia.org/resource/Steven_Spielberg"}, 
{"score": 1.590773, "link": "http://dbpedia.org/resource/Video_game"}, 
{"score": 1.590637, "link": "http://dbpedia.org/resource/Kenneth_Horne"}, 
{"score": 1.590568, "link": "http://dbpedia.org/resource/Al_Green"}, 
{"score": 1.590530, "link": "http://dbpedia.org/resource/Jimmy_Cliff"}, 
{"score": 1.590468, "link": "http://dbpedia.org/resource/John_Dankworth"}, 
{"score": 1.590254, "link": "http://dbpedia.org/resource/Jim_Morrison"}, 
{"score": 1.590123, "link": "http://dbpedia.org/resource/Terry-Thomas"}, 
{"score": 1.590059, "link": "http://dbpedia.org/resource/Berwick-upon-Tweed"}, 
{"score": 1.590018, "link": "http://dbpedia.org/resource/Donovan"}, 
{"score": 1.589720, "link": "http://dbpedia.org/resource/Art_Garfunkel"}, 
{"score": 1.589527, "link": "http://dbpedia.org/resource/Lee_Mack"}, 
{"score": 1.589413, "link": "http://dbpedia.org/resource/Helen_Mirren"}, 
{"score": 1.589372, "link": "http://dbpedia.org/resource/Jamie_Foxx"}, 
{"score": 1.589030, "link": "http://dbpedia.org/resource/Gravesend,_Kent"}, 
{"score": 1.588920, "link": "http://dbpedia.org/resource/Miles_Davis"}, 
{"score": 1.588543, "link": "http://dbpedia.org/resource/Bob_Hope"}, 
{"score": 1.588186, "link": "http://dbpedia.org/resource/Teri_Garr"}, 
{"score": 1.588156, "link": "http://dbpedia.org/resource/John_Krasinski"}, 
{"score": 1.588083, "link": "http://dbpedia.org/resource/Paloma_Faith"}, 
{"score": 1.587639, "link": "http://dbpedia.org/resource/Lemar"}, 
{"score": 1.587573, "link": "http://dbpedia.org/resource/Carly_Simon"}, 
{"score": 1.587389, "link": "http://dbpedia.org/resource/Southport"}, 
{"score": 1.587298, "link": "http://dbpedia.org/resource/Sarah_Jessica_Parker"}, 
{"score": 1.587230, "link": "http://dbpedia.org/resource/Faye_Dunaway"}, 
{"score": 1.587148, "link": "http://dbpedia.org/resource/Perth,_Western_Australia"}, 
{"score": 1.587132, "link": "http://dbpedia.org/resource/Rachel_Stevens"}, 
{"score": 1.587036, "link": "http://dbpedia.org/resource/Stanley_Kubrick"}, 
{"score": 1.586886, "link": "http://dbpedia.org/resource/Tom_Wolfe"}, 
{"score": 1.586189, "link": "http://dbpedia.org/resource/Liam_Neeson"}, 
{"score": 1.586056, "link": "http://dbpedia.org/resource/Louis_Walsh"}, 
{"score": 1.585989, "link": "http://dbpedia.org/resource/Bill_Cosby"}, 
{"score": 1.585938, "link": "http://dbpedia.org/resource/Michael_Schumacher"}, 
{"score": 1.585405, "link": "http://dbpedia.org/resource/Marianne_Faithfull"}, 
{"score": 1.585285, "link": "http://dbpedia.org/resource/Michelle_Pfeiffer"}, 
{"score": 1.584619, "link": "http://dbpedia.org/resource/Charles_Grodin"}, 
{"score": 1.584517, "link": "http://dbpedia.org/resource/Richard_Pryor"}, 
{"score": 1.584512, "link": "http://dbpedia.org/resource/Thandie_Newton"}, 
{"score": 1.583785, "link": "http://dbpedia.org/resource/Ray_Davies"}, 
{"score": 1.583779, "link": "http://dbpedia.org/resource/Kaohsiung"}, 
{"score": 1.583432, "link": "http://dbpedia.org/resource/Nottinghamshire"}, 
{"score": 1.583374, "link": "http://dbpedia.org/resource/Cate_Blanchett"}, 
{"score": 1.583027, "link": "http://dbpedia.org/resource/Cicero"}, 
{"score": 1.583023, "link": "http://dbpedia.org/resource/Jane_Krakowski"}, 
{"score": 1.582741, "link": "http://dbpedia.org/resource/Elijah_Wood"}, 
{"score": 1.581735, "link": "http://dbpedia.org/resource/Guitar"}, 
{"score": 1.581686, "link": "http://dbpedia.org/resource/Kevin_McDonald"}, 
{"score": 1.581657, "link": "http://dbpedia.org/resource/Brownie_McGhee"}, 
{"score": 1.581584, "link": "http://dbpedia.org/resource/Neil_Sedaka"}, 
{"score": 1.581499, "link": "http://dbpedia.org/resource/Robert_Altman"}, 
{"score": 1.581414, "link": "http://dbpedia.org/resource/Anthony_Burgess"}, 
{"score": 1.581337, "link": "http://dbpedia.org/resource/Cameron_Crowe"}, 
{"score": 1.580997, "link": "http://dbpedia.org/resource/Serj_Tankian"}, 
{"score": 1.580854, "link": "http://dbpedia.org/resource/St_Andrews"}, 
{"score": 1.580336, "link": "http://dbpedia.org/resource/Christchurch"}, 
{"score": 1.580229, "link": "http://dbpedia.org/resource/Barack_Obama"}, 
{"score": 1.580136, "link": "http://dbpedia.org/resource/Alexander_the_Great"}, 
{"score": 1.579969, "link": "http://dbpedia.org/resource/Taio_Cruz"}, 
{"score": 1.579883, "link": "http://dbpedia.org/resource/Peggy_Ashcroft"}, 
{"score": 1.579666, "link": "http://dbpedia.org/resource/Sugababes"}, 
{"score": 1.579096, "link": "http://dbpedia.org/resource/Dave_Matthews"}, 
{"score": 1.579022, "link": "http://dbpedia.org/resource/Shane_Richie"}, 
{"score": 1.578916, "link": "http://dbpedia.org/resource/Craig_David"}, 
{"score": 1.578612, "link": "http://dbpedia.org/resource/Wexford"}, 
{"score": 1.578560, "link": "http://dbpedia.org/resource/Bruce_Mackinnon"}, 
{"score": 1.578291, "link": "http://dbpedia.org/resource/Buzz_Aldrin"}, 
{"score": 1.578046, "link": "http://dbpedia.org/resource/Dwight_Schultz"}, 
{"score": 1.578028, "link": "http://dbpedia.org/resource/Yoko_Ono"}, 
{"score": 1.578013, "link": "http://dbpedia.org/resource/Henry_Kissinger"}, 
{"score": 1.577989, "link": "http://dbpedia.org/resource/Brigitte_Nielsen"}, 
{"score": 1.577897, "link": "http://dbpedia.org/resource/Cheltenham"}, 
{"score": 1.577836, "link": "http://dbpedia.org/resource/Harrison_Ford"}, 
{"score": 1.577559, "link": "http://dbpedia.org/resource/George_Thorogood"}, 
{"score": 1.577480, "link": "http://dbpedia.org/resource/Patricia_Cornwell"}, 
{"score": 1.577318, "link": "http://dbpedia.org/resource/Jessie_J"}, 
{"score": 1.573372, "link": "http://dbpedia.org/resource/County"}, 
{"score": 1.573021, "link": "http://dbpedia.org/resource/Town"}, 
{"score": 1.548674, "link": "http://dbpedia.org/resource/Cat"}, 
{"score": 1.539804, "link": "http://dbpedia.org/resource/Girls_Aloud"}, 
{"score": 1.539252, "link": "http://dbpedia.org/resource/Teenage_Fanclub"}, 
{"score": 1.535063, "link": "http://dbpedia.org/resource/Tattoo"}, 
{"score": 1.530574, "link": "http://dbpedia.org/resource/Tent"}, 
{"score": 1.524489, "link": "http://dbpedia.org/resource/Studio"}, 
{"score": 1.524090, "link": "http://dbpedia.org/resource/Family_Guy"}, 
{"score": 1.523711, "link": "http://dbpedia.org/resource/Fiddle"}, 
{"score": 1.514328, "link": "http://dbpedia.org/resource/BBC_Micro"}, 
{"score": 1.510520, "link": "http://dbpedia.org/resource/Dieting"}, 
{"score": 1.509204, "link": "http://dbpedia.org/resource/Board_game"}, 
{"score": 1.508542, "link": "http://dbpedia.org/resource/Online_game"}, 
{"score": 1.506539, "link": "http://dbpedia.org/resource/BBC_News"}, 
{"score": 1.501281, "link": "http://dbpedia.org/resource/Gwynedd"}, 
{"score": 1.500492, "link": "http://dbpedia.org/resource/Hull_City_A.F.C."}, 
{"score": 1.500207, "link": "http://dbpedia.org/resource/The_Ting_Tings"}, 
{"score": 1.498913, "link": "http://dbpedia.org/resource/Lego"}, 
{"score": 1.492943, "link": "http://dbpedia.org/resource/BBC_Four"}, 
{"score": 1.492540, "link": "http://dbpedia.org/resource/Nirvana"}, 
{"score": 1.492400, "link": "http://dbpedia.org/resource/Death"}, 
{"score": 1.490810, "link": "http://dbpedia.org/resource/Personal_computer"}, 
{"score": 1.490701, "link": "http://dbpedia.org/resource/South_India"}, 
{"score": 1.490560, "link": "http://dbpedia.org/resource/Collectible_card_game"}, 
{"score": 1.490390, "link": "http://dbpedia.org/resource/Hillsborough_Stadium"}, 
{"score": 1.489201, "link": "http://dbpedia.org/resource/Swansea_City_A.F.C."}, 
{"score": 1.487681, "link": "http://dbpedia.org/resource/Aerosmith"}, 
{"score": 1.486442, "link": "http://dbpedia.org/resource/Singing"}, 
{"score": 1.485173, "link": "http://dbpedia.org/resource/Bhagavad_Gita"}, 
{"score": 1.482790, "link": "http://dbpedia.org/resource/Role-playing_game"}, 
{"score": 1.479796, "link": "http://dbpedia.org/resource/Faith"}, 
{"score": 1.479559, "link": "http://dbpedia.org/resource/Beastie_Boys"}, 
{"score": 1.478701, "link": "http://dbpedia.org/resource/Sex_and_the_City"}, 
{"score": 1.477625, "link": "http://dbpedia.org/resource/Karate"}, 
{"score": 1.475042, "link": "http://dbpedia.org/resource/Haiku"}, 
{"score": 1.474207, "link": "http://dbpedia.org/resource/Convent"}, 
{"score": 1.474109, "link": "http://dbpedia.org/resource/Don_Draper"}, 
{"score": 1.472327, "link": "http://dbpedia.org/resource/English_poetry"}, 
{"score": 1.472261, "link": "http://dbpedia.org/resource/Mascot"}, 
{"score": 1.471931, "link": "http://dbpedia.org/resource/Electric_Light_Orchestra"}, 
{"score": 1.471465, "link": "http://dbpedia.org/resource/Grateful_Dead"}, 
{"score": 1.470260, "link": "http://dbpedia.org/resource/Boys_Like_Girls"}, 
{"score": 1.466883, "link": "http://dbpedia.org/resource/Divine_Comedy"}, 
{"score": 1.466420, "link": "http://dbpedia.org/resource/Stonehenge"}, 
{"score": 1.465657, "link": "http://dbpedia.org/resource/Bristol_City_F.C."}, 
{"score": 1.465533, "link": "http://dbpedia.org/resource/Whitesnake"}, 
{"score": 1.465333, "link": "http://dbpedia.org/resource/Bus"}, 
{"score": 1.464489, "link": "http://dbpedia.org/resource/Frightened_Rabbit"}, 
{"score": 1.464300, "link": "http://dbpedia.org/resource/Metallica"}, 
{"score": 1.463580, "link": "http://dbpedia.org/resource/Stupa"}, 
{"score": 1.462834, "link": "http://dbpedia.org/resource/YouTube"}, 
{"score": 1.462030, "link": "http://dbpedia.org/resource/Bad_Company"}, 
{"score": 1.461740, "link": "http://dbpedia.org/resource/Peat"}, 
{"score": 1.461633, "link": "http://dbpedia.org/resource/R.E.M."}, 
{"score": 1.460434, "link": "http://dbpedia.org/resource/Sheriff"}, 
{"score": 1.458635, "link": "http://dbpedia.org/resource/Great_Dane"}, 
{"score": 1.457739, "link": "http://dbpedia.org/resource/MTV"}, 
{"score": 1.457591, "link": "http://dbpedia.org/resource/Empire_State_Building"}, 
{"score": 1.454490, "link": "http://dbpedia.org/resource/Bronze"}, 
{"score": 1.450501, "link": "http://dbpedia.org/resource/Pizza"}, 
{"score": 1.449630, "link": "http://dbpedia.org/resource/Only_Fools_and_Horses"}, 
{"score": 1.447952, "link": "http://dbpedia.org/resource/The_Beatles"}, 
{"score": 1.447338, "link": "http://dbpedia.org/resource/Stan_Lynch"}, 
{"score": 1.447220, "link": "http://dbpedia.org/resource/Drug_overdose"}, 
{"score": 1.442420, "link": "http://dbpedia.org/resource/Trout"}, 
{"score": 1.441839, "link": "http://dbpedia.org/resource/Sleepover"}, 
{"score": 1.440980, "link": "http://dbpedia.org/resource/Bloc_Party"}, 
{"score": 1.439545, "link": "http://dbpedia.org/resource/Cypress_Hill"}, 
{"score": 1.439531, "link": "http://dbpedia.org/resource/Softball"}, 
{"score": 1.439066, "link": "http://dbpedia.org/resource/Ninja_Tune"}, 
{"score": 1.438135, "link": "http://dbpedia.org/resource/La_Roux"}, 
{"score": 1.436967, "link": "http://dbpedia.org/resource/Nick_Cave_and_the_Bad_Seeds"}, 
{"score": 1.435752, "link": "http://dbpedia.org/resource/Belinda_Carlisle"}, 
{"score": 1.435725, "link": "http://dbpedia.org/resource/The_Who"}, 
{"score": 1.434583, "link": "http://dbpedia.org/resource/Playing_card"}, 
{"score": 1.433772, "link": "http://dbpedia.org/resource/Karaoke"}, 
{"score": 1.433456, "link": "http://dbpedia.org/resource/Lynyrd_Skynyrd"}, 
{"score": 1.433275, "link": "http://dbpedia.org/resource/Drummer"}, 
{"score": 1.432463, "link": "http://dbpedia.org/resource/Mummy"}, 
{"score": 1.432238, "link": "http://dbpedia.org/resource/BBC_Television"}, 
{"score": 1.431487, "link": "http://dbpedia.org/resource/Powys"}, 
{"score": 1.429441, "link": "http://dbpedia.org/resource/Cigarette"}, 
{"score": 1.428891, "link": "http://dbpedia.org/resource/Haitian_Vodou"}, 
{"score": 1.428238, "link": "http://dbpedia.org/resource/Statue_of_Liberty"}, 
{"score": 1.428055, "link": "http://dbpedia.org/resource/Anime"}, 
{"score": 1.427868, "link": "http://dbpedia.org/resource/Johann_Sebastian_Bach"}, 
{"score": 1.427719, "link": "http://dbpedia.org/resource/Concussion"}, 
{"score": 1.426941, "link": "http://dbpedia.org/resource/Dinghy"}, 
{"score": 1.426469, "link": "http://dbpedia.org/resource/Sweet_potato"}, 
{"score": 1.425924, "link": "http://dbpedia.org/resource/Beachcombing"}, 
{"score": 1.424599, "link": "http://dbpedia.org/resource/Tuna"}, 
{"score": 1.424038, "link": "http://dbpedia.org/resource/Drum"}, 
{"score": 1.423832, "link": "http://dbpedia.org/resource/Jonas_Brothers"}, 
{"score": 1.423820, "link": "http://dbpedia.org/resource/Autopsy"}, 
{"score": 1.423136, "link": "http://dbpedia.org/resource/Harmonica"}, 
{"score": 1.423048, "link": "http://dbpedia.org/resource/Prophet"}, 
{"score": 1.421610, "link": "http://dbpedia.org/resource/Buddharupa"}, 
{"score": 1.421380, "link": "http://dbpedia.org/resource/Lamont_Dozier"}, 
{"score": 1.420405, "link": "http://dbpedia.org/resource/Duet"}, 
{"score": 1.419275, "link": "http://dbpedia.org/resource/Tank"}, 
{"score": 1.419069, "link": "http://dbpedia.org/resource/Spice_Girls"}, 
{"score": 1.418976, "link": "http://dbpedia.org/resource/Handbags_and_Gladrags"}, 
{"score": 1.418511, "link": "http://dbpedia.org/resource/The_Doors"}, 
{"score": 1.417376, "link": "http://dbpedia.org/resource/Discworld"}, 
{"score": 1.417342, "link": "http://dbpedia.org/resource/Radiohead"}, 
{"score": 1.416764, "link": "http://dbpedia.org/resource/Blackadder"}, 
{"score": 1.416568, "link": "http://dbpedia.org/resource/Sonic_Youth"}, 
{"score": 1.416039, "link": "http://dbpedia.org/resource/Burial"}, 
{"score": 1.415484, "link": "http://dbpedia.org/resource/Heaven"}, 
{"score": 1.414691, "link": "http://dbpedia.org/resource/Marylebone_Cricket_Club"}, 
{"score": 1.414493, "link": "http://dbpedia.org/resource/Rhinoceros"}, 
{"score": 1.413607, "link": "http://dbpedia.org/resource/Oregon_State_University"}, 
{"score": 1.413376, "link": "http://dbpedia.org/resource/The_Black_Keys"}, 
{"score": 1.413357, "link": "http://dbpedia.org/resource/Little_Feat"}, 
{"score": 1.412926, "link": "http://dbpedia.org/resource/Blink-182"}, 
{"score": 1.412439, "link": "http://dbpedia.org/resource/Armageddon"}, 
{"score": 1.411829, "link": "http://dbpedia.org/resource/Day_Tripper"}, 
{"score": 1.410192, "link": "http://dbpedia.org/resource/Book_of_Genesis"}, 
{"score": 1.410063, "link": "http://dbpedia.org/resource/Simon_&_Garfunkel"}, 
{"score": 1.409795, "link": "http://dbpedia.org/resource/Shy_FX"}, 
{"score": 1.409074, "link": "http://dbpedia.org/resource/The_Rolling_Stones"}, 
{"score": 1.408789, "link": "http://dbpedia.org/resource/Acoustic_guitar"}, 
{"score": 1.408586, "link": "http://dbpedia.org/resource/Xylophone"}, 
{"score": 1.408475, "link": "http://dbpedia.org/resource/Xbox_360"}, 
{"score": 1.407886, "link": "http://dbpedia.org/resource/Great_Depression"}, 
{"score": 1.406889, "link": "http://dbpedia.org/resource/Cover_version"}, 
{"score": 1.406743, "link": "http://dbpedia.org/resource/Mixtape"}, 
{"score": 1.406139, "link": "http://dbpedia.org/resource/Exotic_dancer"}, 
{"score": 1.405902, "link": "http://dbpedia.org/resource/Concrete"}, 
{"score": 1.405435, "link": "http://dbpedia.org/resource/Duran_Duran"}, 
{"score": 1.405294, "link": "http://dbpedia.org/resource/Frankenstein"}, 
{"score": 1.405084, "link": "http://dbpedia.org/resource/Television_advertisement"}, 
{"score": 1.405054, "link": "http://dbpedia.org/resource/Lip_sync"}, 
{"score": 1.404638, "link": "http://dbpedia.org/resource/Beat_the_Clock"}, 
{"score": 1.404226, "link": "http://dbpedia.org/resource/Toyota"}, 
{"score": 1.403877, "link": "http://dbpedia.org/resource/MC5"}, 
{"score": 1.403550, "link": "http://dbpedia.org/resource/EastEnders"}, 
{"score": 1.403039, "link": "http://dbpedia.org/resource/Pet_Shop_Boys"}, 
{"score": 1.402704, "link": "http://dbpedia.org/resource/Gym_Class_Heroes"}, 
{"score": 1.402672, "link": "http://dbpedia.org/resource/Fox"}, 
{"score": 1.402266, "link": "http://dbpedia.org/resource/Elephant"}, 
{"score": 1.401365, "link": "http://dbpedia.org/resource/The_Clash"}, 
{"score": 1.401214, "link": "http://dbpedia.org/resource/Court"}, 
{"score": 1.401206, "link": "http://dbpedia.org/resource/World_Heritage_Site"}, 
{"score": 1.399267, "link": "http://dbpedia.org/resource/Hawkwind"}, 
{"score": 1.399152, "link": "http://dbpedia.org/resource/Lobster"}, 
{"score": 1.398791, "link": "http://dbpedia.org/resource/Bronze_Age"}, 
{"score": 1.398556, "link": "http://dbpedia.org/resource/The_Monkees"}, 
{"score": 1.398336, "link": "http://dbpedia.org/resource/Derby_County_F.C."}, 
{"score": 1.397700, "link": "http://dbpedia.org/resource/Christmas_Eve"}, 
{"score": 1.396702, "link": "http://dbpedia.org/resource/Sepultura"}, 
{"score": 1.396278, "link": "http://dbpedia.org/resource/Pharaoh"}, 
{"score": 1.395685, "link": "http://dbpedia.org/resource/Magistrate"}, 
{"score": 1.395672, "link": "http://dbpedia.org/resource/Boy"}, 
{"score": 1.395542, "link": "http://dbpedia.org/resource/Time_Lord"}, 
{"score": 1.395229, "link": "http://dbpedia.org/resource/Beady_Eye"}, 
{"score": 1.395129, "link": "http://dbpedia.org/resource/Carthage"}, 
{"score": 1.394952, "link": "http://dbpedia.org/resource/Robot"}, 
{"score": 1.394948, "link": "http://dbpedia.org/resource/Stoke_City_F.C."}, 
{"score": 1.394824, "link": "http://dbpedia.org/resource/Tiger"}, 
{"score": 1.394708, "link": "http://dbpedia.org/resource/Notts_County_F.C."}, 
{"score": 1.394165, "link": "http://dbpedia.org/resource/Cowboy"}, 
{"score": 1.393929, "link": "http://dbpedia.org/resource/Judge"}, 
{"score": 1.393891, "link": "http://dbpedia.org/resource/Central_Park"}, 
{"score": 1.393877, "link": "http://dbpedia.org/resource/The_Da_Vinci_Code"}, 
{"score": 1.393344, "link": "http://dbpedia.org/resource/Millwall_F.C."}, 
{"score": 1.393220, "link": "http://dbpedia.org/resource/Tongue"}, 
{"score": 1.392465, "link": "http://dbpedia.org/resource/Big_Audio_Dynamite"}, 
{"score": 1.392443, "link": "http://dbpedia.org/resource/U2"}, 
{"score": 1.392217, "link": "http://dbpedia.org/resource/Banjo"}, 
{"score": 1.392120, "link": "http://dbpedia.org/resource/Karma"}, 
{"score": 1.392118, "link": "http://dbpedia.org/resource/Chroma_key"}, 
{"score": 1.391947, "link": "http://dbpedia.org/resource/Lara_Croft"}, 
{"score": 1.391487, "link": "http://dbpedia.org/resource/Justice"}, 
{"score": 1.391235, "link": "http://dbpedia.org/resource/Floppy_disk"}, 
{"score": 1.391172, "link": "http://dbpedia.org/resource/Basement_Jaxx"}, 
{"score": 1.390790, "link": "http://dbpedia.org/resource/Country_music"}, 
{"score": 1.390003, "link": "http://dbpedia.org/resource/Mark_Fowler"}, 
{"score": 1.389942, "link": "http://dbpedia.org/resource/Dalek"}, 
{"score": 1.389847, "link": "http://dbpedia.org/resource/Happy_Days"}, 
{"score": 1.389398, "link": "http://dbpedia.org/resource/Bon_Jovi"}, 
{"score": 1.389268, "link": "http://dbpedia.org/resource/BBC_Two"}, 
{"score": 1.389193, "link": "http://dbpedia.org/resource/Suicide"}, 
{"score": 1.388636, "link": "http://dbpedia.org/resource/Rock_and_roll"}, 
{"score": 1.388422, "link": "http://dbpedia.org/resource/Asparagus"}, 
{"score": 1.387441, "link": "http://dbpedia.org/resource/Ganges"}, 
{"score": 1.387255, "link": "http://dbpedia.org/resource/Middlesex"}, 
{"score": 1.387129, "link": "http://dbpedia.org/resource/Relic"}, 
{"score": 1.386995, "link": "http://dbpedia.org/resource/Gout"}, 
{"score": 1.386687, "link": "http://dbpedia.org/resource/Shrine"}, 
{"score": 1.386426, "link": "http://dbpedia.org/resource/Sharpeville_massacre"}, 
{"score": 1.386402, "link": "http://dbpedia.org/resource/Surfing"}, 
{"score": 1.385884, "link": "http://dbpedia.org/resource/Wilderness"}, 
{"score": 1.385632, "link": "http://dbpedia.org/resource/BBC_Online"}, 
{"score": 1.385514, "link": "http://dbpedia.org/resource/Boy_band"}, 
{"score": 1.385473, "link": "http://dbpedia.org/resource/Sound_recording_and_reproduction"}, 
{"score": 1.385370, "link": "http://dbpedia.org/resource/Satan"}, 
{"score": 1.385100, "link": "http://dbpedia.org/resource/Connemara"}, 
{"score": 1.385049, "link": "http://dbpedia.org/resource/Soundtrack"}, 
{"score": 1.384913, "link": "http://dbpedia.org/resource/Peggy_Mitchell"}, 
{"score": 1.384887, "link": "http://dbpedia.org/resource/Dragon"}, 
{"score": 1.383879, "link": "http://dbpedia.org/resource/The_Guardian"}, 
{"score": 1.382977, "link": "http://dbpedia.org/resource/Audio_engineering"}, 
{"score": 1.382814, "link": "http://dbpedia.org/resource/Fishing"}, 
{"score": 1.382647, "link": "http://dbpedia.org/resource/Murder"}, 
{"score": 1.381715, "link": "http://dbpedia.org/resource/Virginity"}, 
{"score": 1.381601, "link": "http://dbpedia.org/resource/Let_It_Bleed"}, 
{"score": 1.381488, "link": "http://dbpedia.org/resource/Parody"}, 
{"score": 1.381203, "link": "http://dbpedia.org/resource/Picnic"}, 
{"score": 1.380875, "link": "http://dbpedia.org/resource/Game_show"}, 
{"score": 1.380445, "link": "http://dbpedia.org/resource/Shoplifting"}, 
{"score": 1.380256, "link": "http://dbpedia.org/resource/Ashram"}, 
{"score": 1.379979, "link": "http://dbpedia.org/resource/Bill_Monroe"}, 
{"score": 1.379623, "link": "http://dbpedia.org/resource/Faithless"}, 
{"score": 1.379365, "link": "http://dbpedia.org/resource/The_Pogues"}, 
{"score": 1.379299, "link": "http://dbpedia.org/resource/Tuscany"}, 
{"score": 1.379251, "link": "http://dbpedia.org/resource/Shopping_mall"}, 
{"score": 1.378320, "link": "http://dbpedia.org/resource/Zombie"}, 
{"score": 1.378238, "link": "http://dbpedia.org/resource/The_Big_Bang_Theory"}, 
{"score": 1.377358, "link": "http://dbpedia.org/resource/Jerry_Leiber_and_Mike_Stoller"}, 
{"score": 1.376809, "link": "http://dbpedia.org/resource/Canal"}, 
{"score": 1.376566, "link": "http://dbpedia.org/resource/EverQuest"}, 
{"score": 1.376536, "link": "http://dbpedia.org/resource/Comic_book"}, 
{"score": 1.375220, "link": "http://dbpedia.org/resource/Rice"}, 
{"score": 1.374158, "link": "http://dbpedia.org/resource/Fire"}, 
{"score": 1.373956, "link": "http://dbpedia.org/resource/Mobile_phone"}, 
{"score": 1.373798, "link": "http://dbpedia.org/resource/Chess"}, 
{"score": 1.373727, "link": "http://dbpedia.org/resource/NOFX"}, 
{"score": 1.373488, "link": "http://dbpedia.org/resource/Village"}, 
{"score": 1.373436, "link": "http://dbpedia.org/resource/Bible"}, 
{"score": 1.373105, "link": "http://dbpedia.org/resource/Bouzouki"}, 
{"score": 1.372959, "link": "http://dbpedia.org/resource/10cc"}, 
{"score": 1.372608, "link": "http://dbpedia.org/resource/Punk_rock"}, 
{"score": 1.372607, "link": "http://dbpedia.org/resource/Synthesizer"}, 
{"score": 1.372591, "link": "http://dbpedia.org/resource/Nostalgia"}, 
{"score": 1.372501, "link": "http://dbpedia.org/resource/The_Daily_Telegraph"}, 
{"score": 1.372487, "link": "http://dbpedia.org/resource/Thin_Lizzy"}, 
{"score": 1.372461, "link": "http://dbpedia.org/resource/Spring_break"}, 
{"score": 1.372258, "link": "http://dbpedia.org/resource/Wembley_Stadium"}, 
{"score": 1.372196, "link": "http://dbpedia.org/resource/Ipswich_Town_F.C."}, 
{"score": 1.371943, "link": "http://dbpedia.org/resource/Repentance"}, 
{"score": 1.371591, "link": "http://dbpedia.org/resource/Hajj"}, 
{"score": 1.371342, "link": "http://dbpedia.org/resource/Hell"}, 
{"score": 1.371217, "link": "http://dbpedia.org/resource/Cartoon"}, 
{"score": 1.370928, "link": "http://dbpedia.org/resource/Pussycat_Dolls"}, 
{"score": 1.370586, "link": "http://dbpedia.org/resource/Source_code"}, 
{"score": 1.369830, "link": "http://dbpedia.org/resource/Black_Sabbath"}, 
{"score": 1.369330, "link": "http://dbpedia.org/resource/Meditation"}, 
{"score": 1.369008, "link": "http://dbpedia.org/resource/Bullying"}, 
{"score": 1.368874, "link": "http://dbpedia.org/resource/Celtic_F.C."}, 
{"score": 1.368803, "link": "http://dbpedia.org/resource/Cricket"}, 
{"score": 1.368580, "link": "http://dbpedia.org/resource/Abbey_Road_Studios"}, 
{"score": 1.368172, "link": "http://dbpedia.org/resource/Fleetwood_Mac"}, 
{"score": 1.368134, "link": "http://dbpedia.org/resource/African_American"}, 
{"score": 1.367765, "link": "http://dbpedia.org/resource/English_Heritage"}, 
{"score": 1.367710, "link": "http://dbpedia.org/resource/The_Shadows"}, 
{"score": 1.367592, "link": "http://dbpedia.org/resource/Dire_Straits"}, 
{"score": 1.367286, "link": "http://dbpedia.org/resource/Multitrack_recording"}, 
{"score": 1.366851, "link": "http://dbpedia.org/resource/Gangsta_rap"}, 
{"score": 1.365991, "link": "http://dbpedia.org/resource/Christmas_tree"}, 
{"score": 1.365920, "link": "http://dbpedia.org/resource/Tourist_attraction"}, 
{"score": 1.365159, "link": "http://dbpedia.org/resource/Primal_Scream"}, 
{"score": 1.365127, "link": "http://dbpedia.org/resource/Starvation"}, 
{"score": 1.364492, "link": "http://dbpedia.org/resource/San_Francisco_49ers"}, 
{"score": 1.364467, "link": "http://dbpedia.org/resource/Deer"}, 
{"score": 1.364433, "link": "http://dbpedia.org/resource/The_Killers"}, 
{"score": 1.364076, "link": "http://dbpedia.org/resource/Airport"}, 
{"score": 1.363772, "link": "http://dbpedia.org/resource/Pseudonym"}, 
{"score": 1.363560, "link": "http://dbpedia.org/resource/Hard_rock"}, 
{"score": 1.363351, "link": "http://dbpedia.org/resource/Disco"}, 
{"score": 1.363218, "link": "http://dbpedia.org/resource/The_Jackson_5"}, 
{"score": 1.362874, "link": "http://dbpedia.org/resource/Community"}, 
{"score": 1.362569, "link": "http://dbpedia.org/resource/Lake"}, 
{"score": 1.362031, "link": "http://dbpedia.org/resource/Puzzle"}, 
{"score": 1.361123, "link": "http://dbpedia.org/resource/Landlord"}, 
{"score": 1.360995, "link": "http://dbpedia.org/resource/Gorillaz"}, 
{"score": 1.360922, "link": "http://dbpedia.org/resource/Credit_card"}, 
{"score": 1.360716, "link": "http://dbpedia.org/resource/Mandolin"}, 
{"score": 1.360677, "link": "http://dbpedia.org/resource/Hippie"}, 
{"score": 1.360619, "link": "http://dbpedia.org/resource/Insanity"}, 
{"score": 1.360463, "link": "http://dbpedia.org/resource/Father"}, 
{"score": 1.360254, "link": "http://dbpedia.org/resource/Sugar_beet"}, 
{"score": 1.359968, "link": "http://dbpedia.org/resource/Northumberland"}, 
{"score": 1.359586, "link": "http://dbpedia.org/resource/Brain_tumor"}, 
{"score": 1.359274, "link": "http://dbpedia.org/resource/Pompeii"}, 
{"score": 1.359270, "link": "http://dbpedia.org/resource/Steve_Miller_Band"}, 
{"score": 1.359239, "link": "http://dbpedia.org/resource/The_Script"}, 
{"score": 1.358613, "link": "http://dbpedia.org/resource/Banyan"}, 
{"score": 1.358202, "link": "http://dbpedia.org/resource/Cod"}, 
{"score": 1.358054, "link": "http://dbpedia.org/resource/Westminster_Abbey"}, 
{"score": 1.357991, "link": "http://dbpedia.org/resource/Dodo"}, 
{"score": 1.357675, "link": "http://dbpedia.org/resource/OK_Go"}, 
{"score": 1.357639, "link": "http://dbpedia.org/resource/Irish_people"}, 
{"score": 1.357279, "link": "http://dbpedia.org/resource/The_Lemonheads"}, 
{"score": 1.356909, "link": "http://dbpedia.org/resource/Casino"}, 
{"score": 1.356804, "link": "http://dbpedia.org/resource/Chase_&_Status"}, 
{"score": 1.356306, "link": "http://dbpedia.org/resource/Dog"}, 
{"score": 1.356105, "link": "http://dbpedia.org/resource/The_Police"}, 
{"score": 1.355649, "link": "http://dbpedia.org/resource/Train"}, 
{"score": 1.355551, "link": "http://dbpedia.org/resource/Funeral"}, 
{"score": 1.354991, "link": "http://dbpedia.org/resource/Leeds_United_A.F.C."}, 
{"score": 1.354192, "link": "http://dbpedia.org/resource/Good_Friday"}, 
{"score": 1.354096, "link": "http://dbpedia.org/resource/The_Wanted"}, 
{"score": 1.354043, "link": "http://dbpedia.org/resource/Arson"}, 
{"score": 1.354040, "link": "http://dbpedia.org/resource/Easter"}, 
{"score": 1.353867, "link": "http://dbpedia.org/resource/Man_Booker_Prize"}, 
{"score": 1.353759, "link": "http://dbpedia.org/resource/BBC_Three"}, 
{"score": 1.353599, "link": "http://dbpedia.org/resource/Rise_Against"}, 
{"score": 1.353254, "link": "http://dbpedia.org/resource/Sheffield_United_F.C."}, 
{"score": 1.352862, "link": "http://dbpedia.org/resource/Everglades"}, 
{"score": 1.352633, "link": "http://dbpedia.org/resource/Queens_of_the_Stone_Age"}, 
{"score": 1.352411, "link": "http://dbpedia.org/resource/Overweight"}, 
{"score": 1.352185, "link": "http://dbpedia.org/resource/Culture_Club"}, 
{"score": 1.352106, "link": "http://dbpedia.org/resource/BBC_Radio_4"}, 
{"score": 1.351744, "link": "http://dbpedia.org/resource/Peak_District"}, 
{"score": 1.351473, "link": "http://dbpedia.org/resource/Christianity"}, 
{"score": 1.351332, "link": "http://dbpedia.org/resource/The_Smashing_Pumpkins"}, 
{"score": 1.351273, "link": "http://dbpedia.org/resource/Taoism"}, 
{"score": 1.350040, "link": "http://dbpedia.org/resource/The_Sopranos"}, 
{"score": 1.349987, "link": "http://dbpedia.org/resource/Home_computer"}, 
{"score": 1.349910, "link": "http://dbpedia.org/resource/Stone_Age"}, 
{"score": 1.349882, "link": "http://dbpedia.org/resource/Shark"}, 
{"score": 1.349492, "link": "http://dbpedia.org/resource/Food_Network"}, 
{"score": 1.349278, "link": "http://dbpedia.org/resource/The_Andrews_Sisters"}, 
{"score": 1.349277, "link": "http://dbpedia.org/resource/Rocky_Mountains"}, 
{"score": 1.349098, "link": "http://dbpedia.org/resource/Temple"}, 
{"score": 1.348945, "link": "http://dbpedia.org/resource/Leicester_City_F.C."}, 
{"score": 1.348779, "link": "http://dbpedia.org/resource/Tomboy"}, 
{"score": 1.348526, "link": "http://dbpedia.org/resource/Peach"}, 
{"score": 1.348508, "link": "http://dbpedia.org/resource/Paleolithic"}, 
{"score": 1.348478, "link": "http://dbpedia.org/resource/Robin_Hood"}, 
{"score": 1.347785, "link": "http://dbpedia.org/resource/Hamburger"}, 
{"score": 1.347094, "link": "http://dbpedia.org/resource/Motorcycle"}, 
{"score": 1.347091, "link": "http://dbpedia.org/resource/General_Motors"}, 
{"score": 1.347084, "link": "http://dbpedia.org/resource/Injunction"}, 
{"score": 1.346911, "link": "http://dbpedia.org/resource/Celebrity"}, 
{"score": 1.346726, "link": "http://dbpedia.org/resource/Lake_District"}, 
{"score": 1.346676, "link": "http://dbpedia.org/resource/Big_Bang"}, 
{"score": 1.346501, "link": "http://dbpedia.org/resource/The_Voyage_of_the_Dawn_Treader"}, 
{"score": 1.346356, "link": "http://dbpedia.org/resource/Rapping"}, 
{"score": 1.346154, "link": "http://dbpedia.org/resource/Miracle"}, 
{"score": 1.345916, "link": "http://dbpedia.org/resource/Hummer"}, 
{"score": 1.345571, "link": "http://dbpedia.org/resource/Child"}, 
{"score": 1.345223, "link": "http://dbpedia.org/resource/Flamenco"}, 
{"score": 1.345157, "link": "http://dbpedia.org/resource/Crookers"}, 
{"score": 1.344889, "link": "http://dbpedia.org/resource/The_Carpenters"}, 
{"score": 1.344749, "link": "http://dbpedia.org/resource/Magna_Carta"}, 
{"score": 1.344553, "link": "http://dbpedia.org/resource/Duel"}, 
{"score": 1.344368, "link": "http://dbpedia.org/resource/Basketball"}, 
{"score": 1.344261, "link": "http://dbpedia.org/resource/Sake"}, 
{"score": 1.344229, "link": "http://dbpedia.org/resource/Vampire"}, 
{"score": 1.343887, "link": "http://dbpedia.org/resource/Zoey_101"}, 
{"score": 1.343672, "link": "http://dbpedia.org/resource/General_election"}, 
{"score": 1.343497, "link": "http://dbpedia.org/resource/National_Football_League"}, 
{"score": 1.343377, "link": "http://dbpedia.org/resource/Turtle"}, 
{"score": 1.343351, "link": "http://dbpedia.org/resource/Premier_League"}, 
{"score": 1.343324, "link": "http://dbpedia.org/resource/Guinness_World_Records"}, 
{"score": 1.342674, "link": "http://dbpedia.org/resource/Blue_Suede_Shoes"}, 
{"score": 1.342656, "link": "http://dbpedia.org/resource/Graduation"}, 
{"score": 1.342566, "link": "http://dbpedia.org/resource/Krishna"}, 
{"score": 1.342566, "link": "http://dbpedia.org/resource/Lead_guitar"}, 
{"score": 1.342529, "link": "http://dbpedia.org/resource/Valhalla"}, 
{"score": 1.342180, "link": "http://dbpedia.org/resource/Superstition"}, 
{"score": 1.341879, "link": "http://dbpedia.org/resource/Boyzone"}, 
{"score": 1.341400, "link": "http://dbpedia.org/resource/Chocolate"}, 
{"score": 1.341151, "link": "http://dbpedia.org/resource/Time_travel"}, 
{"score": 1.341012, "link": "http://dbpedia.org/resource/The_Stooges"}, 
{"score": 1.339761, "link": "http://dbpedia.org/resource/Revenge"}, 
{"score": 1.339758, "link": "http://dbpedia.org/resource/Cardiff_City_F.C."}, 
{"score": 1.339656, "link": "http://dbpedia.org/resource/Iron_Maiden"}, 
{"score": 1.339549, "link": "http://dbpedia.org/resource/Backpack"}, 
{"score": 1.339452, "link": "http://dbpedia.org/resource/Telepathy"}, 
{"score": 1.339363, "link": "http://dbpedia.org/resource/American_Old_West"}, 
{"score": 1.339206, "link": "http://dbpedia.org/resource/Pearl_Jam"}, 
{"score": 1.339137, "link": "http://dbpedia.org/resource/Monster"}, 
{"score": 1.339041, "link": "http://dbpedia.org/resource/The_Saturdays"}, 
{"score": 1.338689, "link": "http://dbpedia.org/resource/The_Flaming_Lips"}, 
{"score": 1.338597, "link": "http://dbpedia.org/resource/Deftones"}, 
{"score": 1.338593, "link": "http://dbpedia.org/resource/The_Beautiful_South"}, 
{"score": 1.338579, "link": "http://dbpedia.org/resource/IPhone"}, 
{"score": 1.338377, "link": "http://dbpedia.org/resource/Bob_Marley_&_The_Wailers"}, 
{"score": 1.338103, "link": "http://dbpedia.org/resource/Monarch"}, 
{"score": 1.338075, "link": "http://dbpedia.org/resource/Nature"}, 
{"score": 1.338045, "link": "http://dbpedia.org/resource/Frank_Butcher"}, 
{"score": 1.337768, "link": "http://dbpedia.org/resource/Mesopotamia"}, 
{"score": 1.337438, "link": "http://dbpedia.org/resource/Prophecy"}, 
{"score": 1.337377, "link": "http://dbpedia.org/resource/Mining"}, 
{"score": 1.337342, "link": "http://dbpedia.org/resource/Racial_segregation_in_the_United_States"}, 
{"score": 1.337160, "link": "http://dbpedia.org/resource/Trouble_Funk"}, 
{"score": 1.336972, "link": "http://dbpedia.org/resource/Rabbit"}, 
{"score": 1.336816, "link": "http://dbpedia.org/resource/Don_Quixote"}, 
{"score": 1.336708, "link": "http://dbpedia.org/resource/Driving_under_the_influence"}, 
{"score": 1.336661, "link": "http://dbpedia.org/resource/Modest_Mouse"}, 
{"score": 1.336419, "link": "http://dbpedia.org/resource/Prayer"}, 
{"score": 1.336309, "link": "http://dbpedia.org/resource/Aristophanes"}, 
{"score": 1.336047, "link": "http://dbpedia.org/resource/Animation"}, 
{"score": 1.336045, "link": "http://dbpedia.org/resource/Massive_Attack"}, 
{"score": 1.335970, "link": "http://dbpedia.org/resource/Wiltshire"}, 
{"score": 1.335558, "link": "http://dbpedia.org/resource/Tanning"}, 
{"score": 1.335197, "link": "http://dbpedia.org/resource/Bat"}, 
{"score": 1.335134, "link": "http://dbpedia.org/resource/Goddess"}, 
{"score": 1.335009, "link": "http://dbpedia.org/resource/Eiffel_Tower"}, 
{"score": 1.334820, "link": "http://dbpedia.org/resource/Christian"}, 
{"score": 1.334760, "link": "http://dbpedia.org/resource/Garden_of_Eden"}, 
{"score": 1.334623, "link": "http://dbpedia.org/resource/Tarantula"}, 
{"score": 1.334351, "link": "http://dbpedia.org/resource/Reincarnation"}, 
{"score": 1.334184, "link": "http://dbpedia.org/resource/Baptism"}, 
{"score": 1.333742, "link": "http://dbpedia.org/resource/Akhenaten"}, 
{"score": 1.333622, "link": "http://dbpedia.org/resource/LCD_Soundsystem"}, 
{"score": 1.333320, "link": "http://dbpedia.org/resource/Guys_and_Dolls"}, 
{"score": 1.333110, "link": "http://dbpedia.org/resource/Roll_Deep"}, 
{"score": 1.332946, "link": "http://dbpedia.org/resource/Organized_crime"}, 
{"score": 1.332852, "link": "http://dbpedia.org/resource/Record_chart"}, 
{"score": 1.332762, "link": "http://dbpedia.org/resource/Oxford_University_Press"}, 
{"score": 1.332580, "link": "http://dbpedia.org/resource/Cello"}, 
{"score": 1.332255, "link": "http://dbpedia.org/resource/Guru"}, 
{"score": 1.332202, "link": "http://dbpedia.org/resource/Existence_of_God"}, 
{"score": 1.332193, "link": "http://dbpedia.org/resource/Nativity_scene"}, 
{"score": 1.332174, "link": "http://dbpedia.org/resource/Avant-garde"}, 
{"score": 1.331721, "link": "http://dbpedia.org/resource/Crossword"}, 
{"score": 1.331665, "link": "http://dbpedia.org/resource/The_Waterboys"}, 
{"score": 1.331489, "link": "http://dbpedia.org/resource/Common_Wood_Pigeon"}, 
{"score": 1.331477, "link": "http://dbpedia.org/resource/BBC_One"}, 
{"score": 1.331418, "link": "http://dbpedia.org/resource/Viral_video"}, 
{"score": 1.331360, "link": "http://dbpedia.org/resource/Jack_Benny"}, 
{"score": 1.331356, "link": "http://dbpedia.org/resource/McFly"}, 
{"score": 1.331141, "link": "http://dbpedia.org/resource/Cheddar_cheese"}, 
{"score": 1.330703, "link": "http://dbpedia.org/resource/The_Rise_and_Fall_of_Ziggy_Stardust_and_the_Spiders_from_Mars"}, 
{"score": 1.330579, "link": "http://dbpedia.org/resource/Poco"}, 
{"score": 1.330532, "link": "http://dbpedia.org/resource/Ellis_Island"}, 
{"score": 1.330512, "link": "http://dbpedia.org/resource/Grunge"}, 
{"score": 1.330403, "link": "http://dbpedia.org/resource/EBay"}, 
{"score": 1.330369, "link": "http://dbpedia.org/resource/Truth"}, 
{"score": 1.330233, "link": "http://dbpedia.org/resource/Soul"}, 
{"score": 1.330093, "link": "http://dbpedia.org/resource/Coyote"}, 
{"score": 1.329472, "link": "http://dbpedia.org/resource/Random_House"}, 
{"score": 1.329344, "link": "http://dbpedia.org/resource/Shropshire"}, 
{"score": 1.329248, "link": "http://dbpedia.org/resource/Bomb"}, 
{"score": 1.329058, "link": "http://dbpedia.org/resource/Eurythmics"}, 
{"score": 1.328917, "link": "http://dbpedia.org/resource/Channel_4"}, 
{"score": 1.328769, "link": "http://dbpedia.org/resource/Allah"}, 
{"score": 1.328748, "link": "http://dbpedia.org/resource/N-Dubz"}, 
{"score": 1.328618, "link": "http://dbpedia.org/resource/Victor_Feldman"}, 
{"score": 1.328351, "link": "http://dbpedia.org/resource/Emerson,_Lake_&_Palmer"}, 
{"score": 1.328311, "link": "http://dbpedia.org/resource/EMI"}, 
{"score": 1.328305, "link": "http://dbpedia.org/resource/Tomato"}, 
{"score": 1.328234, "link": "http://dbpedia.org/resource/The_Hold_Steady"}, 
{"score": 1.327939, "link": "http://dbpedia.org/resource/Flute"}, 
{"score": 1.327891, "link": "http://dbpedia.org/resource/Mojave_Desert"}, 
{"score": 1.327539, "link": "http://dbpedia.org/resource/Personal_computer_game"}, 
{"score": 1.327343, "link": "http://dbpedia.org/resource/Monmouthshire"}, 
{"score": 1.327281, "link": "http://dbpedia.org/resource/Bartender"}, 
{"score": 1.327236, "link": "http://dbpedia.org/resource/Albert_Square"}, 
{"score": 1.327181, "link": "http://dbpedia.org/resource/Beer"}, 
{"score": 1.326980, "link": "http://dbpedia.org/resource/Ceredigion"}, 
{"score": 1.326972, "link": "http://dbpedia.org/resource/Myocardial_infarction"}, 
{"score": 1.326936, "link": "http://dbpedia.org/resource/Estuary"}, 
{"score": 1.326534, "link": "http://dbpedia.org/resource/Windmill"}, 
{"score": 1.326527, "link": "http://dbpedia.org/resource/Manslaughter"}, 
{"score": 1.326439, "link": "http://dbpedia.org/resource/Minoan_civilization"}, 
{"score": 1.326428, "link": "http://dbpedia.org/resource/Grand_Canyon"}, 
{"score": 1.326318, "link": "http://dbpedia.org/resource/Non-fiction"}, 
{"score": 1.326293, "link": "http://dbpedia.org/resource/Utah_Saints"}, 
{"score": 1.326019, "link": "http://dbpedia.org/resource/The_Streets"}, 
{"score": 1.325819, "link": "http://dbpedia.org/resource/My_Chemical_Romance"}, 
{"score": 1.325778, "link": "http://dbpedia.org/resource/Slade"}, 
{"score": 1.325739, "link": "http://dbpedia.org/resource/Alcoholism"}, 
{"score": 1.325465, "link": "http://dbpedia.org/resource/The_Ashes"}, 
{"score": 1.325347, "link": "http://dbpedia.org/resource/House"}, 
{"score": 1.325280, "link": "http://dbpedia.org/resource/Border"}, 
{"score": 1.325228, "link": "http://dbpedia.org/resource/Pet"}, 
{"score": 1.325085, "link": "http://dbpedia.org/resource/Heroin"}, 
{"score": 1.324873, "link": "http://dbpedia.org/resource/Snake"}, 
{"score": 1.324420, "link": "http://dbpedia.org/resource/Demon"}, 
{"score": 1.324201, "link": "http://dbpedia.org/resource/Royal_Court_Theatre"}, 
{"score": 1.323971, "link": "http://dbpedia.org/resource/Hymn"}, 
{"score": 1.323351, "link": "http://dbpedia.org/resource/Doom_metal"}, 
{"score": 1.323181, "link": "http://dbpedia.org/resource/Kaiser_Chiefs"}, 
{"score": 1.323170, "link": "http://dbpedia.org/resource/Cave"}, 
{"score": 1.323092, "link": "http://dbpedia.org/resource/Ballad"}, 
{"score": 1.322851, "link": "http://dbpedia.org/resource/Sheffield_Wednesday_F.C."}, 
{"score": 1.322772, "link": "http://dbpedia.org/resource/John_Keats"}, 
{"score": 1.322728, "link": "http://dbpedia.org/resource/Monologue"}, 
{"score": 1.322496, "link": "http://dbpedia.org/resource/Onion"}, 
{"score": 1.321955, "link": "http://dbpedia.org/resource/Celts"}, 
{"score": 1.321824, "link": "http://dbpedia.org/resource/Black_metal"}, 
{"score": 1.321814, "link": "http://dbpedia.org/resource/Rose_Tyler"}, 
{"score": 1.321754, "link": "http://dbpedia.org/resource/Obesity"}, 
{"score": 1.321259, "link": "http://dbpedia.org/resource/Climbing"}, 
{"score": 1.320830, "link": "http://dbpedia.org/resource/Tutankhamun"}, 
{"score": 1.320617, "link": "http://dbpedia.org/resource/Herefordshire"}, 
{"score": 1.320424, "link": "http://dbpedia.org/resource/Treasurer"}, 
{"score": 1.320358, "link": "http://dbpedia.org/resource/Ice_age"}, 
{"score": 1.320342, "link": "http://dbpedia.org/resource/Kennedy_family"}, 
{"score": 1.319987, "link": "http://dbpedia.org/resource/Chef"}, 
{"score": 1.319766, "link": "http://dbpedia.org/resource/Unconsciousness"}, 
{"score": 1.319571, "link": "http://dbpedia.org/resource/The_Simpsons"}, 
{"score": 1.319509, "link": "http://dbpedia.org/resource/Pottery"}, 
{"score": 1.319465, "link": "http://dbpedia.org/resource/Detective"}, 
{"score": 1.319341, "link": "http://dbpedia.org/resource/Buzzcocks"}, 
{"score": 1.319142, "link": "http://dbpedia.org/resource/Looting"}, 
{"score": 1.319096, "link": "http://dbpedia.org/resource/Resurrection_of_Jesus"}, 
{"score": 1.318701, "link": "http://dbpedia.org/resource/Virtual_reality"}, 
{"score": 1.318662, "link": "http://dbpedia.org/resource/Hiking"}, 
{"score": 1.318657, "link": "http://dbpedia.org/resource/Soul_II_Soul"}, 
{"score": 1.318435, "link": "http://dbpedia.org/resource/I_Ching"}, 
{"score": 1.318410, "link": "http://dbpedia.org/resource/Omelette"}, 
{"score": 1.318343, "link": "http://dbpedia.org/resource/IPod"}, 
{"score": 1.318297, "link": "http://dbpedia.org/resource/The_Smiths"}, 
{"score": 1.318250, "link": "http://dbpedia.org/resource/Hunting"}, 
{"score": 1.318178, "link": "http://dbpedia.org/resource/Rugby_football"}, 
{"score": 1.318020, "link": "http://dbpedia.org/resource/Teletubbies"}, 
{"score": 1.317950, "link": "http://dbpedia.org/resource/Orphanage"}, 
{"score": 1.317728, "link": "http://dbpedia.org/resource/BBC_World_Service"}, 
{"score": 1.317703, "link": "http://dbpedia.org/resource/Potato"}, 
{"score": 1.317545, "link": "http://dbpedia.org/resource/TV_on_the_Radio"}, 
{"score": 1.317037, "link": "http://dbpedia.org/resource/Honey"}, 
{"score": 1.316952, "link": "http://dbpedia.org/resource/Annie_Mac"}, 
{"score": 1.316901, "link": "http://dbpedia.org/resource/Walford"}, 
{"score": 1.316874, "link": "http://dbpedia.org/resource/Viking"}, 
{"score": 1.316771, "link": "http://dbpedia.org/resource/Precognition"}, 
{"score": 1.316634, "link": "http://dbpedia.org/resource/Football_League_Cup"}, 
{"score": 1.316528, "link": "http://dbpedia.org/resource/Blackpool_F.C."}, 
{"score": 1.316509, "link": "http://dbpedia.org/resource/Divorce"}, 
{"score": 1.316423, "link": "http://dbpedia.org/resource/Panel_game"}, 
{"score": 1.316224, "link": "http://dbpedia.org/resource/Something"}, 
{"score": 1.316204, "link": "http://dbpedia.org/resource/The_Kinks"}, 
{"score": 1.316049, "link": "http://dbpedia.org/resource/Marble"}, 
{"score": 1.316047, "link": "http://dbpedia.org/resource/Police"}, 
{"score": 1.316008, "link": "http://dbpedia.org/resource/Food"}, 
{"score": 1.315145, "link": "http://dbpedia.org/resource/Benedictine"}, 
{"score": 1.314781, "link": "http://dbpedia.org/resource/Astrology"}, 
{"score": 1.314608, "link": "http://dbpedia.org/resource/Bed_and_breakfast"}, 
{"score": 1.314530, "link": "http://dbpedia.org/resource/Burglary"}, 
{"score": 1.314390, "link": "http://dbpedia.org/resource/Goat"}]
