[{"score": 0.000000, "link": "http://dbpedia.org/resource/Pakistan"}, 
{"score": 0.000000, "link": "http://dbpedia.org/resource/Park"}, 
{"score": 0.000000, "link": "http://dbpedia.org/resource/Parkour"}, 
{"score": 0.000000, "link": "http://dbpedia.org/resource/Penalty_kick"}, 
{"score": 0.000000, "link": "http://dbpedia.org/resource/Psychokinesis"}, 
{"score": 0.000000, "link": "http://dbpedia.org/resource/Golden_Eagle"}, 
{"score": 0.000000, "link": "http://dbpedia.org/resource/Anniversary"}, 
{"score": 0.000000, "link": "http://dbpedia.org/resource/Kuwait"}, 
{"score": 0.000000, "link": "http://dbpedia.org/resource/Thomas_Arne"}, 
{"score": 0.000000, "link": "http://dbpedia.org/resource/Judo"}, 
{"score": 0.000000, "link": "http://dbpedia.org/resource/Indianapolis"}, 
{"score": 0.000000, "link": "http://dbpedia.org/resource/India"}, 
{"score": 0.000000, "link": "http://dbpedia.org/resource/Indian_subcontinent"}, 
{"score": 0.000000, "link": "http://dbpedia.org/resource/Indiana"}, 
{"score": 0.000000, "link": "http://dbpedia.org/resource/Indonesia"}, 
{"score": 0.000000, "link": "http://dbpedia.org/resource/Republic_of_Ireland"}, 
{"score": 0.000000, "link": "http://dbpedia.org/resource/Hindu"}, 
{"score": 0.000000, "link": "http://dbpedia.org/resource/Natasha"}, 
{"score": 0.000000, "link": "http://dbpedia.org/resource/Natasha_Pyne"}, 
{"score": 0.000000, "link": "http://dbpedia.org/resource/Natasha_Little"}, 
{"score": 0.000000, "link": "http://dbpedia.org/resource/Natasha_Hamilton"}, 
{"score": 0.000000, "link": "http://dbpedia.org/resource/Natasha_Henstridge"}, 
{"score": 0.000000, "link": "http://dbpedia.org/resource/Kenya"}, 
{"score": 0.000000, "link": "http://dbpedia.org/resource/Kinetic_energy"}, 
{"score": 0.000000, "link": "http://dbpedia.org/resource/Able-bodied"}, 
{"score": 0.000000, "link": "http://dbpedia.org/resource/Albania"}, 
{"score": 0.000000, "link": "http://dbpedia.org/resource/%22Weird_Al%22_Yankovic"}, 
{"score": 0.000000, "link": "http://dbpedia.org/resource/Al_Pacino"}, 
{"score": 0.000000, "link": "http://dbpedia.org/resource/Al_Capone"}, 
{"score": 0.000000, "link": "http://dbpedia.org/resource/Al_Green"}, 
{"score": 0.000000, "link": "http://dbpedia.org/resource/Al_Gore"}, 
{"score": 0.000000, "link": "http://dbpedia.org/resource/Aluminium"}, 
{"score": 0.000000, "link": "http://dbpedia.org/resource/Abraham_Lincoln"}, 
{"score": 0.000000, "link": "http://dbpedia.org/resource/Alabama"}]
