[{"score": 0.000000, "link": "http://dbpedia.org/resource/Great_Britain"}, 
{"score": 0.000000, "link": "http://dbpedia.org/resource/Prehistoric_Britain"}, 
{"score": 0.000000, "link": "http://dbpedia.org/resource/Roman_Britain"}, 
{"score": 0.000000, "link": "http://dbpedia.org/resource/Colm_Meaney"}, 
{"score": 0.000000, "link": "http://dbpedia.org/resource/China"}, 
{"score": 0.000000, "link": "http://dbpedia.org/resource/Mainland_China"}, 
{"score": 0.000000, "link": "http://dbpedia.org/resource/Cypress_Hill"}, 
{"score": 0.000000, "link": "http://dbpedia.org/resource/Helicopter"}, 
{"score": 0.000000, "link": "http://dbpedia.org/resource/W_H_Smith"}, 
{"score": 0.000000, "link": "http://dbpedia.org/resource/Silversmith"}, 
{"score": 0.000000, "link": "http://dbpedia.org/resource/Goldsmith"}, 
{"score": 0.000000, "link": "http://dbpedia.org/resource/Blacksmith"}, 
{"score": 0.000000, "link": "http://dbpedia.org/resource/Jake_Arnott"}, 
{"score": 0.000000, "link": "http://dbpedia.org/resource/Allison_Janney"}]
