[{"score": 0.000000, "link": "http://dbpedia.org/resource/Great_Britain"}, 
{"score": 0.000000, "link": "http://dbpedia.org/resource/Prehistoric_Britain"}, 
{"score": 0.000000, "link": "http://dbpedia.org/resource/Roman_Britain"}, 
{"score": 0.000000, "link": "http://dbpedia.org/resource/Peterborough_United_F.C."}, 
{"score": 0.000000, "link": "http://dbpedia.org/resource/Leeds_United_A.F.C."}, 
{"score": 0.000000, "link": "http://dbpedia.org/resource/Hartlepool_United_F.C."}, 
{"score": 0.000000, "link": "http://dbpedia.org/resource/Dundee_United_F.C."}, 
{"score": 0.000000, "link": "http://dbpedia.org/resource/Manchester_United_F.C."}, 
{"score": 0.000000, "link": "http://dbpedia.org/resource/West_Ham_United_F.C."}, 
{"score": 0.000000, "link": "http://dbpedia.org/resource/Newcastle_United_F.C."}, 
{"score": 0.000000, "link": "http://dbpedia.org/resource/Sheffield_United_F.C."}, 
{"score": 0.000000, "link": "http://dbpedia.org/resource/Carlisle_United_F.C."}, 
{"score": 0.000000, "link": "http://dbpedia.org/resource/Scunthorpe_United_F.C."}, 
{"score": 0.000000, "link": "http://dbpedia.org/resource/George_W._Bush"}, 
{"score": 0.000000, "link": "http://dbpedia.org/resource/Weight"}, 
{"score": 0.000000, "link": "http://dbpedia.org/resource/Western_world"}, 
{"score": 0.000000, "link": "http://dbpedia.org/resource/Africa"}, 
{"score": 0.000000, "link": "http://dbpedia.org/resource/Bushcraft"}, 
{"score": 0.000000, "link": "http://dbpedia.org/resource/Shepherd's_Bush"}, 
{"score": 0.000000, "link": "http://dbpedia.org/resource/Roger_Federer"}, 
{"score": 0.000000, "link": "http://dbpedia.org/resource/Russia"}, 
{"score": 0.000000, "link": "http://dbpedia.org/resource/Rio_Ferdinand"}, 
{"score": 0.000000, "link": "http://dbpedia.org/resource/Rugby_union"}, 
{"score": 0.000000, "link": "http://dbpedia.org/resource/Russ_Abbot"}, 
{"score": 0.000000, "link": "http://dbpedia.org/resource/Liza_Minnelli"}, 
{"score": 0.000000, "link": "http://dbpedia.org/resource/Vincente_Minnelli"}, 
{"score": 0.000000, "link": "http://dbpedia.org/resource/Nevada"}, 
{"score": 0.000000, "link": "http://dbpedia.org/resource/Emilio_Estevez"}, 
{"score": 0.000000, "link": "http://dbpedia.org/resource/Northern_pike"}, 
{"score": 0.000000, "link": "http://dbpedia.org/resource/Republic_of_Ireland"}, 
{"score": 0.000000, "link": "http://dbpedia.org/resource/Ireland"}, 
{"score": 0.000000, "link": "http://dbpedia.org/resource/Northern_Ireland"}, 
{"score": 0.000000, "link": "http://dbpedia.org/resource/Ireland_national_rugby_union_team"}, 
{"score": 0.000000, "link": "http://dbpedia.org/resource/Kenny_Ireland"}, 
{"score": 0.000000, "link": "http://dbpedia.org/resource/John_Ireland_(actor)"}]
