[{"score": 0.000000, "link": "http://dbpedia.org/resource/Microphone"}, 
{"score": 0.000000, "link": "http://dbpedia.org/resource/Operation_Michael"}, 
{"score": 0.000000, "link": "http://dbpedia.org/resource/Michael_(archangel)"}, 
{"score": 0.000000, "link": "http://dbpedia.org/resource/Michael_II"}, 
{"score": 0.000000, "link": "http://dbpedia.org/resource/Michael_of_Romania"}, 
{"score": 0.000000, "link": "http://dbpedia.org/resource/Normans"}, 
{"score": 0.000000, "link": "http://dbpedia.org/resource/Alan_Bates"}, 
{"score": 0.000000, "link": "http://dbpedia.org/resource/Kathy_Bates"}, 
{"score": 0.000000, "link": "http://dbpedia.org/resource/H._E._Bates"}, 
{"score": 0.000000, "link": "http://dbpedia.org/resource/Nick_Rhodes"}, 
{"score": 0.000000, "link": "http://dbpedia.org/resource/Michael_Dobbs"}]
