[{"score": 0.000000, "link": "http://dbpedia.org/resource/Uganda"}, 
{"score": 0.000000, "link": "http://dbpedia.org/resource/University_of_Guelph"}, 
{"score": 0.000000, "link": "http://dbpedia.org/resource/Minnesota"}, 
{"score": 0.000000, "link": "http://dbpedia.org/resource/Manhattan"}, 
{"score": 0.000000, "link": "http://dbpedia.org/resource/Montenegro"}, 
{"score": 0.000000, "link": "http://dbpedia.org/resource/Monaco"}, 
{"score": 0.000000, "link": "http://dbpedia.org/resource/Mongolia"}, 
{"score": 0.000000, "link": "http://dbpedia.org/resource/Mantua"}, 
{"score": 0.000000, "link": "http://dbpedia.org/resource/Malta"}, 
{"score": 0.000000, "link": "http://dbpedia.org/resource/Massage"}, 
{"score": 0.000000, "link": "http://dbpedia.org/resource/Mountain"}, 
{"score": 0.000000, "link": "http://dbpedia.org/resource/Musical_theatre"}, 
{"score": 0.000000, "link": "http://dbpedia.org/resource/Montana"}, 
{"score": 0.000000, "link": "http://dbpedia.org/resource/Korea"}, 
{"score": 0.000000, "link": "http://dbpedia.org/resource/North_Korea"}, 
{"score": 0.000000, "link": "http://dbpedia.org/resource/South_Korea"}, 
{"score": 0.000000, "link": "http://dbpedia.org/resource/Greece"}, 
{"score": 0.000000, "link": "http://dbpedia.org/resource/General_relativity"}, 
{"score": 0.000000, "link": "http://dbpedia.org/resource/Ancient_Greece"}, 
{"score": 0.000000, "link": "http://dbpedia.org/resource/Kampala"}, 
{"score": 0.000000, "link": "http://dbpedia.org/resource/Kenya"}, 
{"score": 0.000000, "link": "http://dbpedia.org/resource/Kinetic_energy"}, 
{"score": 0.000000, "link": "http://dbpedia.org/resource/Robbery"}, 
{"score": 0.000000, "link": "http://dbpedia.org/resource/BBC_Radio_1"}, 
{"score": 0.000000, "link": "http://dbpedia.org/resource/Edith_Bowman"}, 
{"score": 0.000000, "link": "http://dbpedia.org/resource/Rob_Bowman_(filmmaker)"}, 
{"score": 0.000000, "link": "http://dbpedia.org/resource/Texas"}, 
{"score": 0.000000, "link": "http://dbpedia.org/resource/Texel"}, 
{"score": 0.000000, "link": "http://dbpedia.org/resource/Indianapolis"}, 
{"score": 0.000000, "link": "http://dbpedia.org/resource/India"}, 
{"score": 0.000000, "link": "http://dbpedia.org/resource/Indian_subcontinent"}, 
{"score": 0.000000, "link": "http://dbpedia.org/resource/Indiana"}, 
{"score": 0.000000, "link": "http://dbpedia.org/resource/Indonesia"}, 
{"score": 0.000000, "link": "http://dbpedia.org/resource/Republic_of_Ireland"}, 
{"score": 0.000000, "link": "http://dbpedia.org/resource/Hindu"}, 
{"score": 0.000000, "link": "http://dbpedia.org/resource/Bill_Clinton"}, 
{"score": 0.000000, "link": "http://dbpedia.org/resource/Hillary_Rodham_Clinton"}, 
{"score": 0.000000, "link": "http://dbpedia.org/resource/Ellis_Island"}, 
{"score": 0.000000, "link": "http://dbpedia.org/resource/Kerry_Ellis"}, 
{"score": 0.000000, "link": "http://dbpedia.org/resource/Janet_Ellis"}, 
{"score": 0.000000, "link": "http://dbpedia.org/resource/Tom_Ellis_(actor)"}, 
{"score": 0.000000, "link": "http://dbpedia.org/resource/Mary_Ellis"}, 
{"score": 0.000000, "link": "http://dbpedia.org/resource/Sophie_Ellis-Bextor"}, 
{"score": 0.000000, "link": "http://dbpedia.org/resource/Osian_Ellis"}, 
{"score": 0.000000, "link": "http://dbpedia.org/resource/Warren_Ellis_(musician)"}, 
{"score": 0.000000, "link": "http://dbpedia.org/resource/Vivian_Ellis"}, 
{"score": 0.000000, "link": "http://dbpedia.org/resource/Boston"}, 
{"score": 0.000000, "link": "http://dbpedia.org/resource/Bank_of_Scotland"}]
