[{"score": 0.000000, "link": "http://dbpedia.org/resource/Peterborough_United_F.C."}, 
{"score": 0.000000, "link": "http://dbpedia.org/resource/Leeds_United_A.F.C."}, 
{"score": 0.000000, "link": "http://dbpedia.org/resource/Hartlepool_United_F.C."}, 
{"score": 0.000000, "link": "http://dbpedia.org/resource/Dundee_United_F.C."}, 
{"score": 0.000000, "link": "http://dbpedia.org/resource/Manchester_United_F.C."}, 
{"score": 0.000000, "link": "http://dbpedia.org/resource/West_Ham_United_F.C."}, 
{"score": 0.000000, "link": "http://dbpedia.org/resource/Newcastle_United_F.C."}, 
{"score": 0.000000, "link": "http://dbpedia.org/resource/Sheffield_United_F.C."}, 
{"score": 0.000000, "link": "http://dbpedia.org/resource/Carlisle_United_F.C."}, 
{"score": 0.000000, "link": "http://dbpedia.org/resource/Scunthorpe_United_F.C."}, 
{"score": 0.000000, "link": "http://dbpedia.org/resource/Isambard_Kingdom_Brunel"}, 
{"score": 0.000000, "link": "http://dbpedia.org/resource/Multiple_sclerosis"}, 
{"score": 0.000000, "link": "http://dbpedia.org/resource/Manuscript"}, 
{"score": 0.000000, "link": "http://dbpedia.org/resource/Microsoft"}, 
{"score": 0.000000, "link": "http://dbpedia.org/resource/Mississippi"}, 
{"score": 0.000000, "link": "http://dbpedia.org/resource/Morphine"}, 
{"score": 0.000000, "link": "http://dbpedia.org/resource/Mara_Salvatrucha"}, 
{"score": 0.000000, "link": "http://dbpedia.org/resource/Middle_school"}, 
{"score": 0.000000, "link": "http://dbpedia.org/resource/George_Dyson_(composer)"}, 
{"score": 0.000000, "link": "http://dbpedia.org/resource/Freeman_Dyson"}, 
{"score": 0.000000, "link": "http://dbpedia.org/resource/James_Dyson"}, 
{"score": 0.000000, "link": "http://dbpedia.org/resource/Jeremy_Dyson"}, 
{"score": 0.000000, "link": "http://dbpedia.org/resource/Roger_Federer"}, 
{"score": 0.000000, "link": "http://dbpedia.org/resource/Russia"}, 
{"score": 0.000000, "link": "http://dbpedia.org/resource/Rio_Ferdinand"}, 
{"score": 0.000000, "link": "http://dbpedia.org/resource/Rugby_union"}, 
{"score": 0.000000, "link": "http://dbpedia.org/resource/Russ_Abbot"}, 
{"score": 0.000000, "link": "http://dbpedia.org/resource/Florida"}, 
{"score": 0.000000, "link": "http://dbpedia.org/resource/The_Flaming_Lips"}, 
{"score": 0.000000, "link": "http://dbpedia.org/resource/Floor"}, 
{"score": 0.000000, "link": "http://dbpedia.org/resource/The_Football_League"}, 
{"score": 0.000000, "link": "http://dbpedia.org/resource/Mike_Tyson"}, 
{"score": 0.000000, "link": "http://dbpedia.org/resource/Fiji"}, 
{"score": 0.000000, "link": "http://dbpedia.org/resource/Robbery"}, 
{"score": 0.000000, "link": "http://dbpedia.org/resource/Robert_Pattinson"}, 
{"score": 0.000000, "link": "http://dbpedia.org/resource/River_Dart"}]
