[{"score": 0.000000, "link": "http://dbpedia.org/resource/Matthew_(ship)"}, 
{"score": 0.000000, "link": "http://dbpedia.org/resource/Germany"}, 
{"score": 0.000000, "link": "http://dbpedia.org/resource/Allied-occupied_Germany"}, 
{"score": 0.000000, "link": "http://dbpedia.org/resource/East_Germany"}, 
{"score": 0.000000, "link": "http://dbpedia.org/resource/History_of_Germany"}, 
{"score": 0.000000, "link": "http://dbpedia.org/resource/Nazi_Germany"}, 
{"score": 0.000000, "link": "http://dbpedia.org/resource/West_Germany"}, 
{"score": 0.000000, "link": "http://dbpedia.org/resource/General_Electric"}, 
{"score": 0.000000, "link": "http://dbpedia.org/resource/Google_Earth"}, 
{"score": 0.000000, "link": "http://dbpedia.org/resource/Genetic_engineering"}, 
{"score": 0.000000, "link": "http://dbpedia.org/resource/Georgia_(country)"}, 
{"score": 0.000000, "link": "http://dbpedia.org/resource/German_language"}, 
{"score": 0.000000, "link": "http://dbpedia.org/resource/General_Motors"}, 
{"score": 0.000000, "link": "http://dbpedia.org/resource/Germans"}, 
{"score": 0.000000, "link": "http://dbpedia.org/resource/Frog"}, 
{"score": 0.000000, "link": "http://dbpedia.org/resource/Maureen_Stapleton"}, 
{"score": 0.000000, "link": "http://dbpedia.org/resource/John_Stapleton"}, 
{"score": 0.000000, "link": "http://dbpedia.org/resource/Nicola_Stapleton"}, 
{"score": 0.000000, "link": "http://dbpedia.org/resource/Soul_music"}, 
{"score": 0.000000, "link": "http://dbpedia.org/resource/Seoul"}, 
{"score": 0.000000, "link": "http://dbpedia.org/resource/Soul"}, 
{"score": 0.000000, "link": "http://dbpedia.org/resource/Jones_Soda"}, 
{"score": 0.000000, "link": "http://dbpedia.org/resource/John_Lewis_(department_store)"}, 
{"score": 0.000000, "link": "http://dbpedia.org/resource/Lewis"}, 
{"score": 0.000000, "link": "http://dbpedia.org/resource/Lewis_chessmen"}, 
{"score": 0.000000, "link": "http://dbpedia.org/resource/Dillon_Freasier"}, 
{"score": 0.000000, "link": "http://dbpedia.org/resource/Baghdad"}, 
{"score": 0.000000, "link": "http://dbpedia.org/resource/Russia"}, 
{"score": 0.000000, "link": "http://dbpedia.org/resource/Russ_Abbot"}, 
{"score": 0.000000, "link": "http://dbpedia.org/resource/London"}, 
{"score": 0.000000, "link": "http://dbpedia.org/resource/London_Bridge"}, 
{"score": 0.000000, "link": "http://dbpedia.org/resource/City_of_London"}, 
{"score": 0.000000, "link": "http://dbpedia.org/resource/Greater_London"}, 
{"score": 0.000000, "link": "http://dbpedia.org/resource/West_London"}, 
{"score": 0.000000, "link": "http://dbpedia.org/resource/North_London"}, 
{"score": 0.000000, "link": "http://dbpedia.org/resource/North_East_London"}, 
{"score": 0.000000, "link": "http://dbpedia.org/resource/London_commuter_belt"}, 
{"score": 0.000000, "link": "http://dbpedia.org/resource/United_States"}, 
{"score": 0.000000, "link": "http://dbpedia.org/resource/America_Ferrera"}, 
{"score": 0.000000, "link": "http://dbpedia.org/resource/Native_Americans"}, 
{"score": 0.000000, "link": "http://dbpedia.org/resource/American_Airlines"}, 
{"score": 0.000000, "link": "http://dbpedia.org/resource/Africa"}, 
{"score": 0.000000, "link": "http://dbpedia.org/resource/Mozambique"}]
