[{"score": 0.000000, "link": "http://dbpedia.org/resource/Chimpanzee"}, 
{"score": 0.000000, "link": "http://dbpedia.org/resource/Peter_Pan"}, 
{"score": 0.000000, "link": "http://dbpedia.org/resource/Frying_pan"}, 
{"score": 0.000000, "link": "http://dbpedia.org/resource/Panama"}, 
{"score": 0.000000, "link": "http://dbpedia.org/resource/Pangaea"}, 
{"score": 0.000000, "link": "http://dbpedia.org/resource/Poland"}, 
{"score": 0.000000, "link": "http://dbpedia.org/resource/Gold_panning"}, 
{"score": 0.000000, "link": "http://dbpedia.org/resource/Weimar_Republic"}, 
{"score": 0.000000, "link": "http://dbpedia.org/resource/Roman_Republic"}, 
{"score": 0.000000, "link": "http://dbpedia.org/resource/Premier_League"}, 
{"score": 0.000000, "link": "http://dbpedia.org/resource/Pluto"}, 
{"score": 0.000000, "link": "http://dbpedia.org/resource/Robert_Pattinson"}, 
{"score": 0.000000, "link": "http://dbpedia.org/resource/Philippines"}, 
{"score": 0.000000, "link": "http://dbpedia.org/resource/Pope_Benedict_XVI"}, 
{"score": 0.000000, "link": "http://dbpedia.org/resource/Pope"}, 
{"score": 0.000000, "link": "http://dbpedia.org/resource/Eva_Pope"}, 
{"score": 0.000000, "link": "http://dbpedia.org/resource/Phnom_Penh"}, 
{"score": 0.000000, "link": "http://dbpedia.org/resource/PayPal"}, 
{"score": 0.000000, "link": "http://dbpedia.org/resource/Sue_Perkins"}, 
{"score": 0.000000, "link": "http://dbpedia.org/resource/Egypt"}, 
{"score": 0.000000, "link": "http://dbpedia.org/resource/Syria"}, 
{"score": 0.000000, "link": "http://dbpedia.org/resource/Spotted_Flycatcher"}, 
{"score": 0.000000, "link": "http://dbpedia.org/resource/Ancient_Egypt"}, 
{"score": 0.000000, "link": "http://dbpedia.org/resource/Yehudi_Menuhin"}, 
{"score": 0.000000, "link": "http://dbpedia.org/resource/Mexico"}, 
{"score": 0.000000, "link": "http://dbpedia.org/resource/New_Mexico"}, 
{"score": 0.000000, "link": "http://dbpedia.org/resource/Mexico_City"}]
