[{"score": 0.000000, "link": "http://dbpedia.org/resource/Iran"}, 
{"score": 0.000000, "link": "http://dbpedia.org/resource/International_relations"}, 
{"score": 0.000000, "link": "http://dbpedia.org/resource/Engineer"}, 
{"score": 0.000000, "link": "http://dbpedia.org/resource/Indian_Railways"}, 
{"score": 0.000000, "link": "http://dbpedia.org/resource/Industrial_relations"}, 
{"score": 0.000000, "link": "http://dbpedia.org/resource/Islamic_Republic_of_Iran_Broadcasting"}, 
{"score": 0.000000, "link": "http://dbpedia.org/resource/Texas"}, 
{"score": 0.000000, "link": "http://dbpedia.org/resource/Texel"}, 
{"score": 0.000000, "link": "http://dbpedia.org/resource/Massachusetts"}, 
{"score": 0.000000, "link": "http://dbpedia.org/resource/Commonwealth_of_Nations"}, 
{"score": 0.000000, "link": "http://dbpedia.org/resource/Australia"}, 
{"score": 0.000000, "link": "http://dbpedia.org/resource/Kentucky"}, 
{"score": 0.000000, "link": "http://dbpedia.org/resource/Pennsylvania"}, 
{"score": 0.000000, "link": "http://dbpedia.org/resource/Virginia"}, 
{"score": 0.000000, "link": "http://dbpedia.org/resource/Commonwealth_Games"}, 
{"score": 0.000000, "link": "http://dbpedia.org/resource/Kirkcaldy"}, 
{"score": 0.000000, "link": "http://dbpedia.org/resource/Jakarta"}]
