[{"score": 0.000000, "link": "http://dbpedia.org/resource/Slovakia"}, 
{"score": 0.000000, "link": "http://dbpedia.org/resource/Simply_Red"}, 
{"score": 0.000000, "link": "http://dbpedia.org/resource/Special_relativity"}, 
{"score": 0.000000, "link": "http://dbpedia.org/resource/Stockport"}, 
{"score": 0.000000, "link": "http://dbpedia.org/resource/Stephen_King"}, 
{"score": 0.000000, "link": "http://dbpedia.org/resource/South_Korea"}, 
{"score": 0.000000, "link": "http://dbpedia.org/resource/Manhattan"}, 
{"score": 0.000000, "link": "http://dbpedia.org/resource/The_Manhattans"}, 
{"score": 0.000000, "link": "http://dbpedia.org/resource/Manhattan_Project"}, 
{"score": 0.000000, "link": "http://dbpedia.org/resource/New_York_City"}, 
{"score": 0.000000, "link": "http://dbpedia.org/resource/New_York"}, 
{"score": 0.000000, "link": "http://dbpedia.org/resource/Minnesota"}, 
{"score": 0.000000, "link": "http://dbpedia.org/resource/Montenegro"}, 
{"score": 0.000000, "link": "http://dbpedia.org/resource/Monaco"}, 
{"score": 0.000000, "link": "http://dbpedia.org/resource/Mongolia"}, 
{"score": 0.000000, "link": "http://dbpedia.org/resource/Mantua"}, 
{"score": 0.000000, "link": "http://dbpedia.org/resource/Chimpanzee"}, 
{"score": 0.000000, "link": "http://dbpedia.org/resource/Peter_Pan"}, 
{"score": 0.000000, "link": "http://dbpedia.org/resource/Frying_pan"}, 
{"score": 0.000000, "link": "http://dbpedia.org/resource/Panama"}, 
{"score": 0.000000, "link": "http://dbpedia.org/resource/Pangaea"}, 
{"score": 0.000000, "link": "http://dbpedia.org/resource/Poland"}, 
{"score": 0.000000, "link": "http://dbpedia.org/resource/Gold_panning"}, 
{"score": 0.000000, "link": "http://dbpedia.org/resource/Weimar_Republic"}, 
{"score": 0.000000, "link": "http://dbpedia.org/resource/Roman_Republic"}, 
{"score": 0.000000, "link": "http://dbpedia.org/resource/Premier_League"}, 
{"score": 0.000000, "link": "http://dbpedia.org/resource/Pluto"}, 
{"score": 0.000000, "link": "http://dbpedia.org/resource/Robert_Pattinson"}, 
{"score": 0.000000, "link": "http://dbpedia.org/resource/Philippines"}, 
{"score": 0.000000, "link": "http://dbpedia.org/resource/Bangkok"}, 
{"score": 0.000000, "link": "http://dbpedia.org/resource/Dhaka"}, 
{"score": 0.000000, "link": "http://dbpedia.org/resource/Tom_Hanks"}, 
{"score": 0.000000, "link": "http://dbpedia.org/resource/Tom_Jones_(singer)"}, 
{"score": 0.000000, "link": "http://dbpedia.org/resource/Lord_Voldemort"}, 
{"score": 0.000000, "link": "http://dbpedia.org/resource/Bahrain"}, 
{"score": 0.000000, "link": "http://dbpedia.org/resource/Benin"}, 
{"score": 0.000000, "link": "http://dbpedia.org/resource/Bulimia_nervosa"}, 
{"score": 0.000000, "link": "http://dbpedia.org/resource/Ben_Nevis"}, 
{"score": 0.000000, "link": "http://dbpedia.org/resource/Big_Ben"}, 
{"score": 0.000000, "link": "http://dbpedia.org/resource/Benin_Empire"}, 
{"score": 0.000000, "link": "http://dbpedia.org/resource/Maned_Wolf"}, 
{"score": 0.000000, "link": "http://dbpedia.org/resource/Ethiopian_Wolf"}, 
{"score": 0.000000, "link": "http://dbpedia.org/resource/Coyote"}, 
{"score": 0.000000, "link": "http://dbpedia.org/resource/Kingston_upon_Hull"}, 
{"score": 0.000000, "link": "http://dbpedia.org/resource/Hull_F.C."}, 
{"score": 0.000000, "link": "http://dbpedia.org/resource/Hull_City_A.F.C."}, 
{"score": 0.000000, "link": "http://dbpedia.org/resource/Hull_Kingston_Rovers"}, 
{"score": 0.000000, "link": "http://dbpedia.org/resource/University_of_Hull"}]
