[{"score": 0.000000, "link": "http://dbpedia.org/resource/China"}, 
{"score": 0.000000, "link": "http://dbpedia.org/resource/Mainland_China"}, 
{"score": 0.000000, "link": "http://dbpedia.org/resource/Cypress_Hill"}, 
{"score": 0.000000, "link": "http://dbpedia.org/resource/Helicopter"}, 
{"score": 0.000000, "link": "http://dbpedia.org/resource/Africa"}, 
{"score": 0.000000, "link": "http://dbpedia.org/resource/Mexico"}, 
{"score": 0.000000, "link": "http://dbpedia.org/resource/New_Mexico"}, 
{"score": 0.000000, "link": "http://dbpedia.org/resource/Mexico_City"}, 
{"score": 0.000000, "link": "http://dbpedia.org/resource/Sommelier"}, 
{"score": 0.000000, "link": "http://dbpedia.org/resource/Somalia"}, 
{"score": 0.000000, "link": "http://dbpedia.org/resource/Sony"}, 
{"score": 0.000000, "link": "http://dbpedia.org/resource/Gossip"}, 
{"score": 0.000000, "link": "http://dbpedia.org/resource/Kenya"}, 
{"score": 0.000000, "link": "http://dbpedia.org/resource/Kinetic_energy"}]
