[{"score": 0.000000, "link": "http://dbpedia.org/resource/Lagos"}, 
{"score": 0.000000, "link": "http://dbpedia.org/resource/Ben_Affleck"}, 
{"score": 0.000000, "link": "http://dbpedia.org/resource/Casey_Affleck"}, 
{"score": 0.000000, "link": "http://dbpedia.org/resource/Alaska"}, 
{"score": 0.000000, "link": "http://dbpedia.org/resource/Market_town"}, 
{"score": 0.000000, "link": "http://dbpedia.org/resource/Town"}, 
{"score": 0.000000, "link": "http://dbpedia.org/resource/Book_town"}, 
{"score": 0.000000, "link": "http://dbpedia.org/resource/Do_or_Die"}, 
{"score": 0.000000, "link": "http://dbpedia.org/resource/AK-47"}, 
{"score": 0.000000, "link": "http://dbpedia.org/resource/Yasser_Arafat"}, 
{"score": 0.000000, "link": "http://dbpedia.org/resource/Syd_Barrett"}, 
{"score": 0.000000, "link": "http://dbpedia.org/resource/Syd_Little"}, 
{"score": 0.000000, "link": "http://dbpedia.org/resource/Sydney"}, 
{"score": 0.000000, "link": "http://dbpedia.org/resource/Sydney_Pollack"}, 
{"score": 0.000000, "link": "http://dbpedia.org/resource/Bill_Clinton"}, 
{"score": 0.000000, "link": "http://dbpedia.org/resource/Hillary_Rodham_Clinton"}, 
{"score": 0.000000, "link": "http://dbpedia.org/resource/Danger_Mouse"}, 
{"score": 0.000000, "link": "http://dbpedia.org/resource/Diabetes_mellitus"}, 
{"score": 0.000000, "link": "http://dbpedia.org/resource/Despicable_Me"}, 
{"score": 0.000000, "link": "http://dbpedia.org/resource/Doctor_of_Medicine"}, 
{"score": 0.000000, "link": "http://dbpedia.org/resource/Great_Britain"}, 
{"score": 0.000000, "link": "http://dbpedia.org/resource/Prehistoric_Britain"}, 
{"score": 0.000000, "link": "http://dbpedia.org/resource/Roman_Britain"}]
