[{"score": 0.000000, "link": "http://dbpedia.org/resource/Pete_Townshend"}, 
{"score": 0.000000, "link": "http://dbpedia.org/resource/Yasser_Arafat"}, 
{"score": 0.000000, "link": "http://dbpedia.org/resource/Zanzibar"}, 
{"score": 0.000000, "link": "http://dbpedia.org/resource/Tanzania"}, 
{"score": 0.000000, "link": "http://dbpedia.org/resource/Sunless_tanning"}, 
{"score": 0.000000, "link": "http://dbpedia.org/resource/Sun_tanning"}, 
{"score": 0.000000, "link": "http://dbpedia.org/resource/Tanning"}, 
{"score": 0.000000, "link": "http://dbpedia.org/resource/Dion_Dublin"}, 
{"score": 0.000000, "link": "http://dbpedia.org/resource/Dublin"}, 
{"score": 0.000000, "link": "http://dbpedia.org/resource/County_Dublin"}, 
{"score": 0.000000, "link": "http://dbpedia.org/resource/Vienna"}, 
{"score": 0.000000, "link": "http://dbpedia.org/resource/Congress_of_Vienna"}, 
{"score": 0.000000, "link": "http://dbpedia.org/resource/Israel"}, 
{"score": 0.000000, "link": "http://dbpedia.org/resource/Illinois"}, 
{"score": 0.000000, "link": "http://dbpedia.org/resource/Immune_system"}, 
{"score": 0.000000, "link": "http://dbpedia.org/resource/Intersex"}, 
{"score": 0.000000, "link": "http://dbpedia.org/resource/Middle_school"}, 
{"score": 0.000000, "link": "http://dbpedia.org/resource/Israelites"}, 
{"score": 0.000000, "link": "http://dbpedia.org/resource/Israelis"}, 
{"score": 0.000000, "link": "http://dbpedia.org/resource/Europe"}, 
{"score": 0.000000, "link": "http://dbpedia.org/resource/European_Union"}, 
{"score": 0.000000, "link": "http://dbpedia.org/resource/India"}, 
{"score": 0.000000, "link": "http://dbpedia.org/resource/Indiana"}, 
{"score": 0.000000, "link": "http://dbpedia.org/resource/Scottish_people"}, 
{"score": 0.000000, "link": "http://dbpedia.org/resource/Scott_Air_Force_Base"}, 
{"score": 0.000000, "link": "http://dbpedia.org/resource/Henry_VIII_of_England"}, 
{"score": 0.000000, "link": "http://dbpedia.org/resource/Henry_II_of_England"}, 
{"score": 0.000000, "link": "http://dbpedia.org/resource/Henry_VII_of_England"}, 
{"score": 0.000000, "link": "http://dbpedia.org/resource/Henry_V_of_England"}, 
{"score": 0.000000, "link": "http://dbpedia.org/resource/Wisconsin"}, 
{"score": 0.000000, "link": "http://dbpedia.org/resource/Caribbean"}, 
{"score": 0.000000, "link": "http://dbpedia.org/resource/Wii"}, 
{"score": 0.000000, "link": "http://dbpedia.org/resource/Jane's_Addiction"}, 
{"score": 0.000000, "link": "http://dbpedia.org/resource/Jamaica"}, 
{"score": 0.000000, "link": "http://dbpedia.org/resource/Japan"}, 
{"score": 0.000000, "link": "http://dbpedia.org/resource/Jay"}, 
{"score": 0.000000, "link": "http://dbpedia.org/resource/Jay-Z"}, 
{"score": 0.000000, "link": "http://dbpedia.org/resource/Jimmy_Page"}, 
{"score": 0.000000, "link": "http://dbpedia.org/resource/Joaquin_Phoenix"}, 
{"score": 0.000000, "link": "http://dbpedia.org/resource/Josh_Peck"}, 
{"score": 0.000000, "link": "http://dbpedia.org/resource/Judas_Priest"}, 
{"score": 0.000000, "link": "http://dbpedia.org/resource/Pope_John_Paul_II"}, 
{"score": 0.000000, "link": "http://dbpedia.org/resource/Jurassic_Park_(film)"}, 
{"score": 0.000000, "link": "http://dbpedia.org/resource/Bushcraft"}, 
{"score": 0.000000, "link": "http://dbpedia.org/resource/Shepherd's_Bush"}, 
{"score": 0.000000, "link": "http://dbpedia.org/resource/Dick_Cheney"}, 
{"score": 0.000000, "link": "http://dbpedia.org/resource/Smithsonian_Institution"}, 
{"score": 0.000000, "link": "http://dbpedia.org/resource/Sexual_intercourse"}, 
{"score": 0.000000, "link": "http://dbpedia.org/resource/Silicon"}, 
{"score": 0.000000, "link": "http://dbpedia.org/resource/Slovenia"}, 
{"score": 0.000000, "link": "http://dbpedia.org/resource/Solomon_Islands"}, 
{"score": 0.000000, "link": "http://dbpedia.org/resource/South_India"}, 
{"score": 0.000000, "link": "http://dbpedia.org/resource/Rolfing"}, 
{"score": 0.000000, "link": "http://dbpedia.org/resource/Small_intestine"}, 
{"score": 0.000000, "link": "http://dbpedia.org/resource/Shanghai"}, 
{"score": 0.000000, "link": "http://dbpedia.org/resource/Venice"}, 
{"score": 0.000000, "link": "http://dbpedia.org/resource/China"}, 
{"score": 0.000000, "link": "http://dbpedia.org/resource/Mainland_China"}, 
{"score": 0.000000, "link": "http://dbpedia.org/resource/Cypress_Hill"}, 
{"score": 0.000000, "link": "http://dbpedia.org/resource/Helicopter"}]
