[{"score": 0.000000, "link": "http://dbpedia.org/resource/Alex_James_(musician)"}, 
{"score": 0.000000, "link": "http://dbpedia.org/resource/Alfred_Russel_Wallace"}, 
{"score": 0.000000, "link": "http://dbpedia.org/resource/Russ_Abbot"}, 
{"score": 0.000000, "link": "http://dbpedia.org/resource/Russia"}, 
{"score": 0.000000, "link": "http://dbpedia.org/resource/Hertzsprung%E2%80%93Russell_diagram"}, 
{"score": 0.000000, "link": "http://dbpedia.org/resource/Jack_Russell_Terrier"}, 
{"score": 0.000000, "link": "http://dbpedia.org/resource/Florida"}, 
{"score": 0.000000, "link": "http://dbpedia.org/resource/The_Flaming_Lips"}, 
{"score": 0.000000, "link": "http://dbpedia.org/resource/Floor"}, 
{"score": 0.000000, "link": "http://dbpedia.org/resource/The_Football_League"}, 
{"score": 0.000000, "link": "http://dbpedia.org/resource/Tom_Hanks"}, 
{"score": 0.000000, "link": "http://dbpedia.org/resource/Tom_Jones_(singer)"}, 
{"score": 0.000000, "link": "http://dbpedia.org/resource/Lord_Voldemort"}, 
{"score": 0.000000, "link": "http://dbpedia.org/resource/Johnson_&_Johnson"}, 
{"score": 0.000000, "link": "http://dbpedia.org/resource/A_Dictionary_of_the_English_Language"}, 
{"score": 0.000000, "link": "http://dbpedia.org/resource/Jenny_from_the_Block"}, 
{"score": 0.000000, "link": "http://dbpedia.org/resource/Dale_Winton"}, 
{"score": 0.000000, "link": "http://dbpedia.org/resource/Maine"}, 
{"score": 0.000000, "link": "http://dbpedia.org/resource/Montenegro"}, 
{"score": 0.000000, "link": "http://dbpedia.org/resource/Materials_science"}, 
{"score": 0.000000, "link": "http://dbpedia.org/resource/Mechanical_engineering"}]
