[{"score": 0,059058, "link": "http://dbpedia.org/resource/Jerusalem"}, 
{"score": 0,057808, "link": "http://dbpedia.org/resource/Jesus"}, 
{"score": 0,057240, "link": "http://dbpedia.org/resource/The_Holocaust"}, 
{"score": 0,054181, "link": "http://dbpedia.org/resource/Police"}, 
{"score": 0,053408, "link": "http://dbpedia.org/resource/Judaism"}, 
{"score": 0,053037, "link": "http://dbpedia.org/resource/God"}, 
{"score": 0,052714, "link": "http://dbpedia.org/resource/Protestantism"}, 
{"score": 0,051615, "link": "http://dbpedia.org/resource/Christian"}, 
{"score": 0,051278, "link": "http://dbpedia.org/resource/German_language"}, 
{"score": 0,049850, "link": "http://dbpedia.org/resource/Court"}, 
{"score": 0,049226, "link": "http://dbpedia.org/resource/Boarding_school"}, 
{"score": 0,048548, "link": "http://dbpedia.org/resource/Homosexuality"}, 
{"score": 0,047559, "link": "http://dbpedia.org/resource/World_War_II"}, 
{"score": 0,046715, "link": "http://dbpedia.org/resource/Murder"}, 
{"score": 0,045860, "link": "http://dbpedia.org/resource/Hell"}, 
{"score": 0,045598, "link": "http://dbpedia.org/resource/Racial_segregation"}, 
{"score": 0,045332, "link": "http://dbpedia.org/resource/African_American"}, 
{"score": 0,045220, "link": "http://dbpedia.org/resource/Germany"}, 
{"score": 0,045084, "link": "http://dbpedia.org/resource/Pseudonym"}, 
{"score": 0,044752, "link": "http://dbpedia.org/resource/Austria"}, 
{"score": 0,044646, "link": "http://dbpedia.org/resource/Rape"}, 
{"score": 0,043969, "link": "http://dbpedia.org/resource/Israel"}, 
{"score": 0,043931, "link": "http://dbpedia.org/resource/War"}, 
{"score": 0,043433, "link": "http://dbpedia.org/resource/Narcissism"}, 
{"score": 0,043005, "link": "http://dbpedia.org/resource/Twitter"}, 
{"score": 0,042804, "link": "http://dbpedia.org/resource/New_York_City"}, 
{"score": 0,042764, "link": "http://dbpedia.org/resource/Spanish_language"}, 
{"score": 0,042707, "link": "http://dbpedia.org/resource/Law"}, 
{"score": 0,042594, "link": "http://dbpedia.org/resource/Berlin"}, 
{"score": 0,042404, "link": "http://dbpedia.org/resource/Facebook"}, 
{"score": 0,041663, "link": "http://dbpedia.org/resource/Folklore"}, 
{"score": 0,041600, "link": "http://dbpedia.org/resource/Domestic_worker"}, 
{"score": 0,041257, "link": "http://dbpedia.org/resource/Book"}, 
{"score": 0,040930, "link": "http://dbpedia.org/resource/France"}, 
{"score": 0,040302, "link": "http://dbpedia.org/resource/Hippie"}, 
{"score": 0,039982, "link": "http://dbpedia.org/resource/Old_Testament"}, 
{"score": 0,039957, "link": "http://dbpedia.org/resource/Gambling"}, 
{"score": 0,039811, "link": "http://dbpedia.org/resource/United_Kingdom"}, 
{"score": 0,039690, "link": "http://dbpedia.org/resource/Heresy"}, 
{"score": 0,039376, "link": "http://dbpedia.org/resource/World_War_I"}, 
{"score": 0,039328, "link": "http://dbpedia.org/resource/Pregnancy"}, 
{"score": 0,039281, "link": "http://dbpedia.org/resource/Pension"}, 
{"score": 0,039180, "link": "http://dbpedia.org/resource/Canada"}, 
{"score": 0,038967, "link": "http://dbpedia.org/resource/William_Shakespeare"}, 
{"score": 0,038770, "link": "http://dbpedia.org/resource/Cannabis_(drug)"}, 
{"score": 0,038743, "link": "http://dbpedia.org/resource/Father"}, 
{"score": 0,038713, "link": "http://dbpedia.org/resource/Damascus"}, 
{"score": 0,038712, "link": "http://dbpedia.org/resource/Strike_action"}, 
{"score": 0,038523, "link": "http://dbpedia.org/resource/Leukemia"}, 
{"score": 0,038331, "link": "http://dbpedia.org/resource/Coma"}, 
{"score": 0,038189, "link": "http://dbpedia.org/resource/United_States"}, 
{"score": 0,038012, "link": "http://dbpedia.org/resource/Republican_Party_(United_States)"}, 
{"score": 0,037914, "link": "http://dbpedia.org/resource/Doctor_Who"}, 
{"score": 0,037854, "link": "http://dbpedia.org/resource/Bavaria"}, 
{"score": 0,037679, "link": "http://dbpedia.org/resource/Family"}, 
{"score": 0,037581, "link": "http://dbpedia.org/resource/Los_Angeles"}, 
{"score": 0,036857, "link": "http://dbpedia.org/resource/Japan"}, 
{"score": 0,036823, "link": "http://dbpedia.org/resource/Lottery"}, 
{"score": 0,036804, "link": "http://dbpedia.org/resource/Domestic_violence"}, 
{"score": 0,036348, "link": "http://dbpedia.org/resource/Poland"}, 
{"score": 0,036216, "link": "http://dbpedia.org/resource/Old_age"}, 
{"score": 0,036065, "link": "http://dbpedia.org/resource/Mary_(mother_of_Jesus)"}, 
{"score": 0,035894, "link": "http://dbpedia.org/resource/Party"}, 
{"score": 0,035809, "link": "http://dbpedia.org/resource/Stepfamily"}, 
{"score": 0,035421, "link": "http://dbpedia.org/resource/Justice"}, 
{"score": 0,035314, "link": "http://dbpedia.org/resource/Wealth"}, 
{"score": 0,035214, "link": "http://dbpedia.org/resource/Broadway_theatre"}, 
{"score": 0,035201, "link": "http://dbpedia.org/resource/The_Walt_Disney_Company"}, 
{"score": 0,035056, "link": "http://dbpedia.org/resource/Inuit"}, 
{"score": 0,034972, "link": "http://dbpedia.org/resource/Government"}, 
{"score": 0,034883, "link": "http://dbpedia.org/resource/House_of_Lords"}, 
{"score": 0,034639, "link": "http://dbpedia.org/resource/Child_support"}, 
{"score": 0,034219, "link": "http://dbpedia.org/resource/Holy_See"}, 
{"score": 0,034203, "link": "http://dbpedia.org/resource/Outing"}, 
{"score": 0,033991, "link": "http://dbpedia.org/resource/Game_show"}, 
{"score": 0,033827, "link": "http://dbpedia.org/resource/Assault"}, 
{"score": 0,033795, "link": "http://dbpedia.org/resource/Indictment"}, 
{"score": 0,033524, "link": "http://dbpedia.org/resource/Housewife"}, 
{"score": 0,033411, "link": "http://dbpedia.org/resource/Metropolitan_Police_Service"}, 
{"score": 0,033333, "link": "http://dbpedia.org/resource/Money"}, 
{"score": 0,033318, "link": "http://dbpedia.org/resource/Maine"}, 
{"score": 0,033282, "link": "http://dbpedia.org/resource/Proletariat"}, 
{"score": 0,033107, "link": "http://dbpedia.org/resource/United_Nations_Security_Council"}, 
{"score": 0,033063, "link": "http://dbpedia.org/resource/Sweden"}, 
{"score": 0,032089, "link": "http://dbpedia.org/resource/Western_(genre)"}, 
{"score": 0,031864, "link": "http://dbpedia.org/resource/Same-sex_marriage"}, 
{"score": 0,031573, "link": "http://dbpedia.org/resource/Birth"}, 
{"score": 0,031362, "link": "http://dbpedia.org/resource/Tax"}, 
{"score": 0,031217, "link": "http://dbpedia.org/resource/Born_again_(Christianity)"}, 
{"score": 0,030408, "link": "http://dbpedia.org/resource/Charity_(practice)"}, 
{"score": 0,030343, "link": "http://dbpedia.org/resource/Grandparent"}, 
{"score": 0,030325, "link": "http://dbpedia.org/resource/Archaeology"}, 
{"score": 0,029527, "link": "http://dbpedia.org/resource/Irish_Sea"}, 
{"score": 0,029482, "link": "http://dbpedia.org/resource/Happiness"}, 
{"score": 0,029239, "link": "http://dbpedia.org/resource/Napoleonic_Wars"}, 
{"score": 0,029116, "link": "http://dbpedia.org/resource/Dominican_Republic"}, 
{"score": 0,029031, "link": "http://dbpedia.org/resource/Cross-dressing"}, 
{"score": 0,028895, "link": "http://dbpedia.org/resource/Clairvoyance"}, 
{"score": 0,028794, "link": "http://dbpedia.org/resource/Baseball"}, 
{"score": 0,028756, "link": "http://dbpedia.org/resource/Human"}, 
{"score": 0,028753, "link": "http://dbpedia.org/resource/Flight"}, 
{"score": 0,028694, "link": "http://dbpedia.org/resource/Gender_identity"}, 
{"score": 0,028557, "link": "http://dbpedia.org/resource/Precognition"}, 
{"score": 0,028154, "link": "http://dbpedia.org/resource/Child_abandonment"}, 
{"score": 0,027893, "link": "http://dbpedia.org/resource/Music_hall"}, 
{"score": 0,027751, "link": "http://dbpedia.org/resource/Lion"}, 
{"score": 0,027706, "link": "http://dbpedia.org/resource/Professional_wrestling"}, 
{"score": 0,027609, "link": "http://dbpedia.org/resource/Waltz"}, 
{"score": 0,027391, "link": "http://dbpedia.org/resource/Mobile_phone"}, 
{"score": 0,027291, "link": "http://dbpedia.org/resource/Oregon"}, 
{"score": 0,027166, "link": "http://dbpedia.org/resource/Uttar_Pradesh"}, 
{"score": 0,027158, "link": "http://dbpedia.org/resource/Gender_role"}, 
{"score": 0,027017, "link": "http://dbpedia.org/resource/Pacifism"}, 
{"score": 0,026655, "link": "http://dbpedia.org/resource/Human_migration"}, 
{"score": 0,026519, "link": "http://dbpedia.org/resource/Original_sin"}, 
{"score": 0,026507, "link": "http://dbpedia.org/resource/Recreational_drug_use"}, 
{"score": 0,026390, "link": "http://dbpedia.org/resource/Malaysia"}, 
{"score": 0,026358, "link": "http://dbpedia.org/resource/Nature"}, 
{"score": 0,026177, "link": "http://dbpedia.org/resource/Thomas_More"}, 
{"score": 0,026026, "link": "http://dbpedia.org/resource/Rodgers_and_Hammerstein"}, 
{"score": 0,025959, "link": "http://dbpedia.org/resource/Forgiveness"}, 
{"score": 0,025446, "link": "http://dbpedia.org/resource/Big_band"}, 
{"score": 0,025433, "link": "http://dbpedia.org/resource/Middle_age"}, 
{"score": 0,025410, "link": "http://dbpedia.org/resource/Yes_(band)"}, 
{"score": 0,025089, "link": "http://dbpedia.org/resource/Eton_College"}, 
{"score": 0,024865, "link": "http://dbpedia.org/resource/Composer"}, 
{"score": 0,024550, "link": "http://dbpedia.org/resource/Somalia"}, 
{"score": 0,024158, "link": "http://dbpedia.org/resource/Park"}, 
{"score": 0,024140, "link": "http://dbpedia.org/resource/Seoul"}, 
{"score": 0,024129, "link": "http://dbpedia.org/resource/Royal_Academy"}, 
{"score": 0,023576, "link": "http://dbpedia.org/resource/Far_East"}, 
{"score": 0,023390, "link": "http://dbpedia.org/resource/Emotion"}, 
{"score": 0,023116, "link": "http://dbpedia.org/resource/Ordination"}, 
{"score": 0,022921, "link": "http://dbpedia.org/resource/Communication"}, 
{"score": 0,022474, "link": "http://dbpedia.org/resource/Angola"}, 
{"score": 0,022393, "link": "http://dbpedia.org/resource/Golf_course"}, 
{"score": 0,022175, "link": "http://dbpedia.org/resource/Sean_Combs"}, 
{"score": 0,022157, "link": "http://dbpedia.org/resource/Alley"}, 
{"score": 0,021913, "link": "http://dbpedia.org/resource/Currency"}, 
{"score": 0,021891, "link": "http://dbpedia.org/resource/Sun"}, 
{"score": 0,021874, "link": "http://dbpedia.org/resource/Freddie_Mercury"}, 
{"score": 0,021792, "link": "http://dbpedia.org/resource/Hindenburg_disaster"}, 
{"score": 0,021617, "link": "http://dbpedia.org/resource/999_(emergency_telephone_number)"}, 
{"score": 0,021468, "link": "http://dbpedia.org/resource/Photography"}, 
{"score": 0,021467, "link": "http://dbpedia.org/resource/Spain_national_football_team"}, 
{"score": 0,021362, "link": "http://dbpedia.org/resource/Tour_de_France"}, 
{"score": 0,021121, "link": "http://dbpedia.org/resource/Irish_Rebellion_of_1798"}, 
{"score": 0,020697, "link": "http://dbpedia.org/resource/Heart"}, 
{"score": 0,020461, "link": "http://dbpedia.org/resource/Organ_(music)"}, 
{"score": 0,020242, "link": "http://dbpedia.org/resource/Amnesia"}, 
{"score": 0,019782, "link": "http://dbpedia.org/resource/Etymology"}, 
{"score": 0,019706, "link": "http://dbpedia.org/resource/Knife"}, 
{"score": 0,019594, "link": "http://dbpedia.org/resource/Letter_(message)"}, 
{"score": 0,019198, "link": "http://dbpedia.org/resource/Sperm"}, 
{"score": 0,019151, "link": "http://dbpedia.org/resource/Drug_test"}, 
{"score": 0,018757, "link": "http://dbpedia.org/resource/Women's_rights"}, 
{"score": 0,018479, "link": "http://dbpedia.org/resource/20th_century"}, 
{"score": 0,018192, "link": "http://dbpedia.org/resource/Brand"}, 
{"score": 0,018136, "link": "http://dbpedia.org/resource/Ownership"}, 
{"score": 0,017881, "link": "http://dbpedia.org/resource/Embroidery"}, 
{"score": 0,016405, "link": "http://dbpedia.org/resource/FA_Cup"}, 
{"score": 0,016230, "link": "http://dbpedia.org/resource/Public_speaking"}, 
{"score": 0,016190, "link": "http://dbpedia.org/resource/Bargaining"}, 
{"score": 0,016081, "link": "http://dbpedia.org/resource/Moment_of_silence"}, 
{"score": 0,015956, "link": "http://dbpedia.org/resource/Criminal_procedure"}, 
{"score": 0,015533, "link": "http://dbpedia.org/resource/Speech"}, 
{"score": 0,014955, "link": "http://dbpedia.org/resource/Eurovision_Song_Contest_2011"}, 
{"score": 0,014591, "link": "http://dbpedia.org/resource/Integrated_circuit"}, 
{"score": 0,014488, "link": "http://dbpedia.org/resource/Toilet_paper"}, 
{"score": 0,014423, "link": "http://dbpedia.org/resource/Long_jump"}, 
{"score": 0,014417, "link": "http://dbpedia.org/resource/New_York_City_Ballet"}, 
{"score": 0,014356, "link": "http://dbpedia.org/resource/Safety"}, 
{"score": 0,013932, "link": "http://dbpedia.org/resource/Dentistry"}, 
{"score": 0,012965, "link": "http://dbpedia.org/resource/BBC_Trust"}, 
{"score": 0,012762, "link": "http://dbpedia.org/resource/Acacia"}, 
{"score": 0,012362, "link": "http://dbpedia.org/resource/Baboon"}, 
{"score": 0,012213, "link": "http://dbpedia.org/resource/Stock_Aitken_Waterman"}, 
{"score": 0,011700, "link": "http://dbpedia.org/resource/Population_growth"}, 
{"score": 0,011188, "link": "http://dbpedia.org/resource/Thought"}, 
{"score": 0,011049, "link": "http://dbpedia.org/resource/Talking_animal"}, 
{"score": 0,010625, "link": "http://dbpedia.org/resource/1980s_in_music"}, 
{"score": 0,010569, "link": "http://dbpedia.org/resource/Take-out"}, 
{"score": 0,010537, "link": "http://dbpedia.org/resource/Visual_perception"}, 
{"score": 0,010500, "link": "http://dbpedia.org/resource/Campsite"}, 
{"score": 0,010488, "link": "http://dbpedia.org/resource/Big_Audio_Dynamite"}, 
{"score": 0,010340, "link": "http://dbpedia.org/resource/Sense"}, 
{"score": 0,010046, "link": "http://dbpedia.org/resource/Pasta"}, 
{"score": 0,009639, "link": "http://dbpedia.org/resource/Animal_communication"}, 
{"score": 0,009559, "link": "http://dbpedia.org/resource/Quotation"}, 
{"score": 0,009312, "link": "http://dbpedia.org/resource/Wind_power"}, 
{"score": 0,009148, "link": "http://dbpedia.org/resource/Eleven_plus_exam"}, 
{"score": 0,008944, "link": "http://dbpedia.org/resource/Holism"}, 
{"score": 0,008939, "link": "http://dbpedia.org/resource/Something"}, 
{"score": 0,008824, "link": "http://dbpedia.org/resource/Matter"}, 
{"score": 0,008522, "link": "http://dbpedia.org/resource/Hearing_(sense)"}, 
{"score": 0,007657, "link": "http://dbpedia.org/resource/We_Are_Scientists"}, 
{"score": 0,007352, "link": "http://dbpedia.org/resource/Apple_juice"}, 
{"score": 0,006357, "link": "http://dbpedia.org/resource/Last_glacial_period"}, 
{"score": 0,005081, "link": "http://dbpedia.org/resource/Fault_(geology)"}, 
{"score": 0,004758, "link": "http://dbpedia.org/resource/One-person_show"}, 
{"score": 0,004109, "link": "http://dbpedia.org/resource/Holocene"}, 
{"score": 0,003900, "link": "http://dbpedia.org/resource/Minute_of_arc"}, 
{"score": 0,003722, "link": "http://dbpedia.org/resource/Trophy_hunting"}, 
{"score": 0,000310, "link": "http://dbpedia.org/resource/Great_Spotted_Woodpecker"}]
