[{"score": 0,087694, "link": "http://dbpedia.org/resource/Democracy"}, 
{"score": 0,077583, "link": "http://dbpedia.org/resource/Bomb"}, 
{"score": 0,077203, "link": "http://dbpedia.org/resource/Atomic_bombings_of_Hiroshima_and_Nagasaki"}, 
{"score": 0,057740, "link": "http://dbpedia.org/resource/Rape"}, 
{"score": 0,056160, "link": "http://dbpedia.org/resource/Police"}, 
{"score": 0,055266, "link": "http://dbpedia.org/resource/Palestinian_people"}, 
{"score": 0,055055, "link": "http://dbpedia.org/resource/Murder"}, 
{"score": 0,052211, "link": "http://dbpedia.org/resource/Israel"}, 
{"score": 0,050973, "link": "http://dbpedia.org/resource/Pakistan"}, 
{"score": 0,050929, "link": "http://dbpedia.org/resource/Northern_Ireland_peace_process"}, 
{"score": 0,050311, "link": "http://dbpedia.org/resource/President_of_the_United_States"}, 
{"score": 0,049550, "link": "http://dbpedia.org/resource/Property"}, 
{"score": 0,049472, "link": "http://dbpedia.org/resource/World_War_II"}, 
{"score": 0,049057, "link": "http://dbpedia.org/resource/Witness"}, 
{"score": 0,047820, "link": "http://dbpedia.org/resource/Nelson_Mandela"}, 
{"score": 0,046595, "link": "http://dbpedia.org/resource/Richter_magnitude_scale"}, 
{"score": 0,046354, "link": "http://dbpedia.org/resource/God"}, 
{"score": 0,043958, "link": "http://dbpedia.org/resource/Austria"}, 
{"score": 0,043352, "link": "http://dbpedia.org/resource/Looting"}, 
{"score": 0,043168, "link": "http://dbpedia.org/resource/Mutilation"}, 
{"score": 0,042406, "link": "http://dbpedia.org/resource/The_Wall_Street_Journal"}, 
{"score": 0,041769, "link": "http://dbpedia.org/resource/Germany"}, 
{"score": 0,041317, "link": "http://dbpedia.org/resource/Improvised_explosive_device"}, 
{"score": 0,041035, "link": "http://dbpedia.org/resource/World_War_I"}, 
{"score": 0,038405, "link": "http://dbpedia.org/resource/John_Key"}, 
{"score": 0,037577, "link": "http://dbpedia.org/resource/Holy_See"}, 
{"score": 0,037475, "link": "http://dbpedia.org/resource/Canada"}, 
{"score": 0,037046, "link": "http://dbpedia.org/resource/Pseudonym"}, 
{"score": 0,036989, "link": "http://dbpedia.org/resource/Norway"}, 
{"score": 0,036838, "link": "http://dbpedia.org/resource/Litter"}, 
{"score": 0,035557, "link": "http://dbpedia.org/resource/Prison"}, 
{"score": 0,034723, "link": "http://dbpedia.org/resource/Belarus"}, 
{"score": 0,034232, "link": "http://dbpedia.org/resource/Leukemia"}, 
{"score": 0,034061, "link": "http://dbpedia.org/resource/Plague_(disease)"}, 
{"score": 0,034033, "link": "http://dbpedia.org/resource/Human_sacrifice"}, 
{"score": 0,033731, "link": "http://dbpedia.org/resource/Mental_disorder"}, 
{"score": 0,033620, "link": "http://dbpedia.org/resource/Will_(law)"}, 
{"score": 0,032638, "link": "http://dbpedia.org/resource/Organized_crime"}, 
{"score": 0,032271, "link": "http://dbpedia.org/resource/Free_will"}, 
{"score": 0,031750, "link": "http://dbpedia.org/resource/Maine"}, 
{"score": 0,030909, "link": "http://dbpedia.org/resource/World_Health_Organization"}, 
{"score": 0,030756, "link": "http://dbpedia.org/resource/Artificial_intelligence"}, 
{"score": 0,030560, "link": "http://dbpedia.org/resource/Somalia"}, 
{"score": 0,030227, "link": "http://dbpedia.org/resource/Human"}, 
{"score": 0,030059, "link": "http://dbpedia.org/resource/Brain_damage"}, 
{"score": 0,029194, "link": "http://dbpedia.org/resource/Security_guard"}, 
{"score": 0,029045, "link": "http://dbpedia.org/resource/Depression_(mood)"}, 
{"score": 0,028966, "link": "http://dbpedia.org/resource/School"}, 
{"score": 0,027308, "link": "http://dbpedia.org/resource/Party"}, 
{"score": 0,027270, "link": "http://dbpedia.org/resource/Boxing"}, 
{"score": 0,027174, "link": "http://dbpedia.org/resource/Shiva"}, 
{"score": 0,026637, "link": "http://dbpedia.org/resource/Irish_Rebellion_of_1798"}, 
{"score": 0,026328, "link": "http://dbpedia.org/resource/Napoleonic_Wars"}, 
{"score": 0,025867, "link": "http://dbpedia.org/resource/Outer_space"}, 
{"score": 0,024135, "link": "http://dbpedia.org/resource/Public_Enemy_(group)"}, 
{"score": 0,023963, "link": "http://dbpedia.org/resource/Great_Lakes"}, 
{"score": 0,023711, "link": "http://dbpedia.org/resource/Knife"}, 
{"score": 0,023096, "link": "http://dbpedia.org/resource/Broadway_theatre"}, 
{"score": 0,022945, "link": "http://dbpedia.org/resource/Camera"}, 
{"score": 0,022939, "link": "http://dbpedia.org/resource/Telephone_tapping"}, 
{"score": 0,022454, "link": "http://dbpedia.org/resource/Battle_of_France"}, 
{"score": 0,021608, "link": "http://dbpedia.org/resource/Fighter_aircraft"}, 
{"score": 0,021568, "link": "http://dbpedia.org/resource/Memory"}, 
{"score": 0,021115, "link": "http://dbpedia.org/resource/Alcoholic_beverage"}, 
{"score": 0,019054, "link": "http://dbpedia.org/resource/Soundtrack"}, 
{"score": 0,018655, "link": "http://dbpedia.org/resource/Taoism"}, 
{"score": 0,018486, "link": "http://dbpedia.org/resource/England_national_football_team"}, 
{"score": 0,018210, "link": "http://dbpedia.org/resource/Dark_Ages_(historiography)"}, 
{"score": 0,016484, "link": "http://dbpedia.org/resource/Party_conference"}, 
{"score": 0,014626, "link": "http://dbpedia.org/resource/Kindergarten"}, 
{"score": 0,011476, "link": "http://dbpedia.org/resource/Stupa"}, 
{"score": 0,011034, "link": "http://dbpedia.org/resource/Academia"}, 
{"score": 0,010745, "link": "http://dbpedia.org/resource/Walking"}, 
{"score": 0,010674, "link": "http://dbpedia.org/resource/We_Are_Scientists"}, 
{"score": 0,010435, "link": "http://dbpedia.org/resource/Black_Beauty"}, 
{"score": 0,010412, "link": "http://dbpedia.org/resource/Stepfamily"}, 
{"score": 0,010277, "link": "http://dbpedia.org/resource/Human_swimming"}, 
{"score": 0,009867, "link": "http://dbpedia.org/resource/Speech"}, 
{"score": 0,009803, "link": "http://dbpedia.org/resource/Crying"}, 
{"score": 0,008118, "link": "http://dbpedia.org/resource/Richard_Price"}, 
{"score": 0,006427, "link": "http://dbpedia.org/resource/Sheep_shearing"}, 
{"score": 0,005884, "link": "http://dbpedia.org/resource/Big_Audio_Dynamite"}, 
{"score": 0,004495, "link": "http://dbpedia.org/resource/Biz_Stone"}, 
{"score": 0,003778, "link": "http://dbpedia.org/resource/Biodegradation"}, 
{"score": 0,003365, "link": "http://dbpedia.org/resource/Floristry"}, 
{"score": 0,001608, "link": "http://dbpedia.org/resource/School_discipline"}]
