[{"score": 0,067448, "link": "http://dbpedia.org/resource/Spirituality"}, 
{"score": 0,060708, "link": "http://dbpedia.org/resource/Sexual_intercourse"}, 
{"score": 0,058499, "link": "http://dbpedia.org/resource/The_Times"}, 
{"score": 0,056630, "link": "http://dbpedia.org/resource/God"}, 
{"score": 0,056400, "link": "http://dbpedia.org/resource/Celebrity"}, 
{"score": 0,052879, "link": "http://dbpedia.org/resource/Dating"}, 
{"score": 0,052791, "link": "http://dbpedia.org/resource/Bible"}, 
{"score": 0,052605, "link": "http://dbpedia.org/resource/T-shirt"}, 
{"score": 0,052396, "link": "http://dbpedia.org/resource/Time"}, 
{"score": 0,051823, "link": "http://dbpedia.org/resource/Will_Young"}, 
{"score": 0,051555, "link": "http://dbpedia.org/resource/The_Guardian"}, 
{"score": 0,051524, "link": "http://dbpedia.org/resource/The_Wall_Street_Journal"}, 
{"score": 0,051118, "link": "http://dbpedia.org/resource/German_language"}, 
{"score": 0,049686, "link": "http://dbpedia.org/resource/Heaven"}, 
{"score": 0,049626, "link": "http://dbpedia.org/resource/The_Doors"}, 
{"score": 0,049343, "link": "http://dbpedia.org/resource/Single_(music)"}, 
{"score": 0,049299, "link": "http://dbpedia.org/resource/African_American"}, 
{"score": 0,049267, "link": "http://dbpedia.org/resource/Youth"}, 
{"score": 0,049225, "link": "http://dbpedia.org/resource/Facebook"}, 
{"score": 0,049034, "link": "http://dbpedia.org/resource/Divorce"}, 
{"score": 0,047728, "link": "http://dbpedia.org/resource/Popular_culture"}, 
{"score": 0,047705, "link": "http://dbpedia.org/resource/Song"}, 
{"score": 0,047431, "link": "http://dbpedia.org/resource/Orgasm"}, 
{"score": 0,047200, "link": "http://dbpedia.org/resource/Racism"}, 
{"score": 0,047106, "link": "http://dbpedia.org/resource/Indigenous_peoples_of_the_Americas"}, 
{"score": 0,046918, "link": "http://dbpedia.org/resource/Hell"}, 
{"score": 0,046828, "link": "http://dbpedia.org/resource/Newspaper"}, 
{"score": 0,046203, "link": "http://dbpedia.org/resource/Ghost"}, 
{"score": 0,046196, "link": "http://dbpedia.org/resource/Catholicism"}, 
{"score": 0,045126, "link": "http://dbpedia.org/resource/Magazine"}, 
{"score": 0,044942, "link": "http://dbpedia.org/resource/Paris"}, 
{"score": 0,044795, "link": "http://dbpedia.org/resource/Cher"}, 
{"score": 0,044762, "link": "http://dbpedia.org/resource/Hit_record"}, 
{"score": 0,044744, "link": "http://dbpedia.org/resource/Krishna"}, 
{"score": 0,044742, "link": "http://dbpedia.org/resource/Happiness"}, 
{"score": 0,044561, "link": "http://dbpedia.org/resource/The_Smiths"}, 
{"score": 0,044461, "link": "http://dbpedia.org/resource/Nice"}, 
{"score": 0,044404, "link": "http://dbpedia.org/resource/Paris_Hilton"}, 
{"score": 0,044300, "link": "http://dbpedia.org/resource/Psychoanalysis"}, 
{"score": 0,044228, "link": "http://dbpedia.org/resource/Teacher"}, 
{"score": 0,044188, "link": "http://dbpedia.org/resource/The_Who"}, 
{"score": 0,043994, "link": "http://dbpedia.org/resource/Hard_rock"}, 
{"score": 0,043788, "link": "http://dbpedia.org/resource/Father"}, 
{"score": 0,043533, "link": "http://dbpedia.org/resource/Technology"}, 
{"score": 0,043484, "link": "http://dbpedia.org/resource/Film"}, 
{"score": 0,043473, "link": "http://dbpedia.org/resource/Concert"}, 
{"score": 0,043277, "link": "http://dbpedia.org/resource/Parody"}, 
{"score": 0,043007, "link": "http://dbpedia.org/resource/College"}, 
{"score": 0,042985, "link": "http://dbpedia.org/resource/Austria"}, 
{"score": 0,042977, "link": "http://dbpedia.org/resource/Japan"}, 
{"score": 0,042975, "link": "http://dbpedia.org/resource/Romance_(love)"}, 
{"score": 0,042934, "link": "http://dbpedia.org/resource/Police"}, 
{"score": 0,042489, "link": "http://dbpedia.org/resource/Folklore"}, 
{"score": 0,042421, "link": "http://dbpedia.org/resource/Tina_Turner"}, 
{"score": 0,042299, "link": "http://dbpedia.org/resource/Education"}, 
{"score": 0,042178, "link": "http://dbpedia.org/resource/Sex_and_the_City"}, 
{"score": 0,042102, "link": "http://dbpedia.org/resource/Parallel_universe_(fiction)"}, 
{"score": 0,042097, "link": "http://dbpedia.org/resource/Pregnancy"}, 
{"score": 0,041478, "link": "http://dbpedia.org/resource/Human"}, 
{"score": 0,041378, "link": "http://dbpedia.org/resource/Sean_Combs"}, 
{"score": 0,041304, "link": "http://dbpedia.org/resource/Latin"}, 
{"score": 0,041126, "link": "http://dbpedia.org/resource/North_America"}, 
{"score": 0,041106, "link": "http://dbpedia.org/resource/Disc_jockey"}, 
{"score": 0,041069, "link": "http://dbpedia.org/resource/Posttraumatic_stress_disorder"}, 
{"score": 0,040934, "link": "http://dbpedia.org/resource/Parenting"}, 
{"score": 0,040889, "link": "http://dbpedia.org/resource/Death"}, 
{"score": 0,040888, "link": "http://dbpedia.org/resource/Mars"}, 
{"score": 0,040709, "link": "http://dbpedia.org/resource/Caribbean"}, 
{"score": 0,040631, "link": "http://dbpedia.org/resource/Musician"}, 
{"score": 0,040462, "link": "http://dbpedia.org/resource/Los_Angeles"}, 
{"score": 0,040164, "link": "http://dbpedia.org/resource/Great_Depression"}, 
{"score": 0,040107, "link": "http://dbpedia.org/resource/Boarding_school"}, 
{"score": 0,040080, "link": "http://dbpedia.org/resource/Graffiti"}, 
{"score": 0,039667, "link": "http://dbpedia.org/resource/Iraq_War"}, 
{"score": 0,039267, "link": "http://dbpedia.org/resource/London"}, 
{"score": 0,039133, "link": "http://dbpedia.org/resource/American_Idol"}, 
{"score": 0,039002, "link": "http://dbpedia.org/resource/Wealth"}, 
{"score": 0,038771, "link": "http://dbpedia.org/resource/Canada"}, 
{"score": 0,038700, "link": "http://dbpedia.org/resource/Domestic_worker"}, 
{"score": 0,038685, "link": "http://dbpedia.org/resource/Vietnam_War"}, 
{"score": 0,038560, "link": "http://dbpedia.org/resource/Money"}, 
{"score": 0,038343, "link": "http://dbpedia.org/resource/World_War_II"}, 
{"score": 0,038327, "link": "http://dbpedia.org/resource/Musical_ensemble"}, 
{"score": 0,038202, "link": "http://dbpedia.org/resource/Pseudonym"}, 
{"score": 0,038155, "link": "http://dbpedia.org/resource/New_York"}, 
{"score": 0,038015, "link": "http://dbpedia.org/resource/Literature"}, 
{"score": 0,037970, "link": "http://dbpedia.org/resource/1980s_in_music"}, 
{"score": 0,037962, "link": "http://dbpedia.org/resource/Leukemia"}, 
{"score": 0,037579, "link": "http://dbpedia.org/resource/Fantasy"}, 
{"score": 0,037458, "link": "http://dbpedia.org/resource/War"}, 
{"score": 0,037439, "link": "http://dbpedia.org/resource/World_War_I"}, 
{"score": 0,037283, "link": "http://dbpedia.org/resource/Prison"}, 
{"score": 0,037060, "link": "http://dbpedia.org/resource/Dominican_Republic"}, 
{"score": 0,036897, "link": "http://dbpedia.org/resource/Adolescence"}, 
{"score": 0,036894, "link": "http://dbpedia.org/resource/India"}, 
{"score": 0,036792, "link": "http://dbpedia.org/resource/Sweden"}, 
{"score": 0,036706, "link": "http://dbpedia.org/resource/Israel"}, 
{"score": 0,036438, "link": "http://dbpedia.org/resource/Gambling"}, 
{"score": 0,036393, "link": "http://dbpedia.org/resource/Book_of_Genesis"}, 
{"score": 0,036357, "link": "http://dbpedia.org/resource/The_Fall_(band)"}, 
{"score": 0,036286, "link": "http://dbpedia.org/resource/Berlin"}, 
{"score": 0,036157, "link": "http://dbpedia.org/resource/Belarus"}, 
{"score": 0,035615, "link": "http://dbpedia.org/resource/Sting_(musician)"}, 
{"score": 0,035323, "link": "http://dbpedia.org/resource/Bill_Murray"}, 
{"score": 0,035250, "link": "http://dbpedia.org/resource/Mississippi"}, 
{"score": 0,034905, "link": "http://dbpedia.org/resource/Soundtrack"}, 
{"score": 0,034874, "link": "http://dbpedia.org/resource/Golf"}, 
{"score": 0,034854, "link": "http://dbpedia.org/resource/Candle"}, 
{"score": 0,034630, "link": "http://dbpedia.org/resource/Birth"}, 
{"score": 0,034459, "link": "http://dbpedia.org/resource/Genocide"}, 
{"score": 0,034351, "link": "http://dbpedia.org/resource/Pentecostalism"}, 
{"score": 0,034335, "link": "http://dbpedia.org/resource/Immigration"}, 
{"score": 0,034020, "link": "http://dbpedia.org/resource/Boxing"}, 
{"score": 0,033708, "link": "http://dbpedia.org/resource/Dharma"}, 
{"score": 0,033022, "link": "http://dbpedia.org/resource/Department_store"}, 
{"score": 0,032972, "link": "http://dbpedia.org/resource/Truth"}, 
{"score": 0,032905, "link": "http://dbpedia.org/resource/Shiva"}, 
{"score": 0,032864, "link": "http://dbpedia.org/resource/Cold_War"}, 
{"score": 0,032570, "link": "http://dbpedia.org/resource/U.S._Open_(golf)"}, 
{"score": 0,032426, "link": "http://dbpedia.org/resource/Reality"}, 
{"score": 0,032047, "link": "http://dbpedia.org/resource/Hypothermia"}, 
{"score": 0,031892, "link": "http://dbpedia.org/resource/Meat"}, 
{"score": 0,031876, "link": "http://dbpedia.org/resource/The_Wanted"}, 
{"score": 0,031805, "link": "http://dbpedia.org/resource/Employment"}, 
{"score": 0,031762, "link": "http://dbpedia.org/resource/The_Sopranos"}, 
{"score": 0,031746, "link": "http://dbpedia.org/resource/Malaysia"}, 
{"score": 0,031709, "link": "http://dbpedia.org/resource/Winston_Churchill"}, 
{"score": 0,031586, "link": "http://dbpedia.org/resource/Shipwreck"}, 
{"score": 0,031531, "link": "http://dbpedia.org/resource/News_media"}, 
{"score": 0,031265, "link": "http://dbpedia.org/resource/Mike_Oldfield"}, 
{"score": 0,031229, "link": "http://dbpedia.org/resource/Gun"}, 
{"score": 0,031106, "link": "http://dbpedia.org/resource/The_Troubles"}, 
{"score": 0,030987, "link": "http://dbpedia.org/resource/Lahore"}, 
{"score": 0,030912, "link": "http://dbpedia.org/resource/Silk"}, 
{"score": 0,030790, "link": "http://dbpedia.org/resource/Brand"}, 
{"score": 0,030719, "link": "http://dbpedia.org/resource/Robbery"}, 
{"score": 0,030597, "link": "http://dbpedia.org/resource/German_reunification"}, 
{"score": 0,030503, "link": "http://dbpedia.org/resource/Gareth_Gates"}, 
{"score": 0,030494, "link": "http://dbpedia.org/resource/Astronaut"}, 
{"score": 0,030258, "link": "http://dbpedia.org/resource/Premier_League"}, 
{"score": 0,030119, "link": "http://dbpedia.org/resource/Electronic_music"}, 
{"score": 0,030050, "link": "http://dbpedia.org/resource/Automobile"}, 
{"score": 0,029966, "link": "http://dbpedia.org/resource/Justice"}, 
{"score": 0,029905, "link": "http://dbpedia.org/resource/Arson"}, 
{"score": 0,029478, "link": "http://dbpedia.org/resource/Stress_(biology)"}, 
{"score": 0,029296, "link": "http://dbpedia.org/resource/Conducting"}, 
{"score": 0,029252, "link": "http://dbpedia.org/resource/Taoism"}, 
{"score": 0,029216, "link": "http://dbpedia.org/resource/Photography"}, 
{"score": 0,029155, "link": "http://dbpedia.org/resource/Mentorship"}, 
{"score": 0,028930, "link": "http://dbpedia.org/resource/Quotation"}, 
{"score": 0,028805, "link": "http://dbpedia.org/resource/Recreation"}, 
{"score": 0,028770, "link": "http://dbpedia.org/resource/Republican_Party_(United_States)"}, 
{"score": 0,028567, "link": "http://dbpedia.org/resource/Face"}, 
{"score": 0,028471, "link": "http://dbpedia.org/resource/Outing"}, 
{"score": 0,028467, "link": "http://dbpedia.org/resource/Lawsuit"}, 
{"score": 0,028419, "link": "http://dbpedia.org/resource/We_Are_Scientists"}, 
{"score": 0,028401, "link": "http://dbpedia.org/resource/Guyana"}, 
{"score": 0,028185, "link": "http://dbpedia.org/resource/Instinct"}, 
{"score": 0,028142, "link": "http://dbpedia.org/resource/Tax"}, 
{"score": 0,028115, "link": "http://dbpedia.org/resource/Human_migration"}, 
{"score": 0,027987, "link": "http://dbpedia.org/resource/Damascus"}, 
{"score": 0,027709, "link": "http://dbpedia.org/resource/Postage_stamp"}, 
{"score": 0,027590, "link": "http://dbpedia.org/resource/New_York_Yankees"}, 
{"score": 0,027513, "link": "http://dbpedia.org/resource/Chernobyl_disaster"}, 
{"score": 0,027462, "link": "http://dbpedia.org/resource/Tournament"}, 
{"score": 0,027453, "link": "http://dbpedia.org/resource/Patent"}, 
{"score": 0,027360, "link": "http://dbpedia.org/resource/Swimming_pool"}, 
{"score": 0,027295, "link": "http://dbpedia.org/resource/Brian_May"}, 
{"score": 0,027199, "link": "http://dbpedia.org/resource/Prince_Philip,_Duke_of_Edinburgh"}, 
{"score": 0,027138, "link": "http://dbpedia.org/resource/Angola"}, 
{"score": 0,027115, "link": "http://dbpedia.org/resource/Etymology"}, 
{"score": 0,027005, "link": "http://dbpedia.org/resource/United_Nations_Security_Council"}, 
{"score": 0,026904, "link": "http://dbpedia.org/resource/Janice_Long"}, 
{"score": 0,026759, "link": "http://dbpedia.org/resource/Temperature"}, 
{"score": 0,026332, "link": "http://dbpedia.org/resource/Down_syndrome"}, 
{"score": 0,026160, "link": "http://dbpedia.org/resource/Grand_Slam_(tennis)"}, 
{"score": 0,026094, "link": "http://dbpedia.org/resource/Train"}, 
{"score": 0,025943, "link": "http://dbpedia.org/resource/Portrait"}, 
{"score": 0,025865, "link": "http://dbpedia.org/resource/Billy_Crystal"}, 
{"score": 0,025799, "link": "http://dbpedia.org/resource/Meaning_of_life"}, 
{"score": 0,025766, "link": "http://dbpedia.org/resource/Quebec"}, 
{"score": 0,025749, "link": "http://dbpedia.org/resource/Table_tennis"}, 
{"score": 0,025493, "link": "http://dbpedia.org/resource/Human_body"}, 
{"score": 0,025412, "link": "http://dbpedia.org/resource/Goodison_Park"}, 
{"score": 0,025321, "link": "http://dbpedia.org/resource/Ordination"}, 
{"score": 0,025245, "link": "http://dbpedia.org/resource/Thomas_More"}, 
{"score": 0,025243, "link": "http://dbpedia.org/resource/Far_East"}, 
{"score": 0,025209, "link": "http://dbpedia.org/resource/Volleyball"}, 
{"score": 0,024843, "link": "http://dbpedia.org/resource/Horse_breeding"}, 
{"score": 0,024831, "link": "http://dbpedia.org/resource/Movie_theater"}, 
{"score": 0,024715, "link": "http://dbpedia.org/resource/Trade"}, 
{"score": 0,024695, "link": "http://dbpedia.org/resource/Funeral"}, 
{"score": 0,024487, "link": "http://dbpedia.org/resource/Oregon"}, 
{"score": 0,024425, "link": "http://dbpedia.org/resource/Thought"}, 
{"score": 0,024413, "link": "http://dbpedia.org/resource/Bone_fracture"}, 
{"score": 0,024333, "link": "http://dbpedia.org/resource/Sperm"}, 
{"score": 0,024289, "link": "http://dbpedia.org/resource/Big_Bang"}, 
{"score": 0,024054, "link": "http://dbpedia.org/resource/Lecture"}, 
{"score": 0,023844, "link": "http://dbpedia.org/resource/Cricket"}, 
{"score": 0,023651, "link": "http://dbpedia.org/resource/Centenarian"}, 
{"score": 0,023461, "link": "http://dbpedia.org/resource/Dark_Ages_(historiography)"}, 
{"score": 0,023423, "link": "http://dbpedia.org/resource/Embroidery"}, 
{"score": 0,023136, "link": "http://dbpedia.org/resource/Mass_production"}, 
{"score": 0,023021, "link": "http://dbpedia.org/resource/Patient"}, 
{"score": 0,022996, "link": "http://dbpedia.org/resource/Filling_station"}, 
{"score": 0,022880, "link": "http://dbpedia.org/resource/Consumer"}, 
{"score": 0,022757, "link": "http://dbpedia.org/resource/Member_of_Parliament"}, 
{"score": 0,022386, "link": "http://dbpedia.org/resource/Shed_Seven"}, 
{"score": 0,021989, "link": "http://dbpedia.org/resource/Exploration"}, 
{"score": 0,021773, "link": "http://dbpedia.org/resource/Walking"}, 
{"score": 0,021466, "link": "http://dbpedia.org/resource/Steeplechase"}, 
{"score": 0,021277, "link": "http://dbpedia.org/resource/Rail_transport"}, 
{"score": 0,021013, "link": "http://dbpedia.org/resource/One-person_show"}, 
{"score": 0,020956, "link": "http://dbpedia.org/resource/Salary"}, 
{"score": 0,020777, "link": "http://dbpedia.org/resource/Scenic_design"}, 
{"score": 0,020648, "link": "http://dbpedia.org/resource/Somalia"}, 
{"score": 0,020462, "link": "http://dbpedia.org/resource/Gonorrhea"}, 
{"score": 0,020422, "link": "http://dbpedia.org/resource/Vertebral_column"}, 
{"score": 0,020361, "link": "http://dbpedia.org/resource/Allies"}, 
{"score": 0,020228, "link": "http://dbpedia.org/resource/Flower"}, 
{"score": 0,019908, "link": "http://dbpedia.org/resource/Canoeing"}, 
{"score": 0,019734, "link": "http://dbpedia.org/resource/Mail"}, 
{"score": 0,018679, "link": "http://dbpedia.org/resource/Magnet"}, 
{"score": 0,018586, "link": "http://dbpedia.org/resource/Driver's_license"}, 
{"score": 0,018467, "link": "http://dbpedia.org/resource/Beverly_Sills"}, 
{"score": 0,018443, "link": "http://dbpedia.org/resource/Irish_Rebellion_of_1798"}, 
{"score": 0,018148, "link": "http://dbpedia.org/resource/School_bus"}, 
{"score": 0,017708, "link": "http://dbpedia.org/resource/Eye"}, 
{"score": 0,017522, "link": "http://dbpedia.org/resource/Damages"}, 
{"score": 0,016872, "link": "http://dbpedia.org/resource/Twenty20"}, 
{"score": 0,016522, "link": "http://dbpedia.org/resource/George_Shearing"}, 
{"score": 0,016508, "link": "http://dbpedia.org/resource/Involuntary_commitment"}, 
{"score": 0,016492, "link": "http://dbpedia.org/resource/Last_glacial_period"}, 
{"score": 0,016378, "link": "http://dbpedia.org/resource/Telecommunication"}, 
{"score": 0,015764, "link": "http://dbpedia.org/resource/Rugby_sevens"}, 
{"score": 0,015540, "link": "http://dbpedia.org/resource/Periodic_table"}, 
{"score": 0,015445, "link": "http://dbpedia.org/resource/Technician"}, 
{"score": 0,015317, "link": "http://dbpedia.org/resource/Train_station"}, 
{"score": 0,014978, "link": "http://dbpedia.org/resource/Angle"}, 
{"score": 0,014931, "link": "http://dbpedia.org/resource/Surrender_of_Japan"}, 
{"score": 0,014500, "link": "http://dbpedia.org/resource/The_Few"}, 
{"score": 0,013927, "link": "http://dbpedia.org/resource/Foot"}, 
{"score": 0,011517, "link": "http://dbpedia.org/resource/Ralf_Little"}, 
{"score": 0,011481, "link": "http://dbpedia.org/resource/Fast_bowling"}, 
{"score": 0,011377, "link": "http://dbpedia.org/resource/Nuclear_fusion"}, 
{"score": 0,009507, "link": "http://dbpedia.org/resource/Nine_(musical)"}, 
{"score": 0,009367, "link": "http://dbpedia.org/resource/20th_century"}, 
{"score": 0,008764, "link": "http://dbpedia.org/resource/Minute_of_arc"}, 
{"score": 0,008740, "link": "http://dbpedia.org/resource/Thame"}, 
{"score": 0,006176, "link": "http://dbpedia.org/resource/Rocket_launch"}, 
{"score": 0,005465, "link": "http://dbpedia.org/resource/Talking_animal"}, 
{"score": 0,004520, "link": "http://dbpedia.org/resource/Lineman_(occupation)"}, 
{"score": 0,002999, "link": "http://dbpedia.org/resource/Pointing_breed"}, 
{"score": 0,002514, "link": "http://dbpedia.org/resource/24_Hours_(TV_series)"}]
