[{"score": 0,216042, "link": "http://dbpedia.org/resource/Snake"}, 
{"score": 0,120114, "link": "http://dbpedia.org/resource/Cursorial"}, 
{"score": 0,116053, "link": "http://dbpedia.org/resource/Sense"}, 
{"score": 0,115484, "link": "http://dbpedia.org/resource/Fish"}, 
{"score": 0,108641, "link": "http://dbpedia.org/resource/Lion"}, 
{"score": 0,106720, "link": "http://dbpedia.org/resource/Earth"}, 
{"score": 0,103636, "link": "http://dbpedia.org/resource/Temperature"}, 
{"score": 0,100990, "link": "http://dbpedia.org/resource/Afterlife"}, 
{"score": 0,098827, "link": "http://dbpedia.org/resource/Acceleration"}, 
{"score": 0,094498, "link": "http://dbpedia.org/resource/Ultrasound"}, 
{"score": 0,093954, "link": "http://dbpedia.org/resource/Public_Enemy_(group)"}, 
{"score": 0,092606, "link": "http://dbpedia.org/resource/Male"}, 
{"score": 0,092108, "link": "http://dbpedia.org/resource/Puberty"}, 
{"score": 0,091001, "link": "http://dbpedia.org/resource/Livestock"}, 
{"score": 0,090672, "link": "http://dbpedia.org/resource/Great_Britain"}, 
{"score": 0,089179, "link": "http://dbpedia.org/resource/Matter"}, 
{"score": 0,088820, "link": "http://dbpedia.org/resource/Monster"}, 
{"score": 0,087321, "link": "http://dbpedia.org/resource/Lead"}, 
{"score": 0,086695, "link": "http://dbpedia.org/resource/Special_effect"}, 
{"score": 0,085960, "link": "http://dbpedia.org/resource/Pregnancy"}, 
{"score": 0,082413, "link": "http://dbpedia.org/resource/Japan"}, 
{"score": 0,081426, "link": "http://dbpedia.org/resource/Aztec"}, 
{"score": 0,080209, "link": "http://dbpedia.org/resource/Tumor"}, 
{"score": 0,079223, "link": "http://dbpedia.org/resource/Orgasm"}, 
{"score": 0,079220, "link": "http://dbpedia.org/resource/God"}, 
{"score": 0,078441, "link": "http://dbpedia.org/resource/Immune_system"}, 
{"score": 0,077920, "link": "http://dbpedia.org/resource/Universe"}, 
{"score": 0,077394, "link": "http://dbpedia.org/resource/Indigenous_peoples_of_the_Americas"}, 
{"score": 0,076989, "link": "http://dbpedia.org/resource/Artificial_intelligence"}, 
{"score": 0,076977, "link": "http://dbpedia.org/resource/Lake"}, 
{"score": 0,076315, "link": "http://dbpedia.org/resource/Virtual_reality"}, 
{"score": 0,076125, "link": "http://dbpedia.org/resource/War"}, 
{"score": 0,075357, "link": "http://dbpedia.org/resource/Canada"}, 
{"score": 0,074749, "link": "http://dbpedia.org/resource/James_Bond"}, 
{"score": 0,074198, "link": "http://dbpedia.org/resource/Bone_fracture"}, 
{"score": 0,072167, "link": "http://dbpedia.org/resource/The_Wall_Street_Journal"}, 
{"score": 0,069712, "link": "http://dbpedia.org/resource/London"}, 
{"score": 0,069579, "link": "http://dbpedia.org/resource/Mask"}, 
{"score": 0,069454, "link": "http://dbpedia.org/resource/Single_(music)"}, 
{"score": 0,067939, "link": "http://dbpedia.org/resource/Facebook"}, 
{"score": 0,067479, "link": "http://dbpedia.org/resource/Art"}, 
{"score": 0,067166, "link": "http://dbpedia.org/resource/World_War_II"}, 
{"score": 0,066526, "link": "http://dbpedia.org/resource/Los_Angeles"}, 
{"score": 0,066087, "link": "http://dbpedia.org/resource/Commerce"}, 
{"score": 0,066004, "link": "http://dbpedia.org/resource/Austria"}, 
{"score": 0,061677, "link": "http://dbpedia.org/resource/Berlin"}, 
{"score": 0,061326, "link": "http://dbpedia.org/resource/Will_Smith"}, 
{"score": 0,061035, "link": "http://dbpedia.org/resource/Bavaria"}, 
{"score": 0,059943, "link": "http://dbpedia.org/resource/Tanzania"}, 
{"score": 0,059611, "link": "http://dbpedia.org/resource/Angola"}, 
{"score": 0,058928, "link": "http://dbpedia.org/resource/Brian_May"}, 
{"score": 0,058770, "link": "http://dbpedia.org/resource/Oregon"}, 
{"score": 0,057748, "link": "http://dbpedia.org/resource/Recreational_drug_use"}, 
{"score": 0,057679, "link": "http://dbpedia.org/resource/Leukemia"}, 
{"score": 0,057085, "link": "http://dbpedia.org/resource/Embroidery"}, 
{"score": 0,055196, "link": "http://dbpedia.org/resource/Tournament"}, 
{"score": 0,053559, "link": "http://dbpedia.org/resource/Road"}, 
{"score": 0,052106, "link": "http://dbpedia.org/resource/Dye"}, 
{"score": 0,050496, "link": "http://dbpedia.org/resource/Etymology"}, 
{"score": 0,050228, "link": "http://dbpedia.org/resource/Cartography"}, 
{"score": 0,048656, "link": "http://dbpedia.org/resource/Napoleonic_Wars"}, 
{"score": 0,047963, "link": "http://dbpedia.org/resource/Border"}, 
{"score": 0,044398, "link": "http://dbpedia.org/resource/We_Are_Scientists"}, 
{"score": 0,044371, "link": "http://dbpedia.org/resource/Friendship"}, 
{"score": 0,042896, "link": "http://dbpedia.org/resource/Bloomsbury"}, 
{"score": 0,042809, "link": "http://dbpedia.org/resource/Nature_reserve"}, 
{"score": 0,041029, "link": "http://dbpedia.org/resource/Sales"}, 
{"score": 0,040774, "link": "http://dbpedia.org/resource/Accountant"}, 
{"score": 0,039113, "link": "http://dbpedia.org/resource/Alan_Lomax"}, 
{"score": 0,034653, "link": "http://dbpedia.org/resource/LGBT_social_movements"}, 
{"score": 0,027887, "link": "http://dbpedia.org/resource/Street_dance"}, 
{"score": 0,027290, "link": "http://dbpedia.org/resource/Conducting"}, 
{"score": 0,022469, "link": "http://dbpedia.org/resource/Irish_Rebellion_of_1798"}, 
{"score": 0,018005, "link": "http://dbpedia.org/resource/Moment_of_silence"}, 
{"score": 0,011812, "link": "http://dbpedia.org/resource/Rocket_launch"}]
