[{"score": 0,112083, "link": "http://dbpedia.org/resource/Hijab"}, 
{"score": 0,099066, "link": "http://dbpedia.org/resource/Immigration"}, 
{"score": 0,093328, "link": "http://dbpedia.org/resource/Gender_identity"}, 
{"score": 0,091166, "link": "http://dbpedia.org/resource/Prostitution"}, 
{"score": 0,089549, "link": "http://dbpedia.org/resource/Police"}, 
{"score": 0,087700, "link": "http://dbpedia.org/resource/Racial_segregation"}, 
{"score": 0,086932, "link": "http://dbpedia.org/resource/Mexico_City"}, 
{"score": 0,085356, "link": "http://dbpedia.org/resource/New_York_City"}, 
{"score": 0,084795, "link": "http://dbpedia.org/resource/African_American"}, 
{"score": 0,080891, "link": "http://dbpedia.org/resource/Prejudice"}, 
{"score": 0,078526, "link": "http://dbpedia.org/resource/Pseudonym"}, 
{"score": 0,078512, "link": "http://dbpedia.org/resource/George_W._Bush"}, 
{"score": 0,077712, "link": "http://dbpedia.org/resource/Spanish_language"}, 
{"score": 0,077507, "link": "http://dbpedia.org/resource/Newspaper"}, 
{"score": 0,077358, "link": "http://dbpedia.org/resource/Great_Depression"}, 
{"score": 0,077226, "link": "http://dbpedia.org/resource/Overweight"}, 
{"score": 0,077175, "link": "http://dbpedia.org/resource/Jesus"}, 
{"score": 0,075669, "link": "http://dbpedia.org/resource/Brothel"}, 
{"score": 0,075210, "link": "http://dbpedia.org/resource/Missouri"}, 
{"score": 0,074997, "link": "http://dbpedia.org/resource/Facebook"}, 
{"score": 0,073887, "link": "http://dbpedia.org/resource/God"}, 
{"score": 0,073660, "link": "http://dbpedia.org/resource/Murder"}, 
{"score": 0,072796, "link": "http://dbpedia.org/resource/Europe"}, 
{"score": 0,071928, "link": "http://dbpedia.org/resource/Civil_service"}, 
{"score": 0,071814, "link": "http://dbpedia.org/resource/Justice"}, 
{"score": 0,071154, "link": "http://dbpedia.org/resource/Sex_and_the_City"}, 
{"score": 0,071113, "link": "http://dbpedia.org/resource/Africa"}, 
{"score": 0,070790, "link": "http://dbpedia.org/resource/North_Carolina"}, 
{"score": 0,070642, "link": "http://dbpedia.org/resource/Southern_California"}, 
{"score": 0,070567, "link": "http://dbpedia.org/resource/Education"}, 
{"score": 0,070338, "link": "http://dbpedia.org/resource/The_Wall_Street_Journal"}, 
{"score": 0,069775, "link": "http://dbpedia.org/resource/Kidnapping"}, 
{"score": 0,069636, "link": "http://dbpedia.org/resource/Pakistan"}, 
{"score": 0,069504, "link": "http://dbpedia.org/resource/Corporation"}, 
{"score": 0,069351, "link": "http://dbpedia.org/resource/Strip_club"}, 
{"score": 0,069192, "link": "http://dbpedia.org/resource/Demonstration_(people)"}, 
{"score": 0,068969, "link": "http://dbpedia.org/resource/Canada"}, 
{"score": 0,068924, "link": "http://dbpedia.org/resource/Vietnam_War"}, 
{"score": 0,068752, "link": "http://dbpedia.org/resource/Gender"}, 
{"score": 0,068261, "link": "http://dbpedia.org/resource/Israel"}, 
{"score": 0,068223, "link": "http://dbpedia.org/resource/Egypt"}, 
{"score": 0,067931, "link": "http://dbpedia.org/resource/Election"}, 
{"score": 0,067927, "link": "http://dbpedia.org/resource/Catholicism"}, 
{"score": 0,067475, "link": "http://dbpedia.org/resource/Japan"}, 
{"score": 0,067063, "link": "http://dbpedia.org/resource/Genealogy"}, 
{"score": 0,067040, "link": "http://dbpedia.org/resource/Liberalism"}, 
{"score": 0,066963, "link": "http://dbpedia.org/resource/Baseball"}, 
{"score": 0,066909, "link": "http://dbpedia.org/resource/Middle_Ages"}, 
{"score": 0,066606, "link": "http://dbpedia.org/resource/Austria"}, 
{"score": 0,066534, "link": "http://dbpedia.org/resource/Party"}, 
{"score": 0,066207, "link": "http://dbpedia.org/resource/Hell"}, 
{"score": 0,066065, "link": "http://dbpedia.org/resource/War"}, 
{"score": 0,065988, "link": "http://dbpedia.org/resource/Dominican_Republic"}, 
{"score": 0,065244, "link": "http://dbpedia.org/resource/Wealth"}, 
{"score": 0,065221, "link": "http://dbpedia.org/resource/Elephant"}, 
{"score": 0,064910, "link": "http://dbpedia.org/resource/World_War_II"}, 
{"score": 0,064710, "link": "http://dbpedia.org/resource/Cover_version"}, 
{"score": 0,064585, "link": "http://dbpedia.org/resource/Altitude"}, 
{"score": 0,064494, "link": "http://dbpedia.org/resource/Landfill"}, 
{"score": 0,064489, "link": "http://dbpedia.org/resource/Funeral"}, 
{"score": 0,064162, "link": "http://dbpedia.org/resource/Physician"}, 
{"score": 0,063796, "link": "http://dbpedia.org/resource/World_War_I"}, 
{"score": 0,062407, "link": "http://dbpedia.org/resource/Nice"}, 
{"score": 0,062399, "link": "http://dbpedia.org/resource/Parody"}, 
{"score": 0,062394, "link": "http://dbpedia.org/resource/Maine"}, 
{"score": 0,062374, "link": "http://dbpedia.org/resource/Vancouver"}, 
{"score": 0,062025, "link": "http://dbpedia.org/resource/Leukemia"}, 
{"score": 0,061534, "link": "http://dbpedia.org/resource/Forced_marriage"}, 
{"score": 0,061243, "link": "http://dbpedia.org/resource/Roman_Empire"}, 
{"score": 0,060031, "link": "http://dbpedia.org/resource/Exile"}, 
{"score": 0,059959, "link": "http://dbpedia.org/resource/Hot_dog"}, 
{"score": 0,059638, "link": "http://dbpedia.org/resource/Audition"}, 
{"score": 0,059589, "link": "http://dbpedia.org/resource/Irish_Rebellion_of_1798"}, 
{"score": 0,059529, "link": "http://dbpedia.org/resource/Belgium"}, 
{"score": 0,058929, "link": "http://dbpedia.org/resource/Embroidery"}, 
{"score": 0,058746, "link": "http://dbpedia.org/resource/DNA"}, 
{"score": 0,058454, "link": "http://dbpedia.org/resource/Highway"}, 
{"score": 0,057934, "link": "http://dbpedia.org/resource/Swimming_pool"}, 
{"score": 0,057924, "link": "http://dbpedia.org/resource/Tax"}, 
{"score": 0,057698, "link": "http://dbpedia.org/resource/Golf"}, 
{"score": 0,057646, "link": "http://dbpedia.org/resource/Developing_country"}, 
{"score": 0,057556, "link": "http://dbpedia.org/resource/Bankruptcy"}, 
{"score": 0,057076, "link": "http://dbpedia.org/resource/Single_(music)"}, 
{"score": 0,056644, "link": "http://dbpedia.org/resource/The_Who"}, 
{"score": 0,056199, "link": "http://dbpedia.org/resource/Communication"}, 
{"score": 0,056172, "link": "http://dbpedia.org/resource/Bowling"}, 
{"score": 0,056061, "link": "http://dbpedia.org/resource/Brand"}, 
{"score": 0,055884, "link": "http://dbpedia.org/resource/Apocalypse"}, 
{"score": 0,055677, "link": "http://dbpedia.org/resource/Telepathy"}, 
{"score": 0,055252, "link": "http://dbpedia.org/resource/Sculpture"}, 
{"score": 0,055118, "link": "http://dbpedia.org/resource/Support_group"}, 
{"score": 0,054951, "link": "http://dbpedia.org/resource/Old_Testament"}, 
{"score": 0,054926, "link": "http://dbpedia.org/resource/Metropolitan_Police_Service"}, 
{"score": 0,054720, "link": "http://dbpedia.org/resource/Cannibalism"}, 
{"score": 0,054553, "link": "http://dbpedia.org/resource/Outing"}, 
{"score": 0,054511, "link": "http://dbpedia.org/resource/Norway"}, 
{"score": 0,054478, "link": "http://dbpedia.org/resource/Debate"}, 
{"score": 0,054410, "link": "http://dbpedia.org/resource/Prayer"}, 
{"score": 0,054402, "link": "http://dbpedia.org/resource/Angola"}, 
{"score": 0,054214, "link": "http://dbpedia.org/resource/Napoleonic_Wars"}, 
{"score": 0,053633, "link": "http://dbpedia.org/resource/Supernatural"}, 
{"score": 0,053534, "link": "http://dbpedia.org/resource/Bavaria"}, 
{"score": 0,053161, "link": "http://dbpedia.org/resource/Uttar_Pradesh"}, 
{"score": 0,053043, "link": "http://dbpedia.org/resource/Parliament_of_the_United_Kingdom"}, 
{"score": 0,053024, "link": "http://dbpedia.org/resource/Performance"}, 
{"score": 0,052919, "link": "http://dbpedia.org/resource/Free_will"}, 
{"score": 0,052140, "link": "http://dbpedia.org/resource/Bosnian_War"}, 
{"score": 0,052140, "link": "http://dbpedia.org/resource/Property"}, 
{"score": 0,051808, "link": "http://dbpedia.org/resource/Big_band"}, 
{"score": 0,051250, "link": "http://dbpedia.org/resource/Bagpipes"}, 
{"score": 0,051247, "link": "http://dbpedia.org/resource/University_of_Oxford"}, 
{"score": 0,051222, "link": "http://dbpedia.org/resource/Viral_video"}, 
{"score": 0,051160, "link": "http://dbpedia.org/resource/Solitude"}, 
{"score": 0,050526, "link": "http://dbpedia.org/resource/Iceland"}, 
{"score": 0,050189, "link": "http://dbpedia.org/resource/Domestic_worker"}, 
{"score": 0,050089, "link": "http://dbpedia.org/resource/Taoism"}, 
{"score": 0,049737, "link": "http://dbpedia.org/resource/The_Specials"}, 
{"score": 0,049716, "link": "http://dbpedia.org/resource/Norse_mythology"}, 
{"score": 0,049577, "link": "http://dbpedia.org/resource/Shopping_mall"}, 
{"score": 0,049406, "link": "http://dbpedia.org/resource/Holy_See"}, 
{"score": 0,049352, "link": "http://dbpedia.org/resource/Down_syndrome"}, 
{"score": 0,048922, "link": "http://dbpedia.org/resource/Reality"}, 
{"score": 0,048746, "link": "http://dbpedia.org/resource/Actor"}, 
{"score": 0,048620, "link": "http://dbpedia.org/resource/Freddie_Mercury"}, 
{"score": 0,048542, "link": "http://dbpedia.org/resource/Anger"}, 
{"score": 0,047775, "link": "http://dbpedia.org/resource/Volleyball"}, 
{"score": 0,047661, "link": "http://dbpedia.org/resource/England_national_football_team"}, 
{"score": 0,047631, "link": "http://dbpedia.org/resource/American_football"}, 
{"score": 0,047524, "link": "http://dbpedia.org/resource/IPhone"}, 
{"score": 0,047449, "link": "http://dbpedia.org/resource/Etymology"}, 
{"score": 0,046731, "link": "http://dbpedia.org/resource/Derby"}, 
{"score": 0,046478, "link": "http://dbpedia.org/resource/Speech"}, 
{"score": 0,046443, "link": "http://dbpedia.org/resource/Artificial_intelligence"}, 
{"score": 0,046262, "link": "http://dbpedia.org/resource/Lumber"}, 
{"score": 0,045852, "link": "http://dbpedia.org/resource/Renting"}, 
{"score": 0,045778, "link": "http://dbpedia.org/resource/Alley"}, 
{"score": 0,045105, "link": "http://dbpedia.org/resource/Death_threat"}, 
{"score": 0,044666, "link": "http://dbpedia.org/resource/Hygiene"}, 
{"score": 0,044400, "link": "http://dbpedia.org/resource/Forestry"}, 
{"score": 0,044179, "link": "http://dbpedia.org/resource/Bloomsbury"}, 
{"score": 0,043743, "link": "http://dbpedia.org/resource/Axe"}, 
{"score": 0,043699, "link": "http://dbpedia.org/resource/Musical_ensemble"}, 
{"score": 0,043106, "link": "http://dbpedia.org/resource/Town"}, 
{"score": 0,043101, "link": "http://dbpedia.org/resource/Film_producer"}, 
{"score": 0,042613, "link": "http://dbpedia.org/resource/Ownership"}, 
{"score": 0,041497, "link": "http://dbpedia.org/resource/Stepfamily"}, 
{"score": 0,040893, "link": "http://dbpedia.org/resource/Intimidation"}, 
{"score": 0,040612, "link": "http://dbpedia.org/resource/Light"}, 
{"score": 0,039824, "link": "http://dbpedia.org/resource/Royal_Academy"}, 
{"score": 0,038927, "link": "http://dbpedia.org/resource/Hearing_(sense)"}, 
{"score": 0,038774, "link": "http://dbpedia.org/resource/Hiking"}, 
{"score": 0,038312, "link": "http://dbpedia.org/resource/May_1968_in_France"}, 
{"score": 0,037986, "link": "http://dbpedia.org/resource/Haunted_house"}, 
{"score": 0,034831, "link": "http://dbpedia.org/resource/Child_abandonment"}, 
{"score": 0,034319, "link": "http://dbpedia.org/resource/Periodic_table"}, 
{"score": 0,034026, "link": "http://dbpedia.org/resource/String_instrument"}, 
{"score": 0,033777, "link": "http://dbpedia.org/resource/Thomas_More"}, 
{"score": 0,031673, "link": "http://dbpedia.org/resource/Temperature"}, 
{"score": 0,031601, "link": "http://dbpedia.org/resource/Cruise_missile"}, 
{"score": 0,029649, "link": "http://dbpedia.org/resource/Driving"}, 
{"score": 0,027387, "link": "http://dbpedia.org/resource/Chemical_industry"}, 
{"score": 0,026355, "link": "http://dbpedia.org/resource/Sexual_attraction"}, 
{"score": 0,025357, "link": "http://dbpedia.org/resource/Banknote"}, 
{"score": 0,024374, "link": "http://dbpedia.org/resource/Nine_(musical)"}, 
{"score": 0,024147, "link": "http://dbpedia.org/resource/1980s_in_music"}, 
{"score": 0,023341, "link": "http://dbpedia.org/resource/We_Are_Scientists"}, 
{"score": 0,023077, "link": "http://dbpedia.org/resource/Holism"}, 
{"score": 0,022973, "link": "http://dbpedia.org/resource/Habitat"}, 
{"score": 0,021743, "link": "http://dbpedia.org/resource/Berwick-upon-Tweed"}, 
{"score": 0,020084, "link": "http://dbpedia.org/resource/William_Pitt_the_Younger"}, 
{"score": 0,016127, "link": "http://dbpedia.org/resource/Subtraction"}, 
{"score": 0,015961, "link": "http://dbpedia.org/resource/Bound_(film)"}, 
{"score": 0,015547, "link": "http://dbpedia.org/resource/20th_century"}, 
{"score": 0,011668, "link": "http://dbpedia.org/resource/1970s_in_music"}]
