[{"score": 0,341588, "link": "http://dbpedia.org/resource/Orthodox_Judaism"}, 
{"score": 0,268694, "link": "http://dbpedia.org/resource/Judaism"}, 
{"score": 0,196305, "link": "http://dbpedia.org/resource/Secularism"}, 
{"score": 0,167852, "link": "http://dbpedia.org/resource/God"}, 
{"score": 0,162335, "link": "http://dbpedia.org/resource/Muslim"}, 
{"score": 0,145771, "link": "http://dbpedia.org/resource/The_Holocaust"}, 
{"score": 0,142476, "link": "http://dbpedia.org/resource/Jesus"}, 
{"score": 0,133643, "link": "http://dbpedia.org/resource/Book_of_Genesis"}, 
{"score": 0,126521, "link": "http://dbpedia.org/resource/Cultural_Judaism"}, 
{"score": 0,120575, "link": "http://dbpedia.org/resource/Cultural_identity"}, 
{"score": 0,113008, "link": "http://dbpedia.org/resource/Israel"}, 
{"score": 0,112954, "link": "http://dbpedia.org/resource/Mosque"}, 
{"score": 0,111828, "link": "http://dbpedia.org/resource/Tradition"}, 
{"score": 0,111109, "link": "http://dbpedia.org/resource/Free_will"}, 
{"score": 0,107962, "link": "http://dbpedia.org/resource/Afterlife"}, 
{"score": 0,103411, "link": "http://dbpedia.org/resource/New_Testament"}, 
{"score": 0,102592, "link": "http://dbpedia.org/resource/Mecca"}, 
{"score": 0,098995, "link": "http://dbpedia.org/resource/Hell"}, 
{"score": 0,098748, "link": "http://dbpedia.org/resource/Taoism"}, 
{"score": 0,094460, "link": "http://dbpedia.org/resource/Belief"}, 
{"score": 0,093743, "link": "http://dbpedia.org/resource/Dualism"}, 
{"score": 0,091088, "link": "http://dbpedia.org/resource/Middle_Ages"}, 
{"score": 0,090526, "link": "http://dbpedia.org/resource/Culture"}, 
{"score": 0,088771, "link": "http://dbpedia.org/resource/Genocide"}, 
{"score": 0,084489, "link": "http://dbpedia.org/resource/Meaning_of_life"}, 
{"score": 0,080832, "link": "http://dbpedia.org/resource/Caste"}, 
{"score": 0,080778, "link": "http://dbpedia.org/resource/German_language"}, 
{"score": 0,079412, "link": "http://dbpedia.org/resource/Belarus"}, 
{"score": 0,075628, "link": "http://dbpedia.org/resource/Religious_festival"}, 
{"score": 0,075411, "link": "http://dbpedia.org/resource/Ancient_Greece"}, 
{"score": 0,073423, "link": "http://dbpedia.org/resource/The_New_York_Times"}, 
{"score": 0,073321, "link": "http://dbpedia.org/resource/Holy_See"}, 
{"score": 0,072146, "link": "http://dbpedia.org/resource/Psychoanalysis"}, 
{"score": 0,070531, "link": "http://dbpedia.org/resource/History"}, 
{"score": 0,070325, "link": "http://dbpedia.org/resource/Lecture"}, 
{"score": 0,070032, "link": "http://dbpedia.org/resource/Academia"}, 
{"score": 0,069853, "link": "http://dbpedia.org/resource/Alexander_the_Great"}, 
{"score": 0,069678, "link": "http://dbpedia.org/resource/Poetry"}, 
{"score": 0,068937, "link": "http://dbpedia.org/resource/Right-wing_politics"}, 
{"score": 0,068680, "link": "http://dbpedia.org/resource/British_Empire"}, 
{"score": 0,068663, "link": "http://dbpedia.org/resource/Conspiracy_theory"}, 
{"score": 0,068524, "link": "http://dbpedia.org/resource/Georgia_(country)"}, 
{"score": 0,068388, "link": "http://dbpedia.org/resource/Law"}, 
{"score": 0,068355, "link": "http://dbpedia.org/resource/Russian_Revolution"}, 
{"score": 0,067441, "link": "http://dbpedia.org/resource/Artisan"}, 
{"score": 0,067361, "link": "http://dbpedia.org/resource/Justice"}, 
{"score": 0,067129, "link": "http://dbpedia.org/resource/Death"}, 
{"score": 0,066967, "link": "http://dbpedia.org/resource/Translation"}, 
{"score": 0,066732, "link": "http://dbpedia.org/resource/October_Revolution"}, 
{"score": 0,066607, "link": "http://dbpedia.org/resource/Scientific_method"}, 
{"score": 0,066235, "link": "http://dbpedia.org/resource/Education"}, 
{"score": 0,064227, "link": "http://dbpedia.org/resource/War"}, 
{"score": 0,062877, "link": "http://dbpedia.org/resource/Sexual_intercourse"}, 
{"score": 0,062095, "link": "http://dbpedia.org/resource/Etymology"}, 
{"score": 0,062089, "link": "http://dbpedia.org/resource/Soviet_Union"}, 
{"score": 0,059945, "link": "http://dbpedia.org/resource/Racial_segregation"}, 
{"score": 0,059906, "link": "http://dbpedia.org/resource/Time"}, 
{"score": 0,059390, "link": "http://dbpedia.org/resource/Genealogy"}, 
{"score": 0,059066, "link": "http://dbpedia.org/resource/Cultural_heritage"}, 
{"score": 0,057137, "link": "http://dbpedia.org/resource/World_War_II"}, 
{"score": 0,056290, "link": "http://dbpedia.org/resource/French_language"}, 
{"score": 0,056287, "link": "http://dbpedia.org/resource/Pseudonym"}, 
{"score": 0,055844, "link": "http://dbpedia.org/resource/World_War_I"}, 
{"score": 0,055457, "link": "http://dbpedia.org/resource/Nazi_concentration_camps"}, 
{"score": 0,053687, "link": "http://dbpedia.org/resource/Dharma"}, 
{"score": 0,052803, "link": "http://dbpedia.org/resource/Popular_culture"}, 
{"score": 0,052396, "link": "http://dbpedia.org/resource/Human"}, 
{"score": 0,051880, "link": "http://dbpedia.org/resource/Slavery"}, 
{"score": 0,050019, "link": "http://dbpedia.org/resource/Jealousy"}, 
{"score": 0,050008, "link": "http://dbpedia.org/resource/Great_Depression"}, 
{"score": 0,049884, "link": "http://dbpedia.org/resource/Shiva"}, 
{"score": 0,049384, "link": "http://dbpedia.org/resource/Friendship"}, 
{"score": 0,049020, "link": "http://dbpedia.org/resource/Wine"}, 
{"score": 0,048691, "link": "http://dbpedia.org/resource/Museum"}, 
{"score": 0,048491, "link": "http://dbpedia.org/resource/Human_migration"}, 
{"score": 0,048263, "link": "http://dbpedia.org/resource/Agriculture"}, 
{"score": 0,047786, "link": "http://dbpedia.org/resource/Newspaper"}, 
{"score": 0,047254, "link": "http://dbpedia.org/resource/Emotion"}, 
{"score": 0,047021, "link": "http://dbpedia.org/resource/Police"}, 
{"score": 0,046759, "link": "http://dbpedia.org/resource/Ghost"}, 
{"score": 0,046699, "link": "http://dbpedia.org/resource/Embroidery"}, 
{"score": 0,046442, "link": "http://dbpedia.org/resource/Uttar_Pradesh"}, 
{"score": 0,045915, "link": "http://dbpedia.org/resource/Tuberculosis"}, 
{"score": 0,045686, "link": "http://dbpedia.org/resource/Multiverse"}, 
{"score": 0,044638, "link": "http://dbpedia.org/resource/Bosnian_War"}, 
{"score": 0,043748, "link": "http://dbpedia.org/resource/George_W._Bush"}, 
{"score": 0,043747, "link": "http://dbpedia.org/resource/Theatre"}, 
{"score": 0,043677, "link": "http://dbpedia.org/resource/Japan"}, 
{"score": 0,043305, "link": "http://dbpedia.org/resource/Trade"}, 
{"score": 0,042941, "link": "http://dbpedia.org/resource/Academic_degree"}, 
{"score": 0,042367, "link": "http://dbpedia.org/resource/Opinion"}, 
{"score": 0,042174, "link": "http://dbpedia.org/resource/Money"}, 
{"score": 0,041024, "link": "http://dbpedia.org/resource/Speech"}, 
{"score": 0,040947, "link": "http://dbpedia.org/resource/Thought"}, 
{"score": 0,040632, "link": "http://dbpedia.org/resource/Gold"}, 
{"score": 0,039837, "link": "http://dbpedia.org/resource/Thomas_More"}, 
{"score": 0,039819, "link": "http://dbpedia.org/resource/Genre"}, 
{"score": 0,039642, "link": "http://dbpedia.org/resource/Natural_environment"}, 
{"score": 0,039151, "link": "http://dbpedia.org/resource/Kidnapping"}, 
{"score": 0,038846, "link": "http://dbpedia.org/resource/Lahore"}, 
{"score": 0,038606, "link": "http://dbpedia.org/resource/Number"}, 
{"score": 0,038176, "link": "http://dbpedia.org/resource/Sun_Yat-sen"}, 
{"score": 0,038111, "link": "http://dbpedia.org/resource/Napoleonic_Wars"}, 
{"score": 0,037829, "link": "http://dbpedia.org/resource/Philosophy_of_science"}, 
{"score": 0,037236, "link": "http://dbpedia.org/resource/Childbirth"}, 
{"score": 0,036303, "link": "http://dbpedia.org/resource/Nostalgia"}, 
{"score": 0,036107, "link": "http://dbpedia.org/resource/Broadway_theatre"}, 
{"score": 0,035602, "link": "http://dbpedia.org/resource/Advertising"}, 
{"score": 0,034876, "link": "http://dbpedia.org/resource/Moment_of_silence"}, 
{"score": 0,034636, "link": "http://dbpedia.org/resource/Malaysia"}, 
{"score": 0,034029, "link": "http://dbpedia.org/resource/Drawing"}, 
{"score": 0,033710, "link": "http://dbpedia.org/resource/Dominican_Republic"}, 
{"score": 0,033138, "link": "http://dbpedia.org/resource/Duel"}, 
{"score": 0,032707, "link": "http://dbpedia.org/resource/Werewolf"}, 
{"score": 0,032382, "link": "http://dbpedia.org/resource/Smoking"}, 
{"score": 0,031888, "link": "http://dbpedia.org/resource/Kabul"}, 
{"score": 0,031414, "link": "http://dbpedia.org/resource/Child_abandonment"}, 
{"score": 0,031295, "link": "http://dbpedia.org/resource/Genius"}, 
{"score": 0,031246, "link": "http://dbpedia.org/resource/Spring_(season)"}, 
{"score": 0,029986, "link": "http://dbpedia.org/resource/Fundraising"}, 
{"score": 0,029696, "link": "http://dbpedia.org/resource/Castle"}, 
{"score": 0,028778, "link": "http://dbpedia.org/resource/The_Doors"}, 
{"score": 0,028561, "link": "http://dbpedia.org/resource/Recreational_drug_use"}, 
{"score": 0,028497, "link": "http://dbpedia.org/resource/Christ_Church,_Oxford"}, 
{"score": 0,028211, "link": "http://dbpedia.org/resource/Maine"}, 
{"score": 0,027958, "link": "http://dbpedia.org/resource/Random_House"}, 
{"score": 0,027956, "link": "http://dbpedia.org/resource/Photography"}, 
{"score": 0,027757, "link": "http://dbpedia.org/resource/Real_property"}, 
{"score": 0,027658, "link": "http://dbpedia.org/resource/Pregnancy"}, 
{"score": 0,027107, "link": "http://dbpedia.org/resource/Intimidation"}, 
{"score": 0,027072, "link": "http://dbpedia.org/resource/Performance"}, 
{"score": 0,027041, "link": "http://dbpedia.org/resource/Bell_(instrument)"}, 
{"score": 0,026816, "link": "http://dbpedia.org/resource/Automobile"}, 
{"score": 0,026739, "link": "http://dbpedia.org/resource/Petroleum"}, 
{"score": 0,026702, "link": "http://dbpedia.org/resource/Beer"}, 
{"score": 0,026591, "link": "http://dbpedia.org/resource/Outing"}, 
{"score": 0,025955, "link": "http://dbpedia.org/resource/Rush_(band)"}, 
{"score": 0,025925, "link": "http://dbpedia.org/resource/Titan_(moon)"}, 
{"score": 0,025809, "link": "http://dbpedia.org/resource/Presenter"}, 
{"score": 0,025541, "link": "http://dbpedia.org/resource/Angola"}, 
{"score": 0,025369, "link": "http://dbpedia.org/resource/Listed_building"}, 
{"score": 0,025343, "link": "http://dbpedia.org/resource/Comic_book"}, 
{"score": 0,024469, "link": "http://dbpedia.org/resource/Foreign_and_Commonwealth_Office"}, 
{"score": 0,024388, "link": "http://dbpedia.org/resource/Wrestling"}, 
{"score": 0,024204, "link": "http://dbpedia.org/resource/Holism"}, 
{"score": 0,024021, "link": "http://dbpedia.org/resource/Orange_(fruit)"}, 
{"score": 0,023632, "link": "http://dbpedia.org/resource/Dwarfism"}, 
{"score": 0,023568, "link": "http://dbpedia.org/resource/Concert"}, 
{"score": 0,023544, "link": "http://dbpedia.org/resource/Eagle"}, 
{"score": 0,023022, "link": "http://dbpedia.org/resource/Steam_engine"}, 
{"score": 0,022895, "link": "http://dbpedia.org/resource/Salary"}, 
{"score": 0,022585, "link": "http://dbpedia.org/resource/Seoul"}, 
{"score": 0,022480, "link": "http://dbpedia.org/resource/Manga"}, 
{"score": 0,022082, "link": "http://dbpedia.org/resource/Paratrooper"}, 
{"score": 0,021911, "link": "http://dbpedia.org/resource/Cavalry"}, 
{"score": 0,021832, "link": "http://dbpedia.org/resource/Cover_version"}, 
{"score": 0,021137, "link": "http://dbpedia.org/resource/Sushi"}, 
{"score": 0,021015, "link": "http://dbpedia.org/resource/Oregon"}, 
{"score": 0,020671, "link": "http://dbpedia.org/resource/Brand"}, 
{"score": 0,020021, "link": "http://dbpedia.org/resource/Quotation"}, 
{"score": 0,018062, "link": "http://dbpedia.org/resource/River"}, 
{"score": 0,018025, "link": "http://dbpedia.org/resource/New_York_Yankees"}, 
{"score": 0,017958, "link": "http://dbpedia.org/resource/Freddie_Mercury"}, 
{"score": 0,017675, "link": "http://dbpedia.org/resource/Leukemia"}, 
{"score": 0,017343, "link": "http://dbpedia.org/resource/Sex_and_the_City"}, 
{"score": 0,017277, "link": "http://dbpedia.org/resource/Contentment"}, 
{"score": 0,016914, "link": "http://dbpedia.org/resource/Big_band"}, 
{"score": 0,016913, "link": "http://dbpedia.org/resource/Bridge"}, 
{"score": 0,016886, "link": "http://dbpedia.org/resource/New_York_City_Ballet"}, 
{"score": 0,016679, "link": "http://dbpedia.org/resource/Sperm"}, 
{"score": 0,016484, "link": "http://dbpedia.org/resource/Edward_Albee"}, 
{"score": 0,016297, "link": "http://dbpedia.org/resource/Orgasm"}, 
{"score": 0,015735, "link": "http://dbpedia.org/resource/Telegraphy"}, 
{"score": 0,015638, "link": "http://dbpedia.org/resource/Iain_Banks"}, 
{"score": 0,015478, "link": "http://dbpedia.org/resource/Swimming_pool"}, 
{"score": 0,015301, "link": "http://dbpedia.org/resource/Sean_Combs"}, 
{"score": 0,014593, "link": "http://dbpedia.org/resource/Soft_drink"}, 
{"score": 0,014406, "link": "http://dbpedia.org/resource/Bloomsbury"}, 
{"score": 0,013737, "link": "http://dbpedia.org/resource/Singing"}, 
{"score": 0,013292, "link": "http://dbpedia.org/resource/Telecommunication"}, 
{"score": 0,012804, "link": "http://dbpedia.org/resource/Spa"}, 
{"score": 0,012600, "link": "http://dbpedia.org/resource/Picnic"}, 
{"score": 0,012436, "link": "http://dbpedia.org/resource/Stonemasonry"}, 
{"score": 0,011967, "link": "http://dbpedia.org/resource/Ice"}, 
{"score": 0,011595, "link": "http://dbpedia.org/resource/The_Football_League"}, 
{"score": 0,011386, "link": "http://dbpedia.org/resource/Airliner"}, 
{"score": 0,011288, "link": "http://dbpedia.org/resource/Length"}, 
{"score": 0,011045, "link": "http://dbpedia.org/resource/Park_ranger"}, 
{"score": 0,010979, "link": "http://dbpedia.org/resource/Audio_engineering"}, 
{"score": 0,010641, "link": "http://dbpedia.org/resource/Irish_Rebellion_of_1798"}, 
{"score": 0,010477, "link": "http://dbpedia.org/resource/EverQuest"}, 
{"score": 0,009873, "link": "http://dbpedia.org/resource/Traffic_congestion"}, 
{"score": 0,009460, "link": "http://dbpedia.org/resource/Grenadier"}, 
{"score": 0,008605, "link": "http://dbpedia.org/resource/Scar"}, 
{"score": 0,008559, "link": "http://dbpedia.org/resource/Leech"}, 
{"score": 0,008359, "link": "http://dbpedia.org/resource/We_Are_Scientists"}, 
{"score": 0,007912, "link": "http://dbpedia.org/resource/Salisbury_Plain"}, 
{"score": 0,007752, "link": "http://dbpedia.org/resource/Republic_of_Ireland_national_football_team"}, 
{"score": 0,006354, "link": "http://dbpedia.org/resource/Collecting"}, 
{"score": 0,005968, "link": "http://dbpedia.org/resource/Introduced_species"}, 
{"score": 0,005639, "link": "http://dbpedia.org/resource/Minute_of_arc"}, 
{"score": 0,005099, "link": "http://dbpedia.org/resource/Twenty20"}, 
{"score": 0,004226, "link": "http://dbpedia.org/resource/Rugby_sevens"}, 
{"score": 0,004098, "link": "http://dbpedia.org/resource/Welding"}, 
{"score": 0,003729, "link": "http://dbpedia.org/resource/Apple_juice"}, 
{"score": 0,003703, "link": "http://dbpedia.org/resource/Inhaler"}, 
{"score": 0,003060, "link": "http://dbpedia.org/resource/Pooja_Shah"}, 
{"score": 0,001967, "link": "http://dbpedia.org/resource/Pointing_breed"}, 
{"score": 0,001963, "link": "http://dbpedia.org/resource/London_Grand_Prix"}]
