[{"score": 0,090784, "link": "http://dbpedia.org/resource/Christianity"}, 
{"score": 0,082229, "link": "http://dbpedia.org/resource/Buddhism"}, 
{"score": 0,077241, "link": "http://dbpedia.org/resource/Hospice"}, 
{"score": 0,076221, "link": "http://dbpedia.org/resource/Jesus"}, 
{"score": 0,073262, "link": "http://dbpedia.org/resource/God"}, 
{"score": 0,066294, "link": "http://dbpedia.org/resource/Tibetan_Buddhism"}, 
{"score": 0,063114, "link": "http://dbpedia.org/resource/Bipolar_disorder"}, 
{"score": 0,061028, "link": "http://dbpedia.org/resource/Hospital"}, 
{"score": 0,057122, "link": "http://dbpedia.org/resource/Homosexuality"}, 
{"score": 0,057082, "link": "http://dbpedia.org/resource/Death"}, 
{"score": 0,056711, "link": "http://dbpedia.org/resource/Coma"}, 
{"score": 0,055883, "link": "http://dbpedia.org/resource/Medicine"}, 
{"score": 0,055229, "link": "http://dbpedia.org/resource/Science"}, 
{"score": 0,054911, "link": "http://dbpedia.org/resource/Hell"}, 
{"score": 0,052759, "link": "http://dbpedia.org/resource/Zen"}, 
{"score": 0,052261, "link": "http://dbpedia.org/resource/Monk"}, 
{"score": 0,051705, "link": "http://dbpedia.org/resource/New_Testament"}, 
{"score": 0,051606, "link": "http://dbpedia.org/resource/Karma"}, 
{"score": 0,051433, "link": "http://dbpedia.org/resource/Paris"}, 
{"score": 0,051170, "link": "http://dbpedia.org/resource/Heaven"}, 
{"score": 0,050998, "link": "http://dbpedia.org/resource/Book"}, 
{"score": 0,050563, "link": "http://dbpedia.org/resource/Pregnancy"}, 
{"score": 0,050274, "link": "http://dbpedia.org/resource/Old_Testament"}, 
{"score": 0,049593, "link": "http://dbpedia.org/resource/Leukemia"}, 
{"score": 0,049066, "link": "http://dbpedia.org/resource/NASA"}, 
{"score": 0,048557, "link": "http://dbpedia.org/resource/The_Wall_Street_Journal"}, 
{"score": 0,047445, "link": "http://dbpedia.org/resource/Holy_See"}, 
{"score": 0,046966, "link": "http://dbpedia.org/resource/Israel"}, 
{"score": 0,046938, "link": "http://dbpedia.org/resource/World_War_II"}, 
{"score": 0,046604, "link": "http://dbpedia.org/resource/Japan"}, 
{"score": 0,045849, "link": "http://dbpedia.org/resource/Roman_Empire"}, 
{"score": 0,045843, "link": "http://dbpedia.org/resource/Folklore"}, 
{"score": 0,045729, "link": "http://dbpedia.org/resource/Facebook"}, 
{"score": 0,045510, "link": "http://dbpedia.org/resource/Adolf_Hitler"}, 
{"score": 0,045109, "link": "http://dbpedia.org/resource/Propaganda"}, 
{"score": 0,045002, "link": "http://dbpedia.org/resource/Order_of_the_British_Empire"}, 
{"score": 0,044158, "link": "http://dbpedia.org/resource/Vietnam_War"}, 
{"score": 0,044154, "link": "http://dbpedia.org/resource/Austria"}, 
{"score": 0,043683, "link": "http://dbpedia.org/resource/Newspaper"}, 
{"score": 0,043644, "link": "http://dbpedia.org/resource/Emotion"}, 
{"score": 0,043602, "link": "http://dbpedia.org/resource/Canada"}, 
{"score": 0,042823, "link": "http://dbpedia.org/resource/Pseudonym"}, 
{"score": 0,042816, "link": "http://dbpedia.org/resource/World_War_I"}, 
{"score": 0,042393, "link": "http://dbpedia.org/resource/Happiness"}, 
{"score": 0,042215, "link": "http://dbpedia.org/resource/Human"}, 
{"score": 0,041588, "link": "http://dbpedia.org/resource/Exile"}, 
{"score": 0,041336, "link": "http://dbpedia.org/resource/Journalism"}, 
{"score": 0,041291, "link": "http://dbpedia.org/resource/Game_show"}, 
{"score": 0,041075, "link": "http://dbpedia.org/resource/Eucharist"}, 
{"score": 0,040959, "link": "http://dbpedia.org/resource/Police_officer"}, 
{"score": 0,040555, "link": "http://dbpedia.org/resource/Ordination"}, 
{"score": 0,040351, "link": "http://dbpedia.org/resource/British_Empire"}, 
{"score": 0,040296, "link": "http://dbpedia.org/resource/Creativity"}, 
{"score": 0,039846, "link": "http://dbpedia.org/resource/World_Health_Organization"}, 
{"score": 0,039442, "link": "http://dbpedia.org/resource/Johnny_Depp"}, 
{"score": 0,039280, "link": "http://dbpedia.org/resource/Hong_Kong"}, 
{"score": 0,039203, "link": "http://dbpedia.org/resource/Bob_Hope"}, 
{"score": 0,038529, "link": "http://dbpedia.org/resource/Norway"}, 
{"score": 0,038484, "link": "http://dbpedia.org/resource/Dharma"}, 
{"score": 0,038479, "link": "http://dbpedia.org/resource/Speech"}, 
{"score": 0,037943, "link": "http://dbpedia.org/resource/Thought"}, 
{"score": 0,037759, "link": "http://dbpedia.org/resource/Sacrifice"}, 
{"score": 0,037466, "link": "http://dbpedia.org/resource/Pakistan"}, 
{"score": 0,037229, "link": "http://dbpedia.org/resource/Bodyguard"}, 
{"score": 0,036684, "link": "http://dbpedia.org/resource/Broadway_theatre"}, 
{"score": 0,036670, "link": "http://dbpedia.org/resource/Arctic"}, 
{"score": 0,036234, "link": "http://dbpedia.org/resource/Orgasm"}, 
{"score": 0,035941, "link": "http://dbpedia.org/resource/Court"}, 
{"score": 0,035212, "link": "http://dbpedia.org/resource/Justice"}, 
{"score": 0,035179, "link": "http://dbpedia.org/resource/Caregiver"}, 
{"score": 0,035171, "link": "http://dbpedia.org/resource/Black_comedy"}, 
{"score": 0,035042, "link": "http://dbpedia.org/resource/Parody"}, 
{"score": 0,034847, "link": "http://dbpedia.org/resource/Charity_(practice)"}, 
{"score": 0,034802, "link": "http://dbpedia.org/resource/Prohibition"}, 
{"score": 0,034251, "link": "http://dbpedia.org/resource/Hamlet"}, 
{"score": 0,034074, "link": "http://dbpedia.org/resource/Manhattan_Project"}, 
{"score": 0,033986, "link": "http://dbpedia.org/resource/Hypersexuality"}, 
{"score": 0,033808, "link": "http://dbpedia.org/resource/Inheritance"}, 
{"score": 0,033366, "link": "http://dbpedia.org/resource/Burglary"}, 
{"score": 0,032373, "link": "http://dbpedia.org/resource/Malaysia"}, 
{"score": 0,031864, "link": "http://dbpedia.org/resource/Castle"}, 
{"score": 0,031289, "link": "http://dbpedia.org/resource/Cover_version"}, 
{"score": 0,031133, "link": "http://dbpedia.org/resource/Oregon"}, 
{"score": 0,031091, "link": "http://dbpedia.org/resource/Public_Enemy_(group)"}, 
{"score": 0,030847, "link": "http://dbpedia.org/resource/Photography"}, 
{"score": 0,030327, "link": "http://dbpedia.org/resource/BBC_Three"}, 
{"score": 0,030007, "link": "http://dbpedia.org/resource/Fireworks"}, 
{"score": 0,029857, "link": "http://dbpedia.org/resource/Stepfamily"}, 
{"score": 0,029820, "link": "http://dbpedia.org/resource/Natural_selection"}, 
{"score": 0,029797, "link": "http://dbpedia.org/resource/Napoleonic_Wars"}, 
{"score": 0,029743, "link": "http://dbpedia.org/resource/Maine"}, 
{"score": 0,029388, "link": "http://dbpedia.org/resource/Musical_ensemble"}, 
{"score": 0,028178, "link": "http://dbpedia.org/resource/LGBT_social_movements"}, 
{"score": 0,027925, "link": "http://dbpedia.org/resource/New_York_Yankees"}, 
{"score": 0,027626, "link": "http://dbpedia.org/resource/Robbery"}, 
{"score": 0,027323, "link": "http://dbpedia.org/resource/Mask"}, 
{"score": 0,027174, "link": "http://dbpedia.org/resource/Etymology"}, 
{"score": 0,027084, "link": "http://dbpedia.org/resource/Tyra_Banks"}, 
{"score": 0,026618, "link": "http://dbpedia.org/resource/Ornithology"}, 
{"score": 0,026527, "link": "http://dbpedia.org/resource/Dominican_Republic"}, 
{"score": 0,026321, "link": "http://dbpedia.org/resource/Cell_(biology)"}, 
{"score": 0,026164, "link": "http://dbpedia.org/resource/Cricket"}, 
{"score": 0,025236, "link": "http://dbpedia.org/resource/Guyana"}, 
{"score": 0,025179, "link": "http://dbpedia.org/resource/Stupa"}, 
{"score": 0,025170, "link": "http://dbpedia.org/resource/The_Troubles"}, 
{"score": 0,024992, "link": "http://dbpedia.org/resource/Eton_College"}, 
{"score": 0,024557, "link": "http://dbpedia.org/resource/Angola"}, 
{"score": 0,024487, "link": "http://dbpedia.org/resource/Premier_League"}, 
{"score": 0,023914, "link": "http://dbpedia.org/resource/Review"}, 
{"score": 0,022681, "link": "http://dbpedia.org/resource/Potato"}, 
{"score": 0,022592, "link": "http://dbpedia.org/resource/We_Are_Scientists"}, 
{"score": 0,022133, "link": "http://dbpedia.org/resource/Finance"}, 
{"score": 0,022131, "link": "http://dbpedia.org/resource/Office"}, 
{"score": 0,021910, "link": "http://dbpedia.org/resource/Spa"}, 
{"score": 0,021523, "link": "http://dbpedia.org/resource/2009"}, 
{"score": 0,020453, "link": "http://dbpedia.org/resource/Trade"}, 
{"score": 0,019900, "link": "http://dbpedia.org/resource/Platinum"}, 
{"score": 0,018961, "link": "http://dbpedia.org/resource/Ralf_Little"}, 
{"score": 0,018919, "link": "http://dbpedia.org/resource/Clock"}, 
{"score": 0,017302, "link": "http://dbpedia.org/resource/Outfielder"}, 
{"score": 0,016427, "link": "http://dbpedia.org/resource/Darts"}, 
{"score": 0,016364, "link": "http://dbpedia.org/resource/Pete_Tong"}, 
{"score": 0,015007, "link": "http://dbpedia.org/resource/Odor"}, 
{"score": 0,014624, "link": "http://dbpedia.org/resource/How-to"}, 
{"score": 0,014282, "link": "http://dbpedia.org/resource/Goodison_Park"}, 
{"score": 0,013180, "link": "http://dbpedia.org/resource/Missing_person"}, 
{"score": 0,011779, "link": "http://dbpedia.org/resource/Thatching"}, 
{"score": 0,011053, "link": "http://dbpedia.org/resource/Weight"}, 
{"score": 0,010275, "link": "http://dbpedia.org/resource/Scottish_clan"}, 
{"score": 0,008897, "link": "http://dbpedia.org/resource/Ficus"}, 
{"score": 0,008063, "link": "http://dbpedia.org/resource/Glassblowing"}, 
{"score": 0,006824, "link": "http://dbpedia.org/resource/The_Few"}, 
{"score": 0,005128, "link": "http://dbpedia.org/resource/Trace_fossil"}, 
{"score": 0,004854, "link": "http://dbpedia.org/resource/Comfort_food"}, 
{"score": 0,002314, "link": "http://dbpedia.org/resource/Mollusca"}, 
{"score": 0,001233, "link": "http://dbpedia.org/resource/Whale_watching"}]
