[{"score": 0,130965, "link": "http://dbpedia.org/resource/Protestantism"}, 
{"score": 0,129538, "link": "http://dbpedia.org/resource/Christianity"}, 
{"score": 0,108000, "link": "http://dbpedia.org/resource/Western_Christianity"}, 
{"score": 0,107369, "link": "http://dbpedia.org/resource/Eastern_Orthodox_Church"}, 
{"score": 0,103667, "link": "http://dbpedia.org/resource/Eucharist"}, 
{"score": 0,099202, "link": "http://dbpedia.org/resource/East_Germany"}, 
{"score": 0,097755, "link": "http://dbpedia.org/resource/Animal_rights"}, 
{"score": 0,095109, "link": "http://dbpedia.org/resource/Human_rights"}, 
{"score": 0,086551, "link": "http://dbpedia.org/resource/God"}, 
{"score": 0,086020, "link": "http://dbpedia.org/resource/Treaty_of_Versailles"}, 
{"score": 0,084023, "link": "http://dbpedia.org/resource/Hell"}, 
{"score": 0,082705, "link": "http://dbpedia.org/resource/War"}, 
{"score": 0,082080, "link": "http://dbpedia.org/resource/New_Testament"}, 
{"score": 0,080040, "link": "http://dbpedia.org/resource/Muslim"}, 
{"score": 0,078011, "link": "http://dbpedia.org/resource/Austria"}, 
{"score": 0,077659, "link": "http://dbpedia.org/resource/Bavaria"}, 
{"score": 0,074390, "link": "http://dbpedia.org/resource/Israel"}, 
{"score": 0,072942, "link": "http://dbpedia.org/resource/Norway"}, 
{"score": 0,072528, "link": "http://dbpedia.org/resource/The_Troubles"}, 
{"score": 0,072516, "link": "http://dbpedia.org/resource/Japan"}, 
{"score": 0,072255, "link": "http://dbpedia.org/resource/The_Times"}, 
{"score": 0,071956, "link": "http://dbpedia.org/resource/Miracle"}, 
{"score": 0,071374, "link": "http://dbpedia.org/resource/Holy_See"}, 
{"score": 0,071009, "link": "http://dbpedia.org/resource/Nativity_of_Jesus"}, 
{"score": 0,070827, "link": "http://dbpedia.org/resource/Newspaper"}, 
{"score": 0,070533, "link": "http://dbpedia.org/resource/English_Reformation"}, 
{"score": 0,070470, "link": "http://dbpedia.org/resource/Zionism"}, 
{"score": 0,068601, "link": "http://dbpedia.org/resource/Military"}, 
{"score": 0,067309, "link": "http://dbpedia.org/resource/Book_of_Genesis"}, 
{"score": 0,066776, "link": "http://dbpedia.org/resource/World_War_I"}, 
{"score": 0,066688, "link": "http://dbpedia.org/resource/English_language"}, 
{"score": 0,065468, "link": "http://dbpedia.org/resource/World_War_II"}, 
{"score": 0,065194, "link": "http://dbpedia.org/resource/Canada"}, 
{"score": 0,064652, "link": "http://dbpedia.org/resource/Activism"}, 
{"score": 0,063856, "link": "http://dbpedia.org/resource/Christ_Church,_Oxford"}, 
{"score": 0,063661, "link": "http://dbpedia.org/resource/Donkey"}, 
{"score": 0,062830, "link": "http://dbpedia.org/resource/Free_will"}, 
{"score": 0,062778, "link": "http://dbpedia.org/resource/Nuclear_warfare"}, 
{"score": 0,062487, "link": "http://dbpedia.org/resource/Prison"}, 
{"score": 0,062394, "link": "http://dbpedia.org/resource/Community"}, 
{"score": 0,062208, "link": "http://dbpedia.org/resource/Winter_solstice"}, 
{"score": 0,061637, "link": "http://dbpedia.org/resource/War_crime"}, 
{"score": 0,061317, "link": "http://dbpedia.org/resource/Multiculturalism"}, 
{"score": 0,061286, "link": "http://dbpedia.org/resource/Human_migration"}, 
{"score": 0,060814, "link": "http://dbpedia.org/resource/School"}, 
{"score": 0,060711, "link": "http://dbpedia.org/resource/Hong_Kong"}, 
{"score": 0,060452, "link": "http://dbpedia.org/resource/Youth"}, 
{"score": 0,060093, "link": "http://dbpedia.org/resource/Real_estate"}, 
{"score": 0,059368, "link": "http://dbpedia.org/resource/India"}, 
{"score": 0,059355, "link": "http://dbpedia.org/resource/Trade_union"}, 
{"score": 0,059213, "link": "http://dbpedia.org/resource/Cattle"}, 
{"score": 0,058831, "link": "http://dbpedia.org/resource/Dominican_Republic"}, 
{"score": 0,058549, "link": "http://dbpedia.org/resource/Twitter"}, 
{"score": 0,058344, "link": "http://dbpedia.org/resource/Bosnian_War"}, 
{"score": 0,057976, "link": "http://dbpedia.org/resource/Death_threat"}, 
{"score": 0,057951, "link": "http://dbpedia.org/resource/Justice"}, 
{"score": 0,057925, "link": "http://dbpedia.org/resource/Hunting"}, 
{"score": 0,057712, "link": "http://dbpedia.org/resource/Party"}, 
{"score": 0,057666, "link": "http://dbpedia.org/resource/Archaeology"}, 
{"score": 0,057568, "link": "http://dbpedia.org/resource/Horse"}, 
{"score": 0,056815, "link": "http://dbpedia.org/resource/Ethics"}, 
{"score": 0,055991, "link": "http://dbpedia.org/resource/Money"}, 
{"score": 0,055945, "link": "http://dbpedia.org/resource/Human"}, 
{"score": 0,055733, "link": "http://dbpedia.org/resource/Castle"}, 
{"score": 0,055509, "link": "http://dbpedia.org/resource/Thomas_More"}, 
{"score": 0,055410, "link": "http://dbpedia.org/resource/University_of_Oxford"}, 
{"score": 0,055383, "link": "http://dbpedia.org/resource/Somalia"}, 
{"score": 0,055061, "link": "http://dbpedia.org/resource/Surveillance"}, 
{"score": 0,054501, "link": "http://dbpedia.org/resource/Public_relations"}, 
{"score": 0,053976, "link": "http://dbpedia.org/resource/British_Armed_Forces"}, 
{"score": 0,053927, "link": "http://dbpedia.org/resource/Taoism"}, 
{"score": 0,053862, "link": "http://dbpedia.org/resource/Election"}, 
{"score": 0,053223, "link": "http://dbpedia.org/resource/Soul"}, 
{"score": 0,051714, "link": "http://dbpedia.org/resource/Perth,_Scotland"}, 
{"score": 0,051465, "link": "http://dbpedia.org/resource/Population"}, 
{"score": 0,051169, "link": "http://dbpedia.org/resource/Derby"}, 
{"score": 0,050572, "link": "http://dbpedia.org/resource/Advertising"}, 
{"score": 0,050290, "link": "http://dbpedia.org/resource/Woman"}, 
{"score": 0,050237, "link": "http://dbpedia.org/resource/Napoleonic_Wars"}, 
{"score": 0,050118, "link": "http://dbpedia.org/resource/House"}, 
{"score": 0,049354, "link": "http://dbpedia.org/resource/Pregnancy"}, 
{"score": 0,048734, "link": "http://dbpedia.org/resource/Single_(music)"}, 
{"score": 0,048191, "link": "http://dbpedia.org/resource/Member_of_Parliament"}, 
{"score": 0,048012, "link": "http://dbpedia.org/resource/Automobile"}, 
{"score": 0,047968, "link": "http://dbpedia.org/resource/Irish_Rebellion_of_1798"}, 
{"score": 0,047784, "link": "http://dbpedia.org/resource/Barn"}, 
{"score": 0,047309, "link": "http://dbpedia.org/resource/Leukemia"}, 
{"score": 0,047064, "link": "http://dbpedia.org/resource/England_national_football_team"}, 
{"score": 0,046151, "link": "http://dbpedia.org/resource/Uttar_Pradesh"}, 
{"score": 0,046121, "link": "http://dbpedia.org/resource/Open_University"}, 
{"score": 0,046114, "link": "http://dbpedia.org/resource/Domestic_worker"}, 
{"score": 0,045993, "link": "http://dbpedia.org/resource/Video_game"}, 
{"score": 0,045768, "link": "http://dbpedia.org/resource/Brand"}, 
{"score": 0,045530, "link": "http://dbpedia.org/resource/Werewolf"}, 
{"score": 0,045133, "link": "http://dbpedia.org/resource/Doctor_Who"}, 
{"score": 0,044926, "link": "http://dbpedia.org/resource/Robot"}, 
{"score": 0,044798, "link": "http://dbpedia.org/resource/Golf"}, 
{"score": 0,044241, "link": "http://dbpedia.org/resource/Living_room"}, 
{"score": 0,044172, "link": "http://dbpedia.org/resource/Outer_space"}, 
{"score": 0,043582, "link": "http://dbpedia.org/resource/Storm"}, 
{"score": 0,043308, "link": "http://dbpedia.org/resource/Birth"}, 
{"score": 0,043256, "link": "http://dbpedia.org/resource/Stupa"}, 
{"score": 0,042777, "link": "http://dbpedia.org/resource/Detective"}, 
{"score": 0,042625, "link": "http://dbpedia.org/resource/Train_station"}, 
{"score": 0,041813, "link": "http://dbpedia.org/resource/Friendship"}, 
{"score": 0,041301, "link": "http://dbpedia.org/resource/Recreational_drug_use"}, 
{"score": 0,041047, "link": "http://dbpedia.org/resource/Shopping"}, 
{"score": 0,040529, "link": "http://dbpedia.org/resource/Academia"}, 
{"score": 0,040451, "link": "http://dbpedia.org/resource/Speech"}, 
{"score": 0,040303, "link": "http://dbpedia.org/resource/Sun"}, 
{"score": 0,040222, "link": "http://dbpedia.org/resource/Columnist"}, 
{"score": 0,039277, "link": "http://dbpedia.org/resource/Reality"}, 
{"score": 0,039042, "link": "http://dbpedia.org/resource/Commuting"}, 
{"score": 0,038933, "link": "http://dbpedia.org/resource/Entrepreneur"}, 
{"score": 0,038895, "link": "http://dbpedia.org/resource/City"}, 
{"score": 0,038857, "link": "http://dbpedia.org/resource/Etymology"}, 
{"score": 0,038559, "link": "http://dbpedia.org/resource/Sound_recording_and_reproduction"}, 
{"score": 0,038431, "link": "http://dbpedia.org/resource/Stepfamily"}, 
{"score": 0,038047, "link": "http://dbpedia.org/resource/Accessibility"}, 
{"score": 0,037933, "link": "http://dbpedia.org/resource/Planning"}, 
{"score": 0,036975, "link": "http://dbpedia.org/resource/Performance"}, 
{"score": 0,036422, "link": "http://dbpedia.org/resource/Freddie_Mercury"}, 
{"score": 0,036282, "link": "http://dbpedia.org/resource/American_football"}, 
{"score": 0,035857, "link": "http://dbpedia.org/resource/Cruise_missile"}, 
{"score": 0,034953, "link": "http://dbpedia.org/resource/We_Are_Scientists"}, 
{"score": 0,034726, "link": "http://dbpedia.org/resource/Orgasm"}, 
{"score": 0,033898, "link": "http://dbpedia.org/resource/Xbox_360"}, 
{"score": 0,032280, "link": "http://dbpedia.org/resource/Child_abandonment"}, 
{"score": 0,032145, "link": "http://dbpedia.org/resource/Massage"}, 
{"score": 0,031111, "link": "http://dbpedia.org/resource/Fiqh"}, 
{"score": 0,030724, "link": "http://dbpedia.org/resource/ZZ_Top"}, 
{"score": 0,030054, "link": "http://dbpedia.org/resource/Sperm"}, 
{"score": 0,029012, "link": "http://dbpedia.org/resource/Airliner"}, 
{"score": 0,027691, "link": "http://dbpedia.org/resource/Symphony_No._9_(Beethoven)"}, 
{"score": 0,026448, "link": "http://dbpedia.org/resource/Giant_squid"}, 
{"score": 0,025671, "link": "http://dbpedia.org/resource/Arecaceae"}, 
{"score": 0,025556, "link": "http://dbpedia.org/resource/Acacia"}, 
{"score": 0,025281, "link": "http://dbpedia.org/resource/20th_century"}, 
{"score": 0,023426, "link": "http://dbpedia.org/resource/Nervous_system"}, 
{"score": 0,022256, "link": "http://dbpedia.org/resource/Take-out"}, 
{"score": 0,022062, "link": "http://dbpedia.org/resource/Optics"}, 
{"score": 0,022054, "link": "http://dbpedia.org/resource/ITER"}, 
{"score": 0,022029, "link": "http://dbpedia.org/resource/Southampton_F.C."}, 
{"score": 0,019137, "link": "http://dbpedia.org/resource/Acid"}, 
{"score": 0,017985, "link": "http://dbpedia.org/resource/Barry_Took"}, 
{"score": 0,017783, "link": "http://dbpedia.org/resource/Periodic_table"}, 
{"score": 0,017610, "link": "http://dbpedia.org/resource/Deep_sea"}, 
{"score": 0,015304, "link": "http://dbpedia.org/resource/Jumping"}, 
{"score": 0,012832, "link": "http://dbpedia.org/resource/Milking"}, 
{"score": 0,012568, "link": "http://dbpedia.org/resource/Dust"}, 
{"score": 0,011670, "link": "http://dbpedia.org/resource/Error"}, 
{"score": 0,011378, "link": "http://dbpedia.org/resource/Nine_(musical)"}, 
{"score": 0,009347, "link": "http://dbpedia.org/resource/Flatfish"}, 
{"score": 0,007325, "link": "http://dbpedia.org/resource/London_Grand_Prix"}, 
{"score": 0,004846, "link": "http://dbpedia.org/resource/Edmund_Blackadder"}]
