[{"score": 0,102135, "link": "http://dbpedia.org/resource/Book"}, 
{"score": 0,096591, "link": "http://dbpedia.org/resource/The_Times"}, 
{"score": 0,096100, "link": "http://dbpedia.org/resource/Business"}, 
{"score": 0,095396, "link": "http://dbpedia.org/resource/Boarding_school"}, 
{"score": 0,095338, "link": "http://dbpedia.org/resource/Real_estate"}, 
{"score": 0,092353, "link": "http://dbpedia.org/resource/The_Wall_Street_Journal"}, 
{"score": 0,092303, "link": "http://dbpedia.org/resource/Secondary_school"}, 
{"score": 0,090411, "link": "http://dbpedia.org/resource/Wall_Street"}, 
{"score": 0,089768, "link": "http://dbpedia.org/resource/Music"}, 
{"score": 0,087938, "link": "http://dbpedia.org/resource/Journalism"}, 
{"score": 0,087276, "link": "http://dbpedia.org/resource/College"}, 
{"score": 0,085617, "link": "http://dbpedia.org/resource/Currency"}, 
{"score": 0,085024, "link": "http://dbpedia.org/resource/Tax"}, 
{"score": 0,083542, "link": "http://dbpedia.org/resource/Investment"}, 
{"score": 0,082983, "link": "http://dbpedia.org/resource/Science"}, 
{"score": 0,082497, "link": "http://dbpedia.org/resource/Information_technology"}, 
{"score": 0,082184, "link": "http://dbpedia.org/resource/Lottery"}, 
{"score": 0,081757, "link": "http://dbpedia.org/resource/Facebook"}, 
{"score": 0,081471, "link": "http://dbpedia.org/resource/Sales"}, 
{"score": 0,081154, "link": "http://dbpedia.org/resource/Teacher"}, 
{"score": 0,078155, "link": "http://dbpedia.org/resource/Insurance"}, 
{"score": 0,076544, "link": "http://dbpedia.org/resource/Computing"}, 
{"score": 0,076344, "link": "http://dbpedia.org/resource/Apple_Inc."}, 
{"score": 0,075871, "link": "http://dbpedia.org/resource/Jesus"}, 
{"score": 0,075841, "link": "http://dbpedia.org/resource/Art"}, 
{"score": 0,075454, "link": "http://dbpedia.org/resource/God"}, 
{"score": 0,075438, "link": "http://dbpedia.org/resource/Public_relations"}, 
{"score": 0,074668, "link": "http://dbpedia.org/resource/Number"}, 
{"score": 0,074250, "link": "http://dbpedia.org/resource/Education"}, 
{"score": 0,073638, "link": "http://dbpedia.org/resource/Chemistry"}, 
{"score": 0,073342, "link": "http://dbpedia.org/resource/Consumerism"}, 
{"score": 0,072946, "link": "http://dbpedia.org/resource/Bank"}, 
{"score": 0,072605, "link": "http://dbpedia.org/resource/Old_Testament"}, 
{"score": 0,071869, "link": "http://dbpedia.org/resource/Student"}, 
{"score": 0,071081, "link": "http://dbpedia.org/resource/Capitalism"}, 
{"score": 0,069650, "link": "http://dbpedia.org/resource/Blog"}, 
{"score": 0,069213, "link": "http://dbpedia.org/resource/Police"}, 
{"score": 0,068184, "link": "http://dbpedia.org/resource/Education_in_the_United_States"}, 
{"score": 0,068146, "link": "http://dbpedia.org/resource/I_Ching"}, 
{"score": 0,067888, "link": "http://dbpedia.org/resource/Construction"}, 
{"score": 0,067874, "link": "http://dbpedia.org/resource/Brand"}, 
{"score": 0,067496, "link": "http://dbpedia.org/resource/Telecommunication"}, 
{"score": 0,067447, "link": "http://dbpedia.org/resource/Entrepreneur"}, 
{"score": 0,067304, "link": "http://dbpedia.org/resource/Trade"}, 
{"score": 0,066891, "link": "http://dbpedia.org/resource/Employment"}, 
{"score": 0,066870, "link": "http://dbpedia.org/resource/Death"}, 
{"score": 0,066606, "link": "http://dbpedia.org/resource/Bookmaker"}, 
{"score": 0,066584, "link": "http://dbpedia.org/resource/Orphanage"}, 
{"score": 0,066137, "link": "http://dbpedia.org/resource/Pornography"}, 
{"score": 0,065939, "link": "http://dbpedia.org/resource/Rape"}, 
{"score": 0,065403, "link": "http://dbpedia.org/resource/Film"}, 
{"score": 0,065363, "link": "http://dbpedia.org/resource/Mind_control"}, 
{"score": 0,065279, "link": "http://dbpedia.org/resource/Will_(law)"}, 
{"score": 0,064976, "link": "http://dbpedia.org/resource/Wealth"}, 
{"score": 0,064424, "link": "http://dbpedia.org/resource/Pseudonym"}, 
{"score": 0,064352, "link": "http://dbpedia.org/resource/Higher_education"}, 
{"score": 0,064074, "link": "http://dbpedia.org/resource/Graduation"}, 
{"score": 0,063986, "link": "http://dbpedia.org/resource/Indigenous_peoples_of_the_Americas"}, 
{"score": 0,063804, "link": "http://dbpedia.org/resource/African_American"}, 
{"score": 0,062893, "link": "http://dbpedia.org/resource/Lawsuit"}, 
{"score": 0,062759, "link": "http://dbpedia.org/resource/Spanish_language"}, 
{"score": 0,062038, "link": "http://dbpedia.org/resource/Social_work"}, 
{"score": 0,061977, "link": "http://dbpedia.org/resource/Japan"}, 
{"score": 0,061383, "link": "http://dbpedia.org/resource/Romanian_Revolution_of_1989"}, 
{"score": 0,060970, "link": "http://dbpedia.org/resource/Automobile"}, 
{"score": 0,060769, "link": "http://dbpedia.org/resource/Earth"}, 
{"score": 0,060582, "link": "http://dbpedia.org/resource/Mechanical_engineering"}, 
{"score": 0,060065, "link": "http://dbpedia.org/resource/Hong_Kong"}, 
{"score": 0,059966, "link": "http://dbpedia.org/resource/Canada"}, 
{"score": 0,059913, "link": "http://dbpedia.org/resource/Cocaine"}, 
{"score": 0,059174, "link": "http://dbpedia.org/resource/Microphone"}, 
{"score": 0,059133, "link": "http://dbpedia.org/resource/Scientific_method"}, 
{"score": 0,058989, "link": "http://dbpedia.org/resource/London"}, 
{"score": 0,058745, "link": "http://dbpedia.org/resource/Dominican_Republic"}, 
{"score": 0,058363, "link": "http://dbpedia.org/resource/Emotion"}, 
{"score": 0,057713, "link": "http://dbpedia.org/resource/First_Nations"}, 
{"score": 0,057550, "link": "http://dbpedia.org/resource/Pregnancy"}, 
{"score": 0,057343, "link": "http://dbpedia.org/resource/Gold"}, 
{"score": 0,057162, "link": "http://dbpedia.org/resource/Parenting"}, 
{"score": 0,057025, "link": "http://dbpedia.org/resource/World_War_II"}, 
{"score": 0,056539, "link": "http://dbpedia.org/resource/Royal_Academy"}, 
{"score": 0,056277, "link": "http://dbpedia.org/resource/Domestic_worker"}, 
{"score": 0,055778, "link": "http://dbpedia.org/resource/Personal_computer"}, 
{"score": 0,055478, "link": "http://dbpedia.org/resource/Dharma"}, 
{"score": 0,055281, "link": "http://dbpedia.org/resource/Academia"}, 
{"score": 0,054969, "link": "http://dbpedia.org/resource/Austria"}, 
{"score": 0,054599, "link": "http://dbpedia.org/resource/Leukemia"}, 
{"score": 0,054299, "link": "http://dbpedia.org/resource/Mining"}, 
{"score": 0,054250, "link": "http://dbpedia.org/resource/Robot"}, 
{"score": 0,054210, "link": "http://dbpedia.org/resource/Childbirth"}, 
{"score": 0,053887, "link": "http://dbpedia.org/resource/Therapy"}, 
{"score": 0,053800, "link": "http://dbpedia.org/resource/Tibetan_Buddhism"}, 
{"score": 0,053369, "link": "http://dbpedia.org/resource/Fiqh"}, 
{"score": 0,053292, "link": "http://dbpedia.org/resource/Bavaria"}, 
{"score": 0,053214, "link": "http://dbpedia.org/resource/Public_house"}, 
{"score": 0,052396, "link": "http://dbpedia.org/resource/Broadway_theatre"}, 
{"score": 0,052370, "link": "http://dbpedia.org/resource/BMW"}, 
{"score": 0,052074, "link": "http://dbpedia.org/resource/Belgium"}, 
{"score": 0,052011, "link": "http://dbpedia.org/resource/Parallel_universe_(fiction)"}, 
{"score": 0,051425, "link": "http://dbpedia.org/resource/Physical_exercise"}, 
{"score": 0,051331, "link": "http://dbpedia.org/resource/Holy_See"}, 
{"score": 0,051183, "link": "http://dbpedia.org/resource/Speech"}, 
{"score": 0,050775, "link": "http://dbpedia.org/resource/Shipwreck"}, 
{"score": 0,050752, "link": "http://dbpedia.org/resource/Israel"}, 
{"score": 0,050724, "link": "http://dbpedia.org/resource/Performance-related_pay"}, 
{"score": 0,050668, "link": "http://dbpedia.org/resource/Norway"}, 
{"score": 0,050563, "link": "http://dbpedia.org/resource/Hypothermia"}, 
{"score": 0,050437, "link": "http://dbpedia.org/resource/Mystery_fiction"}, 
{"score": 0,050402, "link": "http://dbpedia.org/resource/Universe"}, 
{"score": 0,050115, "link": "http://dbpedia.org/resource/Actor"}, 
{"score": 0,049773, "link": "http://dbpedia.org/resource/Orgasm"}, 
{"score": 0,049633, "link": "http://dbpedia.org/resource/Eton_College"}, 
{"score": 0,049632, "link": "http://dbpedia.org/resource/Interrogation"}, 
{"score": 0,049203, "link": "http://dbpedia.org/resource/World_Health_Organization"}, 
{"score": 0,048813, "link": "http://dbpedia.org/resource/Uttar_Pradesh"}, 
{"score": 0,048596, "link": "http://dbpedia.org/resource/Human"}, 
{"score": 0,048036, "link": "http://dbpedia.org/resource/Matchmaking"}, 
{"score": 0,046914, "link": "http://dbpedia.org/resource/Inker"}, 
{"score": 0,046674, "link": "http://dbpedia.org/resource/Genetic_engineering"}, 
{"score": 0,046352, "link": "http://dbpedia.org/resource/Winston_Churchill"}, 
{"score": 0,045726, "link": "http://dbpedia.org/resource/Wind"}, 
{"score": 0,045603, "link": "http://dbpedia.org/resource/Magna_Carta"}, 
{"score": 0,045389, "link": "http://dbpedia.org/resource/England_national_football_team"}, 
{"score": 0,045164, "link": "http://dbpedia.org/resource/Rio_Ferdinand"}, 
{"score": 0,044647, "link": "http://dbpedia.org/resource/Knight"}, 
{"score": 0,044384, "link": "http://dbpedia.org/resource/Male"}, 
{"score": 0,042925, "link": "http://dbpedia.org/resource/Oregon"}, 
{"score": 0,042619, "link": "http://dbpedia.org/resource/Voting"}, 
{"score": 0,042455, "link": "http://dbpedia.org/resource/Troll"}, 
{"score": 0,042370, "link": "http://dbpedia.org/resource/Yemen"}, 
{"score": 0,042043, "link": "http://dbpedia.org/resource/Thomas_More"}, 
{"score": 0,041880, "link": "http://dbpedia.org/resource/Archery"}, 
{"score": 0,041854, "link": "http://dbpedia.org/resource/Human_brain"}, 
{"score": 0,041364, "link": "http://dbpedia.org/resource/Somalia"}, 
{"score": 0,040648, "link": "http://dbpedia.org/resource/Riyadh"}, 
{"score": 0,039861, "link": "http://dbpedia.org/resource/Magnet"}, 
{"score": 0,039440, "link": "http://dbpedia.org/resource/Angola"}, 
{"score": 0,039384, "link": "http://dbpedia.org/resource/Stomach"}, 
{"score": 0,039315, "link": "http://dbpedia.org/resource/Sequence"}, 
{"score": 0,038853, "link": "http://dbpedia.org/resource/Etymology"}, 
{"score": 0,038115, "link": "http://dbpedia.org/resource/Embroidery"}, 
{"score": 0,037960, "link": "http://dbpedia.org/resource/Fugitive"}, 
{"score": 0,037492, "link": "http://dbpedia.org/resource/New_York_Yankees"}, 
{"score": 0,037060, "link": "http://dbpedia.org/resource/Courtship"}, 
{"score": 0,036503, "link": "http://dbpedia.org/resource/Irish_Rebellion_of_1798"}, 
{"score": 0,034504, "link": "http://dbpedia.org/resource/Rowing_(sport)"}, 
{"score": 0,033161, "link": "http://dbpedia.org/resource/Mixtape"}, 
{"score": 0,032401, "link": "http://dbpedia.org/resource/Addition"}, 
{"score": 0,030767, "link": "http://dbpedia.org/resource/U-boat"}, 
{"score": 0,030502, "link": "http://dbpedia.org/resource/Sperm"}, 
{"score": 0,030443, "link": "http://dbpedia.org/resource/Freddie_Mercury"}, 
{"score": 0,026778, "link": "http://dbpedia.org/resource/Maple_syrup"}, 
{"score": 0,025842, "link": "http://dbpedia.org/resource/Total_S.A."}, 
{"score": 0,024882, "link": "http://dbpedia.org/resource/State_visit"}, 
{"score": 0,023932, "link": "http://dbpedia.org/resource/Contentment"}, 
{"score": 0,023365, "link": "http://dbpedia.org/resource/Cactus"}, 
{"score": 0,018112, "link": "http://dbpedia.org/resource/Emma,_Lady_Hamilton"}, 
{"score": 0,018014, "link": "http://dbpedia.org/resource/Rugby_sevens"}, 
{"score": 0,017190, "link": "http://dbpedia.org/resource/Preterm_birth"}, 
{"score": 0,016795, "link": "http://dbpedia.org/resource/Donmar_Warehouse"}, 
{"score": 0,016195, "link": "http://dbpedia.org/resource/Acacia"}, 
{"score": 0,013432, "link": "http://dbpedia.org/resource/We_Are_Scientists"}, 
{"score": 0,012531, "link": "http://dbpedia.org/resource/1963"}, 
{"score": 0,010450, "link": "http://dbpedia.org/resource/Whale_watching"}, 
{"score": 0,007669, "link": "http://dbpedia.org/resource/Dianthus"}, 
{"score": 0,004615, "link": "http://dbpedia.org/resource/Olfactory_receptor"}]
