[{"score": 0,235850, "link": "http://dbpedia.org/resource/Gene"}, 
{"score": 0,215605, "link": "http://dbpedia.org/resource/Human_genome"}, 
{"score": 0,187482, "link": "http://dbpedia.org/resource/Human_evolution"}, 
{"score": 0,184923, "link": "http://dbpedia.org/resource/Evolution"}, 
{"score": 0,164378, "link": "http://dbpedia.org/resource/Genetics"}, 
{"score": 0,163136, "link": "http://dbpedia.org/resource/Genetic_code"}, 
{"score": 0,147981, "link": "http://dbpedia.org/resource/Polymorphism_(biology)"}, 
{"score": 0,141620, "link": "http://dbpedia.org/resource/Human"}, 
{"score": 0,136915, "link": "http://dbpedia.org/resource/Chimpanzee"}, 
{"score": 0,135595, "link": "http://dbpedia.org/resource/Mammal"}, 
{"score": 0,133170, "link": "http://dbpedia.org/resource/Homo"}, 
{"score": 0,131977, "link": "http://dbpedia.org/resource/Cell_(biology)"}, 
{"score": 0,119302, "link": "http://dbpedia.org/resource/Species"}, 
{"score": 0,119252, "link": "http://dbpedia.org/resource/Extinction"}, 
{"score": 0,118495, "link": "http://dbpedia.org/resource/New_World_monkey"}, 
{"score": 0,108100, "link": "http://dbpedia.org/resource/Immune_system"}, 
{"score": 0,104902, "link": "http://dbpedia.org/resource/Sequence"}, 
{"score": 0,104465, "link": "http://dbpedia.org/resource/Visual_perception"}, 
{"score": 0,102608, "link": "http://dbpedia.org/resource/Mouse"}, 
{"score": 0,102028, "link": "http://dbpedia.org/resource/Human_brain"}, 
{"score": 0,098774, "link": "http://dbpedia.org/resource/Marsupial"}, 
{"score": 0,097566, "link": "http://dbpedia.org/resource/Genetic_testing"}, 
{"score": 0,095551, "link": "http://dbpedia.org/resource/Sperm"}, 
{"score": 0,092196, "link": "http://dbpedia.org/resource/Pleistocene"}, 
{"score": 0,091930, "link": "http://dbpedia.org/resource/Asexual_reproduction"}, 
{"score": 0,090726, "link": "http://dbpedia.org/resource/Sexual_dimorphism"}, 
{"score": 0,089292, "link": "http://dbpedia.org/resource/Symbiosis"}, 
{"score": 0,087907, "link": "http://dbpedia.org/resource/Cat"}, 
{"score": 0,085093, "link": "http://dbpedia.org/resource/Parthenogenesis"}, 
{"score": 0,082225, "link": "http://dbpedia.org/resource/Puberty"}, 
{"score": 0,081003, "link": "http://dbpedia.org/resource/HIV"}, 
{"score": 0,080940, "link": "http://dbpedia.org/resource/Male"}, 
{"score": 0,078871, "link": "http://dbpedia.org/resource/Diet_(nutrition)"}, 
{"score": 0,078550, "link": "http://dbpedia.org/resource/Microorganism"}, 
{"score": 0,076466, "link": "http://dbpedia.org/resource/Climate_change"}, 
{"score": 0,076435, "link": "http://dbpedia.org/resource/Fish"}, 
{"score": 0,076318, "link": "http://dbpedia.org/resource/Earth"}, 
{"score": 0,074455, "link": "http://dbpedia.org/resource/Obesity"}, 
{"score": 0,073171, "link": "http://dbpedia.org/resource/Ancestor"}, 
{"score": 0,073126, "link": "http://dbpedia.org/resource/Death"}, 
{"score": 0,071661, "link": "http://dbpedia.org/resource/Free_will"}, 
{"score": 0,069880, "link": "http://dbpedia.org/resource/Saliva"}, 
{"score": 0,069563, "link": "http://dbpedia.org/resource/Pregnancy"}, 
{"score": 0,069026, "link": "http://dbpedia.org/resource/Down_syndrome"}, 
{"score": 0,067760, "link": "http://dbpedia.org/resource/Seed"}, 
{"score": 0,066792, "link": "http://dbpedia.org/resource/Science"}, 
{"score": 0,066209, "link": "http://dbpedia.org/resource/Chicken"}, 
{"score": 0,061310, "link": "http://dbpedia.org/resource/Culture"}, 
{"score": 0,060697, "link": "http://dbpedia.org/resource/Scientific_method"}, 
{"score": 0,060271, "link": "http://dbpedia.org/resource/Deer"}, 
{"score": 0,060188, "link": "http://dbpedia.org/resource/Vertebral_column"}, 
{"score": 0,059795, "link": "http://dbpedia.org/resource/Speech"}, 
{"score": 0,059107, "link": "http://dbpedia.org/resource/Computer_science"}, 
{"score": 0,058268, "link": "http://dbpedia.org/resource/Fox"}, 
{"score": 0,057918, "link": "http://dbpedia.org/resource/Arthritis"}, 
{"score": 0,057583, "link": "http://dbpedia.org/resource/Stroke"}, 
{"score": 0,056712, "link": "http://dbpedia.org/resource/Technology"}, 
{"score": 0,056166, "link": "http://dbpedia.org/resource/North_America"}, 
{"score": 0,055965, "link": "http://dbpedia.org/resource/Sound"}, 
{"score": 0,055712, "link": "http://dbpedia.org/resource/Hippopotamus"}, 
{"score": 0,054080, "link": "http://dbpedia.org/resource/Hunting"}, 
{"score": 0,054016, "link": "http://dbpedia.org/resource/Communication"}, 
{"score": 0,052403, "link": "http://dbpedia.org/resource/Mushroom"}, 
{"score": 0,052093, "link": "http://dbpedia.org/resource/Blindness"}, 
{"score": 0,051925, "link": "http://dbpedia.org/resource/Oxford_University_Press"}, 
{"score": 0,050754, "link": "http://dbpedia.org/resource/Human_rights"}, 
{"score": 0,049976, "link": "http://dbpedia.org/resource/God"}, 
{"score": 0,048530, "link": "http://dbpedia.org/resource/Word"}, 
{"score": 0,048461, "link": "http://dbpedia.org/resource/Metaphor"}, 
{"score": 0,048133, "link": "http://dbpedia.org/resource/Ethics"}, 
{"score": 0,047512, "link": "http://dbpedia.org/resource/Genocide"}, 
{"score": 0,047498, "link": "http://dbpedia.org/resource/Sexual_intercourse"}, 
{"score": 0,046982, "link": "http://dbpedia.org/resource/Creativity"}, 
{"score": 0,046851, "link": "http://dbpedia.org/resource/Outer_space"}, 
{"score": 0,045653, "link": "http://dbpedia.org/resource/Japan"}, 
{"score": 0,045590, "link": "http://dbpedia.org/resource/Donkey"}, 
{"score": 0,044754, "link": "http://dbpedia.org/resource/Carbon"}, 
{"score": 0,044046, "link": "http://dbpedia.org/resource/British_Isles"}, 
{"score": 0,043644, "link": "http://dbpedia.org/resource/Sign_language"}, 
{"score": 0,043420, "link": "http://dbpedia.org/resource/Werewolf"}, 
{"score": 0,043327, "link": "http://dbpedia.org/resource/Bird_vocalization"}, 
{"score": 0,042721, "link": "http://dbpedia.org/resource/Education"}, 
{"score": 0,042249, "link": "http://dbpedia.org/resource/University_of_Oxford"}, 
{"score": 0,041732, "link": "http://dbpedia.org/resource/Aquarium"}, 
{"score": 0,041453, "link": "http://dbpedia.org/resource/Professor"}, 
{"score": 0,041351, "link": "http://dbpedia.org/resource/War"}, 
{"score": 0,041061, "link": "http://dbpedia.org/resource/New_World"}, 
{"score": 0,040807, "link": "http://dbpedia.org/resource/Geography"}, 
{"score": 0,040726, "link": "http://dbpedia.org/resource/Acacia"}, 
{"score": 0,039992, "link": "http://dbpedia.org/resource/Measurement"}, 
{"score": 0,039729, "link": "http://dbpedia.org/resource/Australia"}, 
{"score": 0,039293, "link": "http://dbpedia.org/resource/Last_glacial_period"}, 
{"score": 0,038593, "link": "http://dbpedia.org/resource/Common_cold"}, 
{"score": 0,038577, "link": "http://dbpedia.org/resource/Canada"}, 
{"score": 0,037656, "link": "http://dbpedia.org/resource/Art"}, 
{"score": 0,036830, "link": "http://dbpedia.org/resource/Alphabet"}, 
{"score": 0,036458, "link": "http://dbpedia.org/resource/Angola"}, 
{"score": 0,036453, "link": "http://dbpedia.org/resource/Rape"}, 
{"score": 0,036046, "link": "http://dbpedia.org/resource/Belgium"}, 
{"score": 0,035812, "link": "http://dbpedia.org/resource/Law"}, 
{"score": 0,035683, "link": "http://dbpedia.org/resource/Genius"}, 
{"score": 0,035329, "link": "http://dbpedia.org/resource/Malaysia"}, 
{"score": 0,035009, "link": "http://dbpedia.org/resource/Magic_(paranormal)"}, 
{"score": 0,034943, "link": "http://dbpedia.org/resource/India"}, 
{"score": 0,034863, "link": "http://dbpedia.org/resource/Ancient_Rome"}, 
{"score": 0,034642, "link": "http://dbpedia.org/resource/Toad"}, 
{"score": 0,034286, "link": "http://dbpedia.org/resource/World_War_II"}, 
{"score": 0,034284, "link": "http://dbpedia.org/resource/United_States"}, 
{"score": 0,034065, "link": "http://dbpedia.org/resource/Dominican_Republic"}, 
{"score": 0,034038, "link": "http://dbpedia.org/resource/Sibling"}, 
{"score": 0,033626, "link": "http://dbpedia.org/resource/Invention"}, 
{"score": 0,032884, "link": "http://dbpedia.org/resource/Etymology"}, 
{"score": 0,032765, "link": "http://dbpedia.org/resource/Number"}, 
{"score": 0,032731, "link": "http://dbpedia.org/resource/New_England"}, 
{"score": 0,032460, "link": "http://dbpedia.org/resource/Somalia"}, 
{"score": 0,032265, "link": "http://dbpedia.org/resource/Film"}, 
{"score": 0,031935, "link": "http://dbpedia.org/resource/African_American"}, 
{"score": 0,031904, "link": "http://dbpedia.org/resource/Orgasm"}, 
{"score": 0,031871, "link": "http://dbpedia.org/resource/Confidentiality"}, 
{"score": 0,031618, "link": "http://dbpedia.org/resource/Los_Angeles"}, 
{"score": 0,031326, "link": "http://dbpedia.org/resource/Oregon"}, 
{"score": 0,031242, "link": "http://dbpedia.org/resource/Lead"}, 
{"score": 0,031028, "link": "http://dbpedia.org/resource/Cooking"}, 
{"score": 0,030991, "link": "http://dbpedia.org/resource/Trade"}, 
{"score": 0,030907, "link": "http://dbpedia.org/resource/Deception"}, 
{"score": 0,030851, "link": "http://dbpedia.org/resource/World_War_I"}, 
{"score": 0,030608, "link": "http://dbpedia.org/resource/Belief"}, 
{"score": 0,030596, "link": "http://dbpedia.org/resource/Sri_Lanka"}, 
{"score": 0,030313, "link": "http://dbpedia.org/resource/Manufacturing"}, 
{"score": 0,030140, "link": "http://dbpedia.org/resource/Holism"}, 
{"score": 0,029446, "link": "http://dbpedia.org/resource/Personal_computer"}, 
{"score": 0,029118, "link": "http://dbpedia.org/resource/Marketing"}, 
{"score": 0,028919, "link": "http://dbpedia.org/resource/The_Holocaust"}, 
{"score": 0,028871, "link": "http://dbpedia.org/resource/Bavaria"}, 
{"score": 0,027800, "link": "http://dbpedia.org/resource/Plantation"}, 
{"score": 0,027770, "link": "http://dbpedia.org/resource/Classical_music"}, 
{"score": 0,027329, "link": "http://dbpedia.org/resource/Berlin_Wall"}, 
{"score": 0,026895, "link": "http://dbpedia.org/resource/Police"}, 
{"score": 0,026010, "link": "http://dbpedia.org/resource/Bankruptcy"}, 
{"score": 0,025939, "link": "http://dbpedia.org/resource/Natural_gas"}, 
{"score": 0,025794, "link": "http://dbpedia.org/resource/Tattoo"}, 
{"score": 0,025794, "link": "http://dbpedia.org/resource/Diplomacy"}, 
{"score": 0,025569, "link": "http://dbpedia.org/resource/Welsh_language"}, 
{"score": 0,025087, "link": "http://dbpedia.org/resource/Far_East"}, 
{"score": 0,024902, "link": "http://dbpedia.org/resource/Justice"}, 
{"score": 0,024851, "link": "http://dbpedia.org/resource/Coca-Cola"}, 
{"score": 0,024845, "link": "http://dbpedia.org/resource/Periodic_table"}, 
{"score": 0,024783, "link": "http://dbpedia.org/resource/Manhattan_Project"}, 
{"score": 0,024707, "link": "http://dbpedia.org/resource/Laptop"}, 
{"score": 0,024520, "link": "http://dbpedia.org/resource/Length"}, 
{"score": 0,024447, "link": "http://dbpedia.org/resource/Actor"}, 
{"score": 0,023905, "link": "http://dbpedia.org/resource/Startup_company"}, 
{"score": 0,023583, "link": "http://dbpedia.org/resource/Dharma"}, 
{"score": 0,023399, "link": "http://dbpedia.org/resource/Broadway_theatre"}, 
{"score": 0,023398, "link": "http://dbpedia.org/resource/Funeral"}, 
{"score": 0,022720, "link": "http://dbpedia.org/resource/Napoleonic_Wars"}, 
{"score": 0,022615, "link": "http://dbpedia.org/resource/Musical_theatre"}, 
{"score": 0,022414, "link": "http://dbpedia.org/resource/Activism"}, 
{"score": 0,022401, "link": "http://dbpedia.org/resource/Capsicum"}, 
{"score": 0,022005, "link": "http://dbpedia.org/resource/Library"}, 
{"score": 0,021694, "link": "http://dbpedia.org/resource/Addition"}, 
{"score": 0,021192, "link": "http://dbpedia.org/resource/Chant"}, 
{"score": 0,020482, "link": "http://dbpedia.org/resource/Short_stature"}, 
{"score": 0,020268, "link": "http://dbpedia.org/resource/Digital_camera"}, 
{"score": 0,019751, "link": "http://dbpedia.org/resource/Big_band"}, 
{"score": 0,019179, "link": "http://dbpedia.org/resource/Fundraising"}, 
{"score": 0,019152, "link": "http://dbpedia.org/resource/Elizabeth_I_of_England"}, 
{"score": 0,018763, "link": "http://dbpedia.org/resource/Embroidery"}, 
{"score": 0,018743, "link": "http://dbpedia.org/resource/Disco"}, 
{"score": 0,018591, "link": "http://dbpedia.org/resource/Lawsuit"}, 
{"score": 0,018176, "link": "http://dbpedia.org/resource/Festival"}, 
{"score": 0,017817, "link": "http://dbpedia.org/resource/The_Doors"}, 
{"score": 0,017793, "link": "http://dbpedia.org/resource/Neon"}, 
{"score": 0,017184, "link": "http://dbpedia.org/resource/Welfare"}, 
{"score": 0,017136, "link": "http://dbpedia.org/resource/Pelagic_zone"}, 
{"score": 0,017002, "link": "http://dbpedia.org/resource/Brewing"}, 
{"score": 0,016509, "link": "http://dbpedia.org/resource/Cher"}, 
{"score": 0,016431, "link": "http://dbpedia.org/resource/BMW"}, 
{"score": 0,016300, "link": "http://dbpedia.org/resource/Concert"}, 
{"score": 0,015942, "link": "http://dbpedia.org/resource/Royal_Academy"}, 
{"score": 0,015530, "link": "http://dbpedia.org/resource/Search_and_rescue"}, 
{"score": 0,015452, "link": "http://dbpedia.org/resource/Acts_of_Union_1707"}, 
{"score": 0,015402, "link": "http://dbpedia.org/resource/Child_abandonment"}, 
{"score": 0,015209, "link": "http://dbpedia.org/resource/Singing"}, 
{"score": 0,014225, "link": "http://dbpedia.org/resource/American_football"}, 
{"score": 0,014146, "link": "http://dbpedia.org/resource/Sean_Combs"}, 
{"score": 0,014112, "link": "http://dbpedia.org/resource/Freddie_Mercury"}, 
{"score": 0,013666, "link": "http://dbpedia.org/resource/Global_warming_controversy"}, 
{"score": 0,013578, "link": "http://dbpedia.org/resource/New_York_Yankees"}, 
{"score": 0,013551, "link": "http://dbpedia.org/resource/Premier_League"}, 
{"score": 0,013155, "link": "http://dbpedia.org/resource/Independent_record_label"}, 
{"score": 0,012875, "link": "http://dbpedia.org/resource/Repentance"}, 
{"score": 0,012719, "link": "http://dbpedia.org/resource/Public_Enemy_(group)"}, 
{"score": 0,011953, "link": "http://dbpedia.org/resource/Monologue"}, 
{"score": 0,010950, "link": "http://dbpedia.org/resource/Dwayne_Johnson"}, 
{"score": 0,010734, "link": "http://dbpedia.org/resource/Tartan"}, 
{"score": 0,010641, "link": "http://dbpedia.org/resource/Rodgers_and_Hammerstein"}, 
{"score": 0,010135, "link": "http://dbpedia.org/resource/Coach_(sport)"}, 
{"score": 0,009623, "link": "http://dbpedia.org/resource/Scenic_design"}, 
{"score": 0,009398, "link": "http://dbpedia.org/resource/England_cricket_team"}, 
{"score": 0,008828, "link": "http://dbpedia.org/resource/Stepfamily"}, 
{"score": 0,008606, "link": "http://dbpedia.org/resource/Renting"}, 
{"score": 0,008537, "link": "http://dbpedia.org/resource/Tantrum"}, 
{"score": 0,008466, "link": "http://dbpedia.org/resource/Gold_medal"}, 
{"score": 0,008108, "link": "http://dbpedia.org/resource/Speed_limit"}, 
{"score": 0,008060, "link": "http://dbpedia.org/resource/Consul_(representative)"}, 
{"score": 0,007977, "link": "http://dbpedia.org/resource/Martin_Balsam"}, 
{"score": 0,007568, "link": "http://dbpedia.org/resource/Irish_Rebellion_of_1798"}, 
{"score": 0,007459, "link": "http://dbpedia.org/resource/Potato_chip"}, 
{"score": 0,007451, "link": "http://dbpedia.org/resource/Bloomsbury"}, 
{"score": 0,006609, "link": "http://dbpedia.org/resource/We_Are_Scientists"}, 
{"score": 0,006308, "link": "http://dbpedia.org/resource/Rafael_Nadal"}, 
{"score": 0,005740, "link": "http://dbpedia.org/resource/Max_Factor"}, 
{"score": 0,005557, "link": "http://dbpedia.org/resource/Frameup"}, 
{"score": 0,005045, "link": "http://dbpedia.org/resource/Ski_jumping"}, 
{"score": 0,004606, "link": "http://dbpedia.org/resource/Fiji_national_rugby_union_team"}, 
{"score": 0,001718, "link": "http://dbpedia.org/resource/Waddesdon_Manor"}]
