[{"score": 0,186632, "link": "http://dbpedia.org/resource/Spirituality"}, 
{"score": 0,135616, "link": "http://dbpedia.org/resource/God"}, 
{"score": 0,128041, "link": "http://dbpedia.org/resource/Suicide"}, 
{"score": 0,120094, "link": "http://dbpedia.org/resource/Religion"}, 
{"score": 0,119026, "link": "http://dbpedia.org/resource/War"}, 
{"score": 0,114010, "link": "http://dbpedia.org/resource/Free_will"}, 
{"score": 0,113602, "link": "http://dbpedia.org/resource/Bible"}, 
{"score": 0,110753, "link": "http://dbpedia.org/resource/Hell"}, 
{"score": 0,107966, "link": "http://dbpedia.org/resource/Baptism"}, 
{"score": 0,105435, "link": "http://dbpedia.org/resource/Homosexuality"}, 
{"score": 0,104948, "link": "http://dbpedia.org/resource/Eucharist"}, 
{"score": 0,103017, "link": "http://dbpedia.org/resource/Money"}, 
{"score": 0,102339, "link": "http://dbpedia.org/resource/Nobel_Peace_Prize"}, 
{"score": 0,101250, "link": "http://dbpedia.org/resource/Belief"}, 
{"score": 0,101086, "link": "http://dbpedia.org/resource/Reality"}, 
{"score": 0,100569, "link": "http://dbpedia.org/resource/Indigenous_peoples_of_the_Americas"}, 
{"score": 0,099754, "link": "http://dbpedia.org/resource/Justice"}, 
{"score": 0,098659, "link": "http://dbpedia.org/resource/Heresy"}, 
{"score": 0,098548, "link": "http://dbpedia.org/resource/Environmentalism"}, 
{"score": 0,097759, "link": "http://dbpedia.org/resource/Censorship"}, 
{"score": 0,097643, "link": "http://dbpedia.org/resource/Murder"}, 
{"score": 0,097217, "link": "http://dbpedia.org/resource/Dualism"}, 
{"score": 0,097155, "link": "http://dbpedia.org/resource/Sexual_intercourse"}, 
{"score": 0,097129, "link": "http://dbpedia.org/resource/Facebook"}, 
{"score": 0,096792, "link": "http://dbpedia.org/resource/Death"}, 
{"score": 0,096503, "link": "http://dbpedia.org/resource/HIV"}, 
{"score": 0,095795, "link": "http://dbpedia.org/resource/Sacrament"}, 
{"score": 0,095781, "link": "http://dbpedia.org/resource/Oracle"}, 
{"score": 0,095184, "link": "http://dbpedia.org/resource/Domestic_violence"}, 
{"score": 0,094949, "link": "http://dbpedia.org/resource/Welfare"}, 
{"score": 0,094590, "link": "http://dbpedia.org/resource/Rape"}, 
{"score": 0,092895, "link": "http://dbpedia.org/resource/Jerusalem"}, 
{"score": 0,092727, "link": "http://dbpedia.org/resource/Family_Guy"}, 
{"score": 0,092550, "link": "http://dbpedia.org/resource/Climate_change"}, 
{"score": 0,091783, "link": "http://dbpedia.org/resource/The_Wall_Street_Journal"}, 
{"score": 0,091511, "link": "http://dbpedia.org/resource/New_Testament"}, 
{"score": 0,088810, "link": "http://dbpedia.org/resource/Mecca"}, 
{"score": 0,088484, "link": "http://dbpedia.org/resource/Psychiatric_hospital"}, 
{"score": 0,088414, "link": "http://dbpedia.org/resource/Hymn"}, 
{"score": 0,088170, "link": "http://dbpedia.org/resource/Fear"}, 
{"score": 0,088010, "link": "http://dbpedia.org/resource/Earth"}, 
{"score": 0,087997, "link": "http://dbpedia.org/resource/Intimate_relationship"}, 
{"score": 0,087764, "link": "http://dbpedia.org/resource/Meaning_of_life"}, 
{"score": 0,087707, "link": "http://dbpedia.org/resource/Fraud"}, 
{"score": 0,087311, "link": "http://dbpedia.org/resource/MTV"}, 
{"score": 0,086503, "link": "http://dbpedia.org/resource/Vietnam_War"}, 
{"score": 0,086468, "link": "http://dbpedia.org/resource/Dharma"}, 
{"score": 0,086456, "link": "http://dbpedia.org/resource/Liberalism"}, 
{"score": 0,085903, "link": "http://dbpedia.org/resource/Police"}, 
{"score": 0,085235, "link": "http://dbpedia.org/resource/Confidence_trick"}, 
{"score": 0,084787, "link": "http://dbpedia.org/resource/Great_Depression"}, 
{"score": 0,084453, "link": "http://dbpedia.org/resource/Emotion"}, 
{"score": 0,084399, "link": "http://dbpedia.org/resource/John_F._Kennedy"}, 
{"score": 0,084106, "link": "http://dbpedia.org/resource/African_American"}, 
{"score": 0,083990, "link": "http://dbpedia.org/resource/Pregnancy"}, 
{"score": 0,083674, "link": "http://dbpedia.org/resource/Church_of_England"}, 
{"score": 0,083240, "link": "http://dbpedia.org/resource/French_Revolution"}, 
{"score": 0,082976, "link": "http://dbpedia.org/resource/Braille"}, 
{"score": 0,082882, "link": "http://dbpedia.org/resource/Roman_Empire"}, 
{"score": 0,082280, "link": "http://dbpedia.org/resource/British_Empire"}, 
{"score": 0,082033, "link": "http://dbpedia.org/resource/The_Independent"}, 
{"score": 0,081730, "link": "http://dbpedia.org/resource/Industrial_Revolution"}, 
{"score": 0,081057, "link": "http://dbpedia.org/resource/Popular_music"}, 
{"score": 0,080891, "link": "http://dbpedia.org/resource/Epilepsy"}, 
{"score": 0,080651, "link": "http://dbpedia.org/resource/U2"}, 
{"score": 0,080647, "link": "http://dbpedia.org/resource/Pseudonym"}, 
{"score": 0,080605, "link": "http://dbpedia.org/resource/Damascus"}, 
{"score": 0,080595, "link": "http://dbpedia.org/resource/Recreational_drug_use"}, 
{"score": 0,080472, "link": "http://dbpedia.org/resource/Folk_music"}, 
{"score": 0,080028, "link": "http://dbpedia.org/resource/Government"}, 
{"score": 0,079850, "link": "http://dbpedia.org/resource/Bomb"}, 
{"score": 0,079765, "link": "http://dbpedia.org/resource/Dick_Cheney"}, 
{"score": 0,079590, "link": "http://dbpedia.org/resource/Cannibalism"}, 
{"score": 0,079513, "link": "http://dbpedia.org/resource/Celebrity"}, 
{"score": 0,079039, "link": "http://dbpedia.org/resource/Immortality"}, 
{"score": 0,078300, "link": "http://dbpedia.org/resource/Family"}, 
{"score": 0,078286, "link": "http://dbpedia.org/resource/Internet"}, 
{"score": 0,078081, "link": "http://dbpedia.org/resource/Human"}, 
{"score": 0,077937, "link": "http://dbpedia.org/resource/Holy_See"}, 
{"score": 0,077402, "link": "http://dbpedia.org/resource/Mercenary"}, 
{"score": 0,077395, "link": "http://dbpedia.org/resource/Biography"}, 
{"score": 0,077279, "link": "http://dbpedia.org/resource/Single_(music)"}, 
{"score": 0,077243, "link": "http://dbpedia.org/resource/Concert"}, 
{"score": 0,076885, "link": "http://dbpedia.org/resource/Pakistan"}, 
{"score": 0,076859, "link": "http://dbpedia.org/resource/Eugenics"}, 
{"score": 0,076856, "link": "http://dbpedia.org/resource/Hungarian_Revolution_of_1956"}, 
{"score": 0,076716, "link": "http://dbpedia.org/resource/Adolescence"}, 
{"score": 0,076516, "link": "http://dbpedia.org/resource/Africa"}, 
{"score": 0,076484, "link": "http://dbpedia.org/resource/London"}, 
{"score": 0,075804, "link": "http://dbpedia.org/resource/Israel"}, 
{"score": 0,075663, "link": "http://dbpedia.org/resource/United_Nations_Security_Council"}, 
{"score": 0,075623, "link": "http://dbpedia.org/resource/German_reunification"}, 
{"score": 0,075244, "link": "http://dbpedia.org/resource/Renewable_energy"}, 
{"score": 0,074977, "link": "http://dbpedia.org/resource/Creativity"}, 
{"score": 0,074936, "link": "http://dbpedia.org/resource/Orgasm"}, 
{"score": 0,074888, "link": "http://dbpedia.org/resource/England_national_football_team"}, 
{"score": 0,074534, "link": "http://dbpedia.org/resource/Competition"}, 
{"score": 0,074436, "link": "http://dbpedia.org/resource/Silk"}, 
{"score": 0,074078, "link": "http://dbpedia.org/resource/Cover_version"}, 
{"score": 0,074001, "link": "http://dbpedia.org/resource/Investment"}, 
{"score": 0,073735, "link": "http://dbpedia.org/resource/Black_comedy"}, 
{"score": 0,073700, "link": "http://dbpedia.org/resource/Recession"}, 
{"score": 0,073484, "link": "http://dbpedia.org/resource/Japan"}, 
{"score": 0,073052, "link": "http://dbpedia.org/resource/Bosnian_War"}, 
{"score": 0,072434, "link": "http://dbpedia.org/resource/Guy_Fawkes"}, 
{"score": 0,071962, "link": "http://dbpedia.org/resource/Austria"}, 
{"score": 0,071660, "link": "http://dbpedia.org/resource/Life"}, 
{"score": 0,071223, "link": "http://dbpedia.org/resource/Blood"}, 
{"score": 0,070969, "link": "http://dbpedia.org/resource/Johnny_Cash"}, 
{"score": 0,070781, "link": "http://dbpedia.org/resource/California"}, 
{"score": 0,070438, "link": "http://dbpedia.org/resource/Petroleum"}, 
{"score": 0,068722, "link": "http://dbpedia.org/resource/Life_expectancy"}, 
{"score": 0,068704, "link": "http://dbpedia.org/resource/Youth"}, 
{"score": 0,068450, "link": "http://dbpedia.org/resource/Contentment"}, 
{"score": 0,068318, "link": "http://dbpedia.org/resource/Insurance"}, 
{"score": 0,068279, "link": "http://dbpedia.org/resource/Viral_video"}, 
{"score": 0,067919, "link": "http://dbpedia.org/resource/Fashion"}, 
{"score": 0,067685, "link": "http://dbpedia.org/resource/Canada"}, 
{"score": 0,067657, "link": "http://dbpedia.org/resource/BMW"}, 
{"score": 0,067380, "link": "http://dbpedia.org/resource/Azerbaijan"}, 
{"score": 0,067262, "link": "http://dbpedia.org/resource/Premier_League"}, 
{"score": 0,067181, "link": "http://dbpedia.org/resource/Stand-up_comedy"}, 
{"score": 0,067091, "link": "http://dbpedia.org/resource/Belgium"}, 
{"score": 0,066927, "link": "http://dbpedia.org/resource/Geography"}, 
{"score": 0,066260, "link": "http://dbpedia.org/resource/Ordination"}, 
{"score": 0,066154, "link": "http://dbpedia.org/resource/United_States"}, 
{"score": 0,065983, "link": "http://dbpedia.org/resource/Leukemia"}, 
{"score": 0,065948, "link": "http://dbpedia.org/resource/Brand"}, 
{"score": 0,065807, "link": "http://dbpedia.org/resource/Music_industry"}, 
{"score": 0,065773, "link": "http://dbpedia.org/resource/Dark_Ages_(historiography)"}, 
{"score": 0,065696, "link": "http://dbpedia.org/resource/Dominican_Republic"}, 
{"score": 0,065194, "link": "http://dbpedia.org/resource/Queen_Victoria"}, 
{"score": 0,065111, "link": "http://dbpedia.org/resource/Inheritance"}, 
{"score": 0,064817, "link": "http://dbpedia.org/resource/John_Key"}, 
{"score": 0,064567, "link": "http://dbpedia.org/resource/Shiva"}, 
{"score": 0,064048, "link": "http://dbpedia.org/resource/Tutor"}, 
{"score": 0,063744, "link": "http://dbpedia.org/resource/Cary_Grant"}, 
{"score": 0,063715, "link": "http://dbpedia.org/resource/Illness"}, 
{"score": 0,063342, "link": "http://dbpedia.org/resource/Disc_jockey"}, 
{"score": 0,062723, "link": "http://dbpedia.org/resource/Milk"}, 
{"score": 0,061926, "link": "http://dbpedia.org/resource/Stepfamily"}, 
{"score": 0,060497, "link": "http://dbpedia.org/resource/Tea"}, 
{"score": 0,060137, "link": "http://dbpedia.org/resource/Etymology"}, 
{"score": 0,060016, "link": "http://dbpedia.org/resource/Malaysia"}, 
{"score": 0,059558, "link": "http://dbpedia.org/resource/Developing_country"}, 
{"score": 0,059168, "link": "http://dbpedia.org/resource/Somalia"}, 
{"score": 0,058618, "link": "http://dbpedia.org/resource/Angola"}, 
{"score": 0,058170, "link": "http://dbpedia.org/resource/School"}, 
{"score": 0,058032, "link": "http://dbpedia.org/resource/Outer_space"}, 
{"score": 0,058001, "link": "http://dbpedia.org/resource/Mexico_national_football_team"}, 
{"score": 0,057946, "link": "http://dbpedia.org/resource/Injury"}, 
{"score": 0,057879, "link": "http://dbpedia.org/resource/Adam_Ant"}, 
{"score": 0,057788, "link": "http://dbpedia.org/resource/Lima"}, 
{"score": 0,056947, "link": "http://dbpedia.org/resource/Entrepreneur"}, 
{"score": 0,056775, "link": "http://dbpedia.org/resource/Mass_production"}, 
{"score": 0,055961, "link": "http://dbpedia.org/resource/Massive_Attack"}, 
{"score": 0,055900, "link": "http://dbpedia.org/resource/Royal_Academy"}, 
{"score": 0,055501, "link": "http://dbpedia.org/resource/City_of_London"}, 
{"score": 0,054088, "link": "http://dbpedia.org/resource/Irish_Rebellion_of_1798"}, 
{"score": 0,053652, "link": "http://dbpedia.org/resource/Elizabeth_II"}, 
{"score": 0,053309, "link": "http://dbpedia.org/resource/Oregon"}, 
{"score": 0,053205, "link": "http://dbpedia.org/resource/Beach"}, 
{"score": 0,053077, "link": "http://dbpedia.org/resource/Nuclear_weapons_testing"}, 
{"score": 0,052978, "link": "http://dbpedia.org/resource/Storm"}, 
{"score": 0,052432, "link": "http://dbpedia.org/resource/Restaurant"}, 
{"score": 0,052310, "link": "http://dbpedia.org/resource/Temperature"}, 
{"score": 0,052016, "link": "http://dbpedia.org/resource/Dwarfism"}, 
{"score": 0,052016, "link": "http://dbpedia.org/resource/Collectible_card_game"}, 
{"score": 0,051696, "link": "http://dbpedia.org/resource/The_Championships,_Wimbledon"}, 
{"score": 0,051562, "link": "http://dbpedia.org/resource/Decision_making"}, 
{"score": 0,051540, "link": "http://dbpedia.org/resource/Grand_Canyon"}, 
{"score": 0,050347, "link": "http://dbpedia.org/resource/Cricket"}, 
{"score": 0,049618, "link": "http://dbpedia.org/resource/Bob_Hope"}, 
{"score": 0,048998, "link": "http://dbpedia.org/resource/Population_growth"}, 
{"score": 0,048815, "link": "http://dbpedia.org/resource/Hearing_(sense)"}, 
{"score": 0,048364, "link": "http://dbpedia.org/resource/Bone_fracture"}, 
{"score": 0,048260, "link": "http://dbpedia.org/resource/Backpack"}, 
{"score": 0,047749, "link": "http://dbpedia.org/resource/Steam_locomotive"}, 
{"score": 0,047445, "link": "http://dbpedia.org/resource/Coconut"}, 
{"score": 0,046699, "link": "http://dbpedia.org/resource/Baker"}, 
{"score": 0,044661, "link": "http://dbpedia.org/resource/Self-confidence"}, 
{"score": 0,044182, "link": "http://dbpedia.org/resource/Thought"}, 
{"score": 0,043431, "link": "http://dbpedia.org/resource/Book_review"}, 
{"score": 0,043095, "link": "http://dbpedia.org/resource/Stupa"}, 
{"score": 0,040947, "link": "http://dbpedia.org/resource/Clothing"}, 
{"score": 0,040738, "link": "http://dbpedia.org/resource/Centenarian"}, 
{"score": 0,040495, "link": "http://dbpedia.org/resource/Motocross"}, 
{"score": 0,039931, "link": "http://dbpedia.org/resource/Repatriation"}, 
{"score": 0,039797, "link": "http://dbpedia.org/resource/Instant-runoff_voting"}, 
{"score": 0,039713, "link": "http://dbpedia.org/resource/Weight"}, 
{"score": 0,037609, "link": "http://dbpedia.org/resource/Sperm"}, 
{"score": 0,035424, "link": "http://dbpedia.org/resource/Last.fm"}, 
{"score": 0,033825, "link": "http://dbpedia.org/resource/We_Are_Scientists"}, 
{"score": 0,032211, "link": "http://dbpedia.org/resource/Periodic_table"}, 
{"score": 0,031745, "link": "http://dbpedia.org/resource/Eye"}, 
{"score": 0,031741, "link": "http://dbpedia.org/resource/Panel_game"}, 
{"score": 0,030312, "link": "http://dbpedia.org/resource/Greed"}, 
{"score": 0,030148, "link": "http://dbpedia.org/resource/Scale_model"}, 
{"score": 0,028579, "link": "http://dbpedia.org/resource/Steeplechase"}, 
{"score": 0,027261, "link": "http://dbpedia.org/resource/Rugby_sevens"}, 
{"score": 0,023360, "link": "http://dbpedia.org/resource/Dream_interpretation"}, 
{"score": 0,022563, "link": "http://dbpedia.org/resource/Grandparent"}, 
{"score": 0,021660, "link": "http://dbpedia.org/resource/Take-out"}, 
{"score": 0,018769, "link": "http://dbpedia.org/resource/London_Grand_Prix"}, 
{"score": 0,012463, "link": "http://dbpedia.org/resource/Barry_Took"}, 
{"score": 0,010884, "link": "http://dbpedia.org/resource/Never_was_so_much_owed_by_so_many_to_so_few"}]
