[{"score": 0,192378, "link": "http://dbpedia.org/resource/Illegal_immigration_to_the_United_States"}, 
{"score": 0,156477, "link": "http://dbpedia.org/resource/Republican_Party_(United_States)"}, 
{"score": 0,154729, "link": "http://dbpedia.org/resource/Immigration_to_the_United_States"}, 
{"score": 0,101644, "link": "http://dbpedia.org/resource/African_American"}, 
{"score": 0,097240, "link": "http://dbpedia.org/resource/North_Dakota"}, 
{"score": 0,096831, "link": "http://dbpedia.org/resource/North_America"}, 
{"score": 0,095525, "link": "http://dbpedia.org/resource/United_States_House_of_Representatives"}, 
{"score": 0,092196, "link": "http://dbpedia.org/resource/Colorado"}, 
{"score": 0,090220, "link": "http://dbpedia.org/resource/Strike_action"}, 
{"score": 0,089150, "link": "http://dbpedia.org/resource/Extraterrestrial_life"}, 
{"score": 0,088451, "link": "http://dbpedia.org/resource/Louisiana"}, 
{"score": 0,081343, "link": "http://dbpedia.org/resource/Racism"}, 
{"score": 0,080278, "link": "http://dbpedia.org/resource/Renting"}, 
{"score": 0,079674, "link": "http://dbpedia.org/resource/Murder"}, 
{"score": 0,078471, "link": "http://dbpedia.org/resource/War"}, 
{"score": 0,077685, "link": "http://dbpedia.org/resource/Christianity"}, 
{"score": 0,077668, "link": "http://dbpedia.org/resource/Dominican_Republic"}, 
{"score": 0,077617, "link": "http://dbpedia.org/resource/Oregon"}, 
{"score": 0,077507, "link": "http://dbpedia.org/resource/Christian"}, 
{"score": 0,076428, "link": "http://dbpedia.org/resource/Renewable_energy"}, 
{"score": 0,076182, "link": "http://dbpedia.org/resource/New_World"}, 
{"score": 0,075965, "link": "http://dbpedia.org/resource/San_Diego"}, 
{"score": 0,075394, "link": "http://dbpedia.org/resource/Livestock"}, 
{"score": 0,074907, "link": "http://dbpedia.org/resource/Wealth"}, 
{"score": 0,074696, "link": "http://dbpedia.org/resource/Lawsuit"}, 
{"score": 0,074113, "link": "http://dbpedia.org/resource/Canada"}, 
{"score": 0,074076, "link": "http://dbpedia.org/resource/Death"}, 
{"score": 0,073786, "link": "http://dbpedia.org/resource/Tax"}, 
{"score": 0,073554, "link": "http://dbpedia.org/resource/World_War_II"}, 
{"score": 0,073207, "link": "http://dbpedia.org/resource/The_Troubles"}, 
{"score": 0,072864, "link": "http://dbpedia.org/resource/Alcoholic_beverage"}, 
{"score": 0,072581, "link": "http://dbpedia.org/resource/Education"}, 
{"score": 0,071268, "link": "http://dbpedia.org/resource/United_States"}, 
{"score": 0,070568, "link": "http://dbpedia.org/resource/Twitter"}, 
{"score": 0,069555, "link": "http://dbpedia.org/resource/Israel"}, 
{"score": 0,069231, "link": "http://dbpedia.org/resource/Japan"}, 
{"score": 0,069077, "link": "http://dbpedia.org/resource/Will_(law)"}, 
{"score": 0,068650, "link": "http://dbpedia.org/resource/Fidel_Castro"}, 
{"score": 0,068649, "link": "http://dbpedia.org/resource/Delaware"}, 
{"score": 0,068621, "link": "http://dbpedia.org/resource/Austria"}, 
{"score": 0,068589, "link": "http://dbpedia.org/resource/Gold"}, 
{"score": 0,067840, "link": "http://dbpedia.org/resource/Yukon"}, 
{"score": 0,066120, "link": "http://dbpedia.org/resource/France"}, 
{"score": 0,065510, "link": "http://dbpedia.org/resource/Boarding_school"}, 
{"score": 0,065485, "link": "http://dbpedia.org/resource/Tourism"}, 
{"score": 0,064533, "link": "http://dbpedia.org/resource/Western_(genre)"}, 
{"score": 0,063488, "link": "http://dbpedia.org/resource/Pregnancy"}, 
{"score": 0,062801, "link": "http://dbpedia.org/resource/Hiking"}, 
{"score": 0,062050, "link": "http://dbpedia.org/resource/Goat"}, 
{"score": 0,061882, "link": "http://dbpedia.org/resource/Facebook"}, 
{"score": 0,059039, "link": "http://dbpedia.org/resource/Australia"}, 
{"score": 0,058371, "link": "http://dbpedia.org/resource/Astronaut"}, 
{"score": 0,058103, "link": "http://dbpedia.org/resource/Doctor_Who"}, 
{"score": 0,057632, "link": "http://dbpedia.org/resource/Recreational_drug_use"}, 
{"score": 0,057543, "link": "http://dbpedia.org/resource/Leukemia"}, 
{"score": 0,057459, "link": "http://dbpedia.org/resource/University"}, 
{"score": 0,057362, "link": "http://dbpedia.org/resource/Somalia"}, 
{"score": 0,056355, "link": "http://dbpedia.org/resource/Cartoon"}, 
{"score": 0,055748, "link": "http://dbpedia.org/resource/Trail"}, 
{"score": 0,055629, "link": "http://dbpedia.org/resource/Soybean"}, 
{"score": 0,055628, "link": "http://dbpedia.org/resource/Public_house"}, 
{"score": 0,055087, "link": "http://dbpedia.org/resource/Holy_See"}, 
{"score": 0,054659, "link": "http://dbpedia.org/resource/Irish_Rebellion_of_1798"}, 
{"score": 0,054567, "link": "http://dbpedia.org/resource/Concert"}, 
{"score": 0,054338, "link": "http://dbpedia.org/resource/Single_(music)"}, 
{"score": 0,054305, "link": "http://dbpedia.org/resource/Rail_transport"}, 
{"score": 0,054171, "link": "http://dbpedia.org/resource/Depression_(mood)"}, 
{"score": 0,054074, "link": "http://dbpedia.org/resource/Bob_Hope"}, 
{"score": 0,053344, "link": "http://dbpedia.org/resource/Child_support"}, 
{"score": 0,053293, "link": "http://dbpedia.org/resource/Sherlock_Holmes"}, 
{"score": 0,053056, "link": "http://dbpedia.org/resource/Broadway_theatre"}, 
{"score": 0,053040, "link": "http://dbpedia.org/resource/Actor"}, 
{"score": 0,052341, "link": "http://dbpedia.org/resource/American_football"}, 
{"score": 0,052024, "link": "http://dbpedia.org/resource/Manufacturing"}, 
{"score": 0,051871, "link": "http://dbpedia.org/resource/Cannibalism"}, 
{"score": 0,050470, "link": "http://dbpedia.org/resource/Entrepreneur"}, 
{"score": 0,050364, "link": "http://dbpedia.org/resource/Telecommunication"}, 
{"score": 0,049994, "link": "http://dbpedia.org/resource/Napoleonic_Wars"}, 
{"score": 0,049947, "link": "http://dbpedia.org/resource/Outing"}, 
{"score": 0,049621, "link": "http://dbpedia.org/resource/Honey"}, 
{"score": 0,049606, "link": "http://dbpedia.org/resource/Humphrey_Bogart"}, 
{"score": 0,048149, "link": "http://dbpedia.org/resource/Seoul"}, 
{"score": 0,047635, "link": "http://dbpedia.org/resource/Justice"}, 
{"score": 0,047412, "link": "http://dbpedia.org/resource/Uttar_Pradesh"}, 
{"score": 0,046984, "link": "http://dbpedia.org/resource/Carbon_monoxide"}, 
{"score": 0,046907, "link": "http://dbpedia.org/resource/Buddy_Holly"}, 
{"score": 0,046768, "link": "http://dbpedia.org/resource/Operation_Barbarossa"}, 
{"score": 0,046407, "link": "http://dbpedia.org/resource/University_of_Oxford"}, 
{"score": 0,045720, "link": "http://dbpedia.org/resource/Camera"}, 
{"score": 0,044992, "link": "http://dbpedia.org/resource/Orchestra"}, 
{"score": 0,043374, "link": "http://dbpedia.org/resource/Sculpture"}, 
{"score": 0,043243, "link": "http://dbpedia.org/resource/Mind_control"}, 
{"score": 0,042633, "link": "http://dbpedia.org/resource/Mountaineering"}, 
{"score": 0,042381, "link": "http://dbpedia.org/resource/Summer"}, 
{"score": 0,041780, "link": "http://dbpedia.org/resource/Royal_Academy"}, 
{"score": 0,040941, "link": "http://dbpedia.org/resource/Road"}, 
{"score": 0,040276, "link": "http://dbpedia.org/resource/Dementia"}, 
{"score": 0,039995, "link": "http://dbpedia.org/resource/Spa"}, 
{"score": 0,038593, "link": "http://dbpedia.org/resource/Seal_hunting"}, 
{"score": 0,037370, "link": "http://dbpedia.org/resource/Spoken_word"}, 
{"score": 0,036734, "link": "http://dbpedia.org/resource/Bandleader"}, 
{"score": 0,036427, "link": "http://dbpedia.org/resource/Knife"}, 
{"score": 0,036192, "link": "http://dbpedia.org/resource/Cheese"}, 
{"score": 0,036035, "link": "http://dbpedia.org/resource/Stepfamily"}, 
{"score": 0,034603, "link": "http://dbpedia.org/resource/Eton_College"}, 
{"score": 0,034131, "link": "http://dbpedia.org/resource/Etymology"}, 
{"score": 0,034099, "link": "http://dbpedia.org/resource/Competition"}, 
{"score": 0,033545, "link": "http://dbpedia.org/resource/Thomas_More"}, 
{"score": 0,033295, "link": "http://dbpedia.org/resource/Embroidery"}, 
{"score": 0,032201, "link": "http://dbpedia.org/resource/Cartography"}, 
{"score": 0,031919, "link": "http://dbpedia.org/resource/Dualism"}, 
{"score": 0,030519, "link": "http://dbpedia.org/resource/Last_glacial_period"}, 
{"score": 0,030467, "link": "http://dbpedia.org/resource/Precognition"}, 
{"score": 0,030440, "link": "http://dbpedia.org/resource/Total_S.A."}, 
{"score": 0,028126, "link": "http://dbpedia.org/resource/Emotion"}, 
{"score": 0,027522, "link": "http://dbpedia.org/resource/Take-out"}, 
{"score": 0,026040, "link": "http://dbpedia.org/resource/Stamford_Bridge_(stadium)"}, 
{"score": 0,025533, "link": "http://dbpedia.org/resource/Sperm"}, 
{"score": 0,020722, "link": "http://dbpedia.org/resource/Something"}, 
{"score": 0,020082, "link": "http://dbpedia.org/resource/Pharmaceutical_drug"}, 
{"score": 0,019978, "link": "http://dbpedia.org/resource/Rafael_Nadal"}, 
{"score": 0,019969, "link": "http://dbpedia.org/resource/Probability"}, 
{"score": 0,015892, "link": "http://dbpedia.org/resource/Hearing_(sense)"}, 
{"score": 0,014883, "link": "http://dbpedia.org/resource/Angel_Falls"}, 
{"score": 0,014364, "link": "http://dbpedia.org/resource/Rugby_sevens"}, 
{"score": 0,014325, "link": "http://dbpedia.org/resource/We_Are_Scientists"}, 
{"score": 0,012170, "link": "http://dbpedia.org/resource/Honesty"}, 
{"score": 0,008275, "link": "http://dbpedia.org/resource/Animal_communication"}, 
{"score": 0,002346, "link": "http://dbpedia.org/resource/24_Hours_(TV_series)"}]
