[{"score": 0,132750, "link": "http://dbpedia.org/resource/Religion"}, 
{"score": 0,096036, "link": "http://dbpedia.org/resource/FIFA_World_Cup"}, 
{"score": 0,093576, "link": "http://dbpedia.org/resource/2012_Summer_Olympics"}, 
{"score": 0,093177, "link": "http://dbpedia.org/resource/Christian"}, 
{"score": 0,085418, "link": "http://dbpedia.org/resource/Jesus"}, 
{"score": 0,081928, "link": "http://dbpedia.org/resource/New_York_City"}, 
{"score": 0,081305, "link": "http://dbpedia.org/resource/God"}, 
{"score": 0,080612, "link": "http://dbpedia.org/resource/East_Germany"}, 
{"score": 0,079748, "link": "http://dbpedia.org/resource/Hell"}, 
{"score": 0,079001, "link": "http://dbpedia.org/resource/High_school"}, 
{"score": 0,076547, "link": "http://dbpedia.org/resource/Listed_building"}, 
{"score": 0,075989, "link": "http://dbpedia.org/resource/Japan"}, 
{"score": 0,075979, "link": "http://dbpedia.org/resource/Europe"}, 
{"score": 0,074894, "link": "http://dbpedia.org/resource/Michigan"}, 
{"score": 0,074741, "link": "http://dbpedia.org/resource/Muslim"}, 
{"score": 0,074487, "link": "http://dbpedia.org/resource/Pentecostalism"}, 
{"score": 0,073516, "link": "http://dbpedia.org/resource/Archaeology"}, 
{"score": 0,072766, "link": "http://dbpedia.org/resource/Austria"}, 
{"score": 0,072540, "link": "http://dbpedia.org/resource/Evangelism"}, 
{"score": 0,072356, "link": "http://dbpedia.org/resource/Heaven"}, 
{"score": 0,071912, "link": "http://dbpedia.org/resource/German_language"}, 
{"score": 0,071853, "link": "http://dbpedia.org/resource/City"}, 
{"score": 0,070758, "link": "http://dbpedia.org/resource/Facebook"}, 
{"score": 0,070266, "link": "http://dbpedia.org/resource/Taoism"}, 
{"score": 0,069672, "link": "http://dbpedia.org/resource/Los_Angeles"}, 
{"score": 0,068747, "link": "http://dbpedia.org/resource/Belarus"}, 
{"score": 0,068590, "link": "http://dbpedia.org/resource/Germany"}, 
{"score": 0,068458, "link": "http://dbpedia.org/resource/Afterlife"}, 
{"score": 0,068201, "link": "http://dbpedia.org/resource/Belgium"}, 
{"score": 0,067932, "link": "http://dbpedia.org/resource/Premier_League"}, 
{"score": 0,067064, "link": "http://dbpedia.org/resource/Israel"}, 
{"score": 0,066765, "link": "http://dbpedia.org/resource/Cricket"}, 
{"score": 0,066405, "link": "http://dbpedia.org/resource/Lesbian"}, 
{"score": 0,066089, "link": "http://dbpedia.org/resource/Indiana"}, 
{"score": 0,065943, "link": "http://dbpedia.org/resource/Malaysia"}, 
{"score": 0,065688, "link": "http://dbpedia.org/resource/World_War_II"}, 
{"score": 0,065431, "link": "http://dbpedia.org/resource/Ritual"}, 
{"score": 0,065320, "link": "http://dbpedia.org/resource/School"}, 
{"score": 0,065312, "link": "http://dbpedia.org/resource/Psychic"}, 
{"score": 0,065206, "link": "http://dbpedia.org/resource/Death"}, 
{"score": 0,064691, "link": "http://dbpedia.org/resource/New_York_Yankees"}, 
{"score": 0,063508, "link": "http://dbpedia.org/resource/Food"}, 
{"score": 0,063081, "link": "http://dbpedia.org/resource/Maine"}, 
{"score": 0,062730, "link": "http://dbpedia.org/resource/Quebec"}, 
{"score": 0,061357, "link": "http://dbpedia.org/resource/Professional_wrestling"}, 
{"score": 0,060281, "link": "http://dbpedia.org/resource/World_War_I"}, 
{"score": 0,060272, "link": "http://dbpedia.org/resource/War"}, 
{"score": 0,059620, "link": "http://dbpedia.org/resource/Fan_(person)"}, 
{"score": 0,059375, "link": "http://dbpedia.org/resource/Spirit_possession"}, 
{"score": 0,058876, "link": "http://dbpedia.org/resource/Vietnam_War"}, 
{"score": 0,058856, "link": "http://dbpedia.org/resource/Andes"}, 
{"score": 0,058780, "link": "http://dbpedia.org/resource/Teacher"}, 
{"score": 0,058725, "link": "http://dbpedia.org/resource/University"}, 
{"score": 0,058672, "link": "http://dbpedia.org/resource/Speech"}, 
{"score": 0,058669, "link": "http://dbpedia.org/resource/Mars"}, 
{"score": 0,058183, "link": "http://dbpedia.org/resource/Coca-Cola"}, 
{"score": 0,058090, "link": "http://dbpedia.org/resource/Poverty"}, 
{"score": 0,058088, "link": "http://dbpedia.org/resource/Human"}, 
{"score": 0,058006, "link": "http://dbpedia.org/resource/Education"}, 
{"score": 0,057955, "link": "http://dbpedia.org/resource/Concert"}, 
{"score": 0,057646, "link": "http://dbpedia.org/resource/Pseudonym"}, 
{"score": 0,056904, "link": "http://dbpedia.org/resource/Mississippi"}, 
{"score": 0,056517, "link": "http://dbpedia.org/resource/Justice"}, 
{"score": 0,056023, "link": "http://dbpedia.org/resource/Alcoholism"}, 
{"score": 0,055671, "link": "http://dbpedia.org/resource/Recreation"}, 
{"score": 0,055568, "link": "http://dbpedia.org/resource/Confidence_trick"}, 
{"score": 0,055166, "link": "http://dbpedia.org/resource/Bridge"}, 
{"score": 0,054802, "link": "http://dbpedia.org/resource/Cat"}, 
{"score": 0,054546, "link": "http://dbpedia.org/resource/Censorship"}, 
{"score": 0,054219, "link": "http://dbpedia.org/resource/Rain"}, 
{"score": 0,053969, "link": "http://dbpedia.org/resource/Brand"}, 
{"score": 0,053856, "link": "http://dbpedia.org/resource/Banquet"}, 
{"score": 0,053587, "link": "http://dbpedia.org/resource/Angola"}, 
{"score": 0,053405, "link": "http://dbpedia.org/resource/Bus"}, 
{"score": 0,053248, "link": "http://dbpedia.org/resource/Free_will"}, 
{"score": 0,053177, "link": "http://dbpedia.org/resource/Communication"}, 
{"score": 0,052341, "link": "http://dbpedia.org/resource/Guyana"}, 
{"score": 0,051519, "link": "http://dbpedia.org/resource/Spa"}, 
{"score": 0,050929, "link": "http://dbpedia.org/resource/Celebrity"}, 
{"score": 0,050850, "link": "http://dbpedia.org/resource/Somalia"}, 
{"score": 0,050809, "link": "http://dbpedia.org/resource/Lawyer"}, 
{"score": 0,050690, "link": "http://dbpedia.org/resource/Surveillance"}, 
{"score": 0,050229, "link": "http://dbpedia.org/resource/Animal_rights"}, 
{"score": 0,050092, "link": "http://dbpedia.org/resource/Camel"}, 
{"score": 0,049609, "link": "http://dbpedia.org/resource/Survival_skills"}, 
{"score": 0,048971, "link": "http://dbpedia.org/resource/Shot_put"}, 
{"score": 0,048791, "link": "http://dbpedia.org/resource/Dharma"}, 
{"score": 0,048287, "link": "http://dbpedia.org/resource/Office"}, 
{"score": 0,048189, "link": "http://dbpedia.org/resource/Stupa"}, 
{"score": 0,048028, "link": "http://dbpedia.org/resource/Pregnancy"}, 
{"score": 0,047066, "link": "http://dbpedia.org/resource/Disease"}, 
{"score": 0,046307, "link": "http://dbpedia.org/resource/Telecommunication"}, 
{"score": 0,046042, "link": "http://dbpedia.org/resource/Republican_Party_(United_States)"}, 
{"score": 0,045993, "link": "http://dbpedia.org/resource/Castle"}, 
{"score": 0,045689, "link": "http://dbpedia.org/resource/Goodison_Park"}, 
{"score": 0,045481, "link": "http://dbpedia.org/resource/Lawsuit"}, 
{"score": 0,045241, "link": "http://dbpedia.org/resource/Breast_cancer"}, 
{"score": 0,045157, "link": "http://dbpedia.org/resource/Kidnapping"}, 
{"score": 0,045026, "link": "http://dbpedia.org/resource/Mantra"}, 
{"score": 0,044447, "link": "http://dbpedia.org/resource/Robbery"}, 
{"score": 0,043879, "link": "http://dbpedia.org/resource/Bosnian_War"}, 
{"score": 0,043544, "link": "http://dbpedia.org/resource/Holy_See"}, 
{"score": 0,043519, "link": "http://dbpedia.org/resource/Blood_transfusion"}, 
{"score": 0,043155, "link": "http://dbpedia.org/resource/Leukemia"}, 
{"score": 0,042904, "link": "http://dbpedia.org/resource/County_Down"}, 
{"score": 0,042726, "link": "http://dbpedia.org/resource/Etymology"}, 
{"score": 0,042435, "link": "http://dbpedia.org/resource/Knife"}, 
{"score": 0,041383, "link": "http://dbpedia.org/resource/Single_(music)"}, 
{"score": 0,040894, "link": "http://dbpedia.org/resource/Fortification"}, 
{"score": 0,039539, "link": "http://dbpedia.org/resource/Road"}, 
{"score": 0,038067, "link": "http://dbpedia.org/resource/Rapping"}, 
{"score": 0,037298, "link": "http://dbpedia.org/resource/Symbiosis"}, 
{"score": 0,037271, "link": "http://dbpedia.org/resource/October_Revolution"}, 
{"score": 0,037033, "link": "http://dbpedia.org/resource/Cliff"}, 
{"score": 0,036809, "link": "http://dbpedia.org/resource/Employment"}, 
{"score": 0,036680, "link": "http://dbpedia.org/resource/Carrow_Road"}, 
{"score": 0,036639, "link": "http://dbpedia.org/resource/Speed"}, 
{"score": 0,036379, "link": "http://dbpedia.org/resource/Outer_space"}, 
{"score": 0,035567, "link": "http://dbpedia.org/resource/Outfielder"}, 
{"score": 0,034891, "link": "http://dbpedia.org/resource/Christ_Church,_Oxford"}, 
{"score": 0,034162, "link": "http://dbpedia.org/resource/Thomas_More"}, 
{"score": 0,032710, "link": "http://dbpedia.org/resource/Freddie_Mercury"}, 
{"score": 0,032559, "link": "http://dbpedia.org/resource/Elizabeth_I_of_England"}, 
{"score": 0,032281, "link": "http://dbpedia.org/resource/Fee"}, 
{"score": 0,032180, "link": "http://dbpedia.org/resource/Multiverse"}, 
{"score": 0,031593, "link": "http://dbpedia.org/resource/Stepfamily"}, 
{"score": 0,031468, "link": "http://dbpedia.org/resource/Foot"}, 
{"score": 0,031197, "link": "http://dbpedia.org/resource/Combined_oral_contraceptive_pill"}, 
{"score": 0,030082, "link": "http://dbpedia.org/resource/Orgasm"}, 
{"score": 0,028801, "link": "http://dbpedia.org/resource/Visual_perception"}, 
{"score": 0,028706, "link": "http://dbpedia.org/resource/Stomach"}, 
{"score": 0,027953, "link": "http://dbpedia.org/resource/1955_Le_Mans_disaster"}, 
{"score": 0,026463, "link": "http://dbpedia.org/resource/Battle_of_Stalingrad"}, 
{"score": 0,026118, "link": "http://dbpedia.org/resource/Lunch"}, 
{"score": 0,025753, "link": "http://dbpedia.org/resource/Thought"}, 
{"score": 0,024932, "link": "http://dbpedia.org/resource/We_Are_Scientists"}, 
{"score": 0,023079, "link": "http://dbpedia.org/resource/Wine_tasting"}, 
{"score": 0,021064, "link": "http://dbpedia.org/resource/Kidney_cancer"}, 
{"score": 0,020960, "link": "http://dbpedia.org/resource/Animal_communication"}, 
{"score": 0,020121, "link": "http://dbpedia.org/resource/20th_century"}, 
{"score": 0,017781, "link": "http://dbpedia.org/resource/Insult"}, 
{"score": 0,014671, "link": "http://dbpedia.org/resource/Talking_animal"}, 
{"score": 0,013326, "link": "http://dbpedia.org/resource/Minute_of_arc"}, 
{"score": 0,013150, "link": "http://dbpedia.org/resource/Something"}, 
{"score": 0,011557, "link": "http://dbpedia.org/resource/Nine_(musical)"}, 
{"score": 0,003404, "link": "http://dbpedia.org/resource/Lincoln_Near-Earth_Asteroid_Research"}]
