[{"score": 0,153296, "link": "http://dbpedia.org/resource/Consumer"}, 
{"score": 0,115153, "link": "http://dbpedia.org/resource/Film"}, 
{"score": 0,112051, "link": "http://dbpedia.org/resource/Voice_acting"}, 
{"score": 0,111881, "link": "http://dbpedia.org/resource/Facebook"}, 
{"score": 0,110699, "link": "http://dbpedia.org/resource/The_New_York_Times"}, 
{"score": 0,110512, "link": "http://dbpedia.org/resource/Brand"}, 
{"score": 0,104833, "link": "http://dbpedia.org/resource/Money"}, 
{"score": 0,104787, "link": "http://dbpedia.org/resource/Animation"}, 
{"score": 0,102216, "link": "http://dbpedia.org/resource/Public_relations"}, 
{"score": 0,102105, "link": "http://dbpedia.org/resource/The_Wall_Street_Journal"}, 
{"score": 0,099236, "link": "http://dbpedia.org/resource/Television_program"}, 
{"score": 0,095564, "link": "http://dbpedia.org/resource/Corporation"}, 
{"score": 0,095525, "link": "http://dbpedia.org/resource/Actor"}, 
{"score": 0,094158, "link": "http://dbpedia.org/resource/Startup_company"}, 
{"score": 0,091807, "link": "http://dbpedia.org/resource/Business"}, 
{"score": 0,090630, "link": "http://dbpedia.org/resource/Magazine"}, 
{"score": 0,088776, "link": "http://dbpedia.org/resource/Up_(2009_film)"}, 
{"score": 0,088524, "link": "http://dbpedia.org/resource/Hell"}, 
{"score": 0,088197, "link": "http://dbpedia.org/resource/Apple_Inc."}, 
{"score": 0,087445, "link": "http://dbpedia.org/resource/Parenting"}, 
{"score": 0,085762, "link": "http://dbpedia.org/resource/Broadway_theatre"}, 
{"score": 0,085149, "link": "http://dbpedia.org/resource/Life_(magazine)"}, 
{"score": 0,085131, "link": "http://dbpedia.org/resource/Great_Depression"}, 
{"score": 0,084913, "link": "http://dbpedia.org/resource/Natural_environment"}, 
{"score": 0,084424, "link": "http://dbpedia.org/resource/God"}, 
{"score": 0,084241, "link": "http://dbpedia.org/resource/Public_Enemy_(group)"}, 
{"score": 0,084061, "link": "http://dbpedia.org/resource/Talk_show"}, 
{"score": 0,081664, "link": "http://dbpedia.org/resource/Book"}, 
{"score": 0,081386, "link": "http://dbpedia.org/resource/Telecommunication"}, 
{"score": 0,081373, "link": "http://dbpedia.org/resource/Invention"}, 
{"score": 0,080266, "link": "http://dbpedia.org/resource/Homelessness"}, 
{"score": 0,079679, "link": "http://dbpedia.org/resource/Pregnancy"}, 
{"score": 0,079398, "link": "http://dbpedia.org/resource/Real_estate"}, 
{"score": 0,079258, "link": "http://dbpedia.org/resource/Rabbit"}, 
{"score": 0,079151, "link": "http://dbpedia.org/resource/Muslim"}, 
{"score": 0,078924, "link": "http://dbpedia.org/resource/BBC_Three"}, 
{"score": 0,078586, "link": "http://dbpedia.org/resource/Communication"}, 
{"score": 0,078150, "link": "http://dbpedia.org/resource/Breastfeeding"}, 
{"score": 0,077982, "link": "http://dbpedia.org/resource/Manufacturing"}, 
{"score": 0,077835, "link": "http://dbpedia.org/resource/Party"}, 
{"score": 0,077579, "link": "http://dbpedia.org/resource/Precognition"}, 
{"score": 0,077036, "link": "http://dbpedia.org/resource/Camera"}, 
{"score": 0,076826, "link": "http://dbpedia.org/resource/Human_trafficking"}, 
{"score": 0,076792, "link": "http://dbpedia.org/resource/Concert"}, 
{"score": 0,076248, "link": "http://dbpedia.org/resource/Europe"}, 
{"score": 0,076148, "link": "http://dbpedia.org/resource/Recreational_drug_use"}, 
{"score": 0,075415, "link": "http://dbpedia.org/resource/Lawsuit"}, 
{"score": 0,075412, "link": "http://dbpedia.org/resource/Tony_Hawk"}, 
{"score": 0,075126, "link": "http://dbpedia.org/resource/Christian"}, 
{"score": 0,074354, "link": "http://dbpedia.org/resource/Jane_Austen"}, 
{"score": 0,074153, "link": "http://dbpedia.org/resource/Western_(genre)"}, 
{"score": 0,073927, "link": "http://dbpedia.org/resource/Immortality"}, 
{"score": 0,073838, "link": "http://dbpedia.org/resource/Tobacco_smoking"}, 
{"score": 0,073816, "link": "http://dbpedia.org/resource/World_Wide_Web"}, 
{"score": 0,073762, "link": "http://dbpedia.org/resource/Pseudonym"}, 
{"score": 0,073671, "link": "http://dbpedia.org/resource/Childbirth"}, 
{"score": 0,073592, "link": "http://dbpedia.org/resource/Los_Angeles"}, 
{"score": 0,073377, "link": "http://dbpedia.org/resource/Box_office"}, 
{"score": 0,073141, "link": "http://dbpedia.org/resource/BBC_Two"}, 
{"score": 0,072757, "link": "http://dbpedia.org/resource/Police"}, 
{"score": 0,072703, "link": "http://dbpedia.org/resource/Speech"}, 
{"score": 0,072567, "link": "http://dbpedia.org/resource/Poverty"}, 
{"score": 0,072518, "link": "http://dbpedia.org/resource/Japan"}, 
{"score": 0,072235, "link": "http://dbpedia.org/resource/Beauty"}, 
{"score": 0,071924, "link": "http://dbpedia.org/resource/Cover_version"}, 
{"score": 0,071846, "link": "http://dbpedia.org/resource/Cliff_Richard"}, 
{"score": 0,071499, "link": "http://dbpedia.org/resource/Christmas_tree"}, 
{"score": 0,071447, "link": "http://dbpedia.org/resource/War"}, 
{"score": 0,071290, "link": "http://dbpedia.org/resource/Infant"}, 
{"score": 0,071177, "link": "http://dbpedia.org/resource/Gold"}, 
{"score": 0,070874, "link": "http://dbpedia.org/resource/Developing_country"}, 
{"score": 0,070681, "link": "http://dbpedia.org/resource/Child_abandonment"}, 
{"score": 0,070613, "link": "http://dbpedia.org/resource/Education"}, 
{"score": 0,070475, "link": "http://dbpedia.org/resource/Skunk"}, 
{"score": 0,069922, "link": "http://dbpedia.org/resource/Death"}, 
{"score": 0,069552, "link": "http://dbpedia.org/resource/German_language"}, 
{"score": 0,069501, "link": "http://dbpedia.org/resource/Racism"}, 
{"score": 0,068350, "link": "http://dbpedia.org/resource/Spanish_language"}, 
{"score": 0,068026, "link": "http://dbpedia.org/resource/Jack_Black"}, 
{"score": 0,067616, "link": "http://dbpedia.org/resource/Clothing"}, 
{"score": 0,066675, "link": "http://dbpedia.org/resource/Free_will"}, 
{"score": 0,066346, "link": "http://dbpedia.org/resource/African_American"}, 
{"score": 0,065450, "link": "http://dbpedia.org/resource/Gender_role"}, 
{"score": 0,065267, "link": "http://dbpedia.org/resource/Apocalypse"}, 
{"score": 0,064694, "link": "http://dbpedia.org/resource/Leukemia"}, 
{"score": 0,064604, "link": "http://dbpedia.org/resource/Viral_video"}, 
{"score": 0,064319, "link": "http://dbpedia.org/resource/London"}, 
{"score": 0,064257, "link": "http://dbpedia.org/resource/Rodgers_and_Hammerstein"}, 
{"score": 0,063624, "link": "http://dbpedia.org/resource/Logistics"}, 
{"score": 0,062520, "link": "http://dbpedia.org/resource/Look-alike"}, 
{"score": 0,062092, "link": "http://dbpedia.org/resource/Evangelism"}, 
{"score": 0,061544, "link": "http://dbpedia.org/resource/Train"}, 
{"score": 0,061518, "link": "http://dbpedia.org/resource/Sense"}, 
{"score": 0,061434, "link": "http://dbpedia.org/resource/World_War_II"}, 
{"score": 0,060036, "link": "http://dbpedia.org/resource/Shoe"}, 
{"score": 0,059970, "link": "http://dbpedia.org/resource/Gun"}, 
{"score": 0,059910, "link": "http://dbpedia.org/resource/Film_criticism"}, 
{"score": 0,059709, "link": "http://dbpedia.org/resource/India"}, 
{"score": 0,059530, "link": "http://dbpedia.org/resource/Teacher"}, 
{"score": 0,059363, "link": "http://dbpedia.org/resource/File_sharing"}, 
{"score": 0,058831, "link": "http://dbpedia.org/resource/Don_Draper"}, 
{"score": 0,058224, "link": "http://dbpedia.org/resource/Archaeology"}, 
{"score": 0,058177, "link": "http://dbpedia.org/resource/Austria"}, 
{"score": 0,058020, "link": "http://dbpedia.org/resource/Edinburgh"}, 
{"score": 0,057851, "link": "http://dbpedia.org/resource/Security_guard"}, 
{"score": 0,056920, "link": "http://dbpedia.org/resource/Israel"}, 
{"score": 0,056698, "link": "http://dbpedia.org/resource/Number"}, 
{"score": 0,056467, "link": "http://dbpedia.org/resource/Hunting"}, 
{"score": 0,056350, "link": "http://dbpedia.org/resource/Australia"}, 
{"score": 0,056089, "link": "http://dbpedia.org/resource/Embroidery"}, 
{"score": 0,055313, "link": "http://dbpedia.org/resource/Malaysia"}, 
{"score": 0,055221, "link": "http://dbpedia.org/resource/Hinduism"}, 
{"score": 0,054948, "link": "http://dbpedia.org/resource/World_War_I"}, 
{"score": 0,054868, "link": "http://dbpedia.org/resource/Coal"}, 
{"score": 0,054396, "link": "http://dbpedia.org/resource/Public_speaking"}, 
{"score": 0,053990, "link": "http://dbpedia.org/resource/Justice"}, 
{"score": 0,053506, "link": "http://dbpedia.org/resource/Atomic_bombings_of_Hiroshima_and_Nagasaki"}, 
{"score": 0,053295, "link": "http://dbpedia.org/resource/Human_migration"}, 
{"score": 0,052953, "link": "http://dbpedia.org/resource/Product_design"}, 
{"score": 0,052596, "link": "http://dbpedia.org/resource/Computer_file"}, 
{"score": 0,052286, "link": "http://dbpedia.org/resource/Visual_perception"}, 
{"score": 0,052225, "link": "http://dbpedia.org/resource/Opinion"}, 
{"score": 0,051985, "link": "http://dbpedia.org/resource/Bavaria"}, 
{"score": 0,051948, "link": "http://dbpedia.org/resource/Derby"}, 
{"score": 0,051709, "link": "http://dbpedia.org/resource/Amusement_park"}, 
{"score": 0,051706, "link": "http://dbpedia.org/resource/Brian_May"}, 
{"score": 0,050547, "link": "http://dbpedia.org/resource/Mating"}, 
{"score": 0,049739, "link": "http://dbpedia.org/resource/Chemistry"}, 
{"score": 0,049421, "link": "http://dbpedia.org/resource/String_instrument"}, 
{"score": 0,048961, "link": "http://dbpedia.org/resource/Speed"}, 
{"score": 0,048821, "link": "http://dbpedia.org/resource/Oregon"}, 
{"score": 0,047872, "link": "http://dbpedia.org/resource/Wage"}, 
{"score": 0,047319, "link": "http://dbpedia.org/resource/Kellogg_Company"}, 
{"score": 0,046326, "link": "http://dbpedia.org/resource/Injunction"}, 
{"score": 0,046094, "link": "http://dbpedia.org/resource/Taoism"}, 
{"score": 0,045834, "link": "http://dbpedia.org/resource/Ritual"}, 
{"score": 0,045750, "link": "http://dbpedia.org/resource/Animal_communication"}, 
{"score": 0,045103, "link": "http://dbpedia.org/resource/Planning"}, 
{"score": 0,044718, "link": "http://dbpedia.org/resource/Fee"}, 
{"score": 0,044589, "link": "http://dbpedia.org/resource/Last.fm"}, 
{"score": 0,044451, "link": "http://dbpedia.org/resource/Belief"}, 
{"score": 0,044294, "link": "http://dbpedia.org/resource/Big_Bang"}, 
{"score": 0,043701, "link": "http://dbpedia.org/resource/Education_in_the_United_States"}, 
{"score": 0,043524, "link": "http://dbpedia.org/resource/Geology"}, 
{"score": 0,043254, "link": "http://dbpedia.org/resource/Domestic_worker"}, 
{"score": 0,043165, "link": "http://dbpedia.org/resource/Project_Gemini"}, 
{"score": 0,042578, "link": "http://dbpedia.org/resource/Castle"}, 
{"score": 0,042092, "link": "http://dbpedia.org/resource/Angola"}, 
{"score": 0,041763, "link": "http://dbpedia.org/resource/Shipwreck"}, 
{"score": 0,041657, "link": "http://dbpedia.org/resource/Bargaining"}, 
{"score": 0,040824, "link": "http://dbpedia.org/resource/Hearing_(sense)"}, 
{"score": 0,039739, "link": "http://dbpedia.org/resource/Probability"}, 
{"score": 0,038922, "link": "http://dbpedia.org/resource/How-to"}, 
{"score": 0,038839, "link": "http://dbpedia.org/resource/Pentecostalism"}, 
{"score": 0,038592, "link": "http://dbpedia.org/resource/Thought"}, 
{"score": 0,038132, "link": "http://dbpedia.org/resource/Border"}, 
{"score": 0,036534, "link": "http://dbpedia.org/resource/Tao"}, 
{"score": 0,036431, "link": "http://dbpedia.org/resource/Holism"}, 
{"score": 0,034711, "link": "http://dbpedia.org/resource/Genetic_testing"}, 
{"score": 0,034648, "link": "http://dbpedia.org/resource/Kenneth_More"}, 
{"score": 0,034611, "link": "http://dbpedia.org/resource/Uploading_and_downloading"}, 
{"score": 0,034314, "link": "http://dbpedia.org/resource/Etymology"}, 
{"score": 0,033239, "link": "http://dbpedia.org/resource/Sperm"}, 
{"score": 0,029670, "link": "http://dbpedia.org/resource/Horse_breeding"}, 
{"score": 0,029355, "link": "http://dbpedia.org/resource/Military_strategy"}, 
{"score": 0,028941, "link": "http://dbpedia.org/resource/Train_station"}, 
{"score": 0,028588, "link": "http://dbpedia.org/resource/Meadow"}, 
{"score": 0,028089, "link": "http://dbpedia.org/resource/Nine_(musical)"}, 
{"score": 0,026644, "link": "http://dbpedia.org/resource/Forced_marriage"}, 
{"score": 0,024044, "link": "http://dbpedia.org/resource/Dinghy"}, 
{"score": 0,023645, "link": "http://dbpedia.org/resource/Mexican_Drug_War"}, 
{"score": 0,020741, "link": "http://dbpedia.org/resource/Acacia"}, 
{"score": 0,020056, "link": "http://dbpedia.org/resource/Outfielder"}, 
{"score": 0,019472, "link": "http://dbpedia.org/resource/We_Are_Scientists"}, 
{"score": 0,017997, "link": "http://dbpedia.org/resource/Campsite"}, 
{"score": 0,015523, "link": "http://dbpedia.org/resource/Surrender_of_Japan"}, 
{"score": 0,013646, "link": "http://dbpedia.org/resource/Cell_division"}, 
{"score": 0,013202, "link": "http://dbpedia.org/resource/Council_Tax"}, 
{"score": 0,002383, "link": "http://dbpedia.org/resource/London_Grand_Prix"}]
