[{"score": 0,145684, "link": "http://dbpedia.org/resource/Neuroimaging"}, 
{"score": 0,135657, "link": "http://dbpedia.org/resource/Human_brain"}, 
{"score": 0,133428, "link": "http://dbpedia.org/resource/Ultrasound"}, 
{"score": 0,115820, "link": "http://dbpedia.org/resource/Medical_imaging"}, 
{"score": 0,113514, "link": "http://dbpedia.org/resource/Resonance"}, 
{"score": 0,101377, "link": "http://dbpedia.org/resource/Visual_perception"}, 
{"score": 0,099931, "link": "http://dbpedia.org/resource/Abortion"}, 
{"score": 0,097979, "link": "http://dbpedia.org/resource/Pregnancy"}, 
{"score": 0,088495, "link": "http://dbpedia.org/resource/Time"}, 
{"score": 0,085876, "link": "http://dbpedia.org/resource/Technology"}, 
{"score": 0,084571, "link": "http://dbpedia.org/resource/Sound"}, 
{"score": 0,083992, "link": "http://dbpedia.org/resource/Physics"}, 
{"score": 0,080670, "link": "http://dbpedia.org/resource/Speech"}, 
{"score": 0,080267, "link": "http://dbpedia.org/resource/Computer"}, 
{"score": 0,080134, "link": "http://dbpedia.org/resource/Medicine"}, 
{"score": 0,079214, "link": "http://dbpedia.org/resource/Science_fiction"}, 
{"score": 0,078569, "link": "http://dbpedia.org/resource/Biology"}, 
{"score": 0,078143, "link": "http://dbpedia.org/resource/Nervous_system"}, 
{"score": 0,078020, "link": "http://dbpedia.org/resource/DNA"}, 
{"score": 0,076797, "link": "http://dbpedia.org/resource/Human"}, 
{"score": 0,075854, "link": "http://dbpedia.org/resource/Earth"}, 
{"score": 0,073098, "link": "http://dbpedia.org/resource/Death"}, 
{"score": 0,069270, "link": "http://dbpedia.org/resource/Emotion"}, 
{"score": 0,068898, "link": "http://dbpedia.org/resource/Infant"}, 
{"score": 0,068575, "link": "http://dbpedia.org/resource/Birth"}, 
{"score": 0,067224, "link": "http://dbpedia.org/resource/Immune_system"}, 
{"score": 0,067026, "link": "http://dbpedia.org/resource/Society"}, 
{"score": 0,066227, "link": "http://dbpedia.org/resource/Communication"}, 
{"score": 0,065907, "link": "http://dbpedia.org/resource/Physiology"}, 
{"score": 0,065739, "link": "http://dbpedia.org/resource/Education"}, 
{"score": 0,064954, "link": "http://dbpedia.org/resource/Sociology"}, 
{"score": 0,064273, "link": "http://dbpedia.org/resource/Doctor_Who"}, 
{"score": 0,063966, "link": "http://dbpedia.org/resource/Climate_change"}, 
{"score": 0,063794, "link": "http://dbpedia.org/resource/Telepathy"}, 
{"score": 0,063493, "link": "http://dbpedia.org/resource/Free_will"}, 
{"score": 0,061551, "link": "http://dbpedia.org/resource/Law"}, 
{"score": 0,061320, "link": "http://dbpedia.org/resource/China"}, 
{"score": 0,061288, "link": "http://dbpedia.org/resource/Human_evolution"}, 
{"score": 0,061208, "link": "http://dbpedia.org/resource/Atmosphere"}, 
{"score": 0,060677, "link": "http://dbpedia.org/resource/God"}, 
{"score": 0,060051, "link": "http://dbpedia.org/resource/Pain"}, 
{"score": 0,059603, "link": "http://dbpedia.org/resource/Film"}, 
{"score": 0,059454, "link": "http://dbpedia.org/resource/Life"}, 
{"score": 0,059422, "link": "http://dbpedia.org/resource/Spleen"}, 
{"score": 0,059268, "link": "http://dbpedia.org/resource/Murder"}, 
{"score": 0,059234, "link": "http://dbpedia.org/resource/Biomechanics"}, 
{"score": 0,059138, "link": "http://dbpedia.org/resource/Archaeology"}, 
{"score": 0,058320, "link": "http://dbpedia.org/resource/Photography"}, 
{"score": 0,058143, "link": "http://dbpedia.org/resource/Human_rights"}, 
{"score": 0,057748, "link": "http://dbpedia.org/resource/Sun"}, 
{"score": 0,057578, "link": "http://dbpedia.org/resource/German_language"}, 
{"score": 0,057290, "link": "http://dbpedia.org/resource/Rape"}, 
{"score": 0,056521, "link": "http://dbpedia.org/resource/Japan"}, 
{"score": 0,056434, "link": "http://dbpedia.org/resource/Metabolism"}, 
{"score": 0,056346, "link": "http://dbpedia.org/resource/Computer_graphics"}, 
{"score": 0,056186, "link": "http://dbpedia.org/resource/Geography"}, 
{"score": 0,055728, "link": "http://dbpedia.org/resource/Apollo_11"}, 
{"score": 0,055063, "link": "http://dbpedia.org/resource/Europe"}, 
{"score": 0,054819, "link": "http://dbpedia.org/resource/United_Kingdom"}, 
{"score": 0,054726, "link": "http://dbpedia.org/resource/Pop_music"}, 
{"score": 0,054397, "link": "http://dbpedia.org/resource/Facebook"}, 
{"score": 0,053788, "link": "http://dbpedia.org/resource/Dualism"}, 
{"score": 0,053699, "link": "http://dbpedia.org/resource/Nuclear_fusion"}, 
{"score": 0,053575, "link": "http://dbpedia.org/resource/Insanity"}, 
{"score": 0,053196, "link": "http://dbpedia.org/resource/Ageing"}, 
{"score": 0,053061, "link": "http://dbpedia.org/resource/Oxygen"}, 
{"score": 0,052594, "link": "http://dbpedia.org/resource/Patent"}, 
{"score": 0,052248, "link": "http://dbpedia.org/resource/University_of_Oxford"}, 
{"score": 0,052192, "link": "http://dbpedia.org/resource/Telecommunication"}, 
{"score": 0,052005, "link": "http://dbpedia.org/resource/Single_(music)"}, 
{"score": 0,051998, "link": "http://dbpedia.org/resource/Myocardial_infarction"}, 
{"score": 0,051985, "link": "http://dbpedia.org/resource/Thought"}, 
{"score": 0,051757, "link": "http://dbpedia.org/resource/Down_syndrome"}, 
{"score": 0,051619, "link": "http://dbpedia.org/resource/The_Wall_Street_Journal"}, 
{"score": 0,051296, "link": "http://dbpedia.org/resource/Renal_failure"}, 
{"score": 0,051286, "link": "http://dbpedia.org/resource/Greenhouse_gas"}, 
{"score": 0,051019, "link": "http://dbpedia.org/resource/Writing"}, 
{"score": 0,050934, "link": "http://dbpedia.org/resource/Sign_language"}, 
{"score": 0,050858, "link": "http://dbpedia.org/resource/Racism"}, 
{"score": 0,050808, "link": "http://dbpedia.org/resource/Bible"}, 
{"score": 0,050757, "link": "http://dbpedia.org/resource/Pseudonym"}, 
{"score": 0,050553, "link": "http://dbpedia.org/resource/Soviet_Union"}, 
{"score": 0,050280, "link": "http://dbpedia.org/resource/Canada"}, 
{"score": 0,050279, "link": "http://dbpedia.org/resource/Song"}, 
{"score": 0,050184, "link": "http://dbpedia.org/resource/Medical_school"}, 
{"score": 0,050158, "link": "http://dbpedia.org/resource/Theology"}, 
{"score": 0,049645, "link": "http://dbpedia.org/resource/Communism"}, 
{"score": 0,049625, "link": "http://dbpedia.org/resource/Cat"}, 
{"score": 0,049448, "link": "http://dbpedia.org/resource/Vietnam_War"}, 
{"score": 0,049376, "link": "http://dbpedia.org/resource/Orgasm"}, 
{"score": 0,049326, "link": "http://dbpedia.org/resource/French_language"}, 
{"score": 0,049208, "link": "http://dbpedia.org/resource/Genre"}, 
{"score": 0,049087, "link": "http://dbpedia.org/resource/Satire"}, 
{"score": 0,049034, "link": "http://dbpedia.org/resource/Horse"}, 
{"score": 0,048989, "link": "http://dbpedia.org/resource/Newspaper"}, 
{"score": 0,048870, "link": "http://dbpedia.org/resource/Mind_control"}, 
{"score": 0,048634, "link": "http://dbpedia.org/resource/Hell"}, 
{"score": 0,048560, "link": "http://dbpedia.org/resource/World_War_II"}, 
{"score": 0,048519, "link": "http://dbpedia.org/resource/Heart_valve"}, 
{"score": 0,048424, "link": "http://dbpedia.org/resource/Sex"}, 
{"score": 0,048406, "link": "http://dbpedia.org/resource/Earthquake"}, 
{"score": 0,048343, "link": "http://dbpedia.org/resource/Outer_space"}, 
{"score": 0,048165, "link": "http://dbpedia.org/resource/Asia"}, 
{"score": 0,048164, "link": "http://dbpedia.org/resource/Paris"}, 
{"score": 0,047898, "link": "http://dbpedia.org/resource/Theatre"}, 
{"score": 0,047853, "link": "http://dbpedia.org/resource/University"}, 
{"score": 0,047829, "link": "http://dbpedia.org/resource/Physical_fitness"}, 
{"score": 0,047792, "link": "http://dbpedia.org/resource/Sexual_abuse"}, 
{"score": 0,047618, "link": "http://dbpedia.org/resource/Teacher"}, 
{"score": 0,047595, "link": "http://dbpedia.org/resource/Performance"}, 
{"score": 0,046945, "link": "http://dbpedia.org/resource/Animal_communication"}, 
{"score": 0,046913, "link": "http://dbpedia.org/resource/Synthesizer"}, 
{"score": 0,046846, "link": "http://dbpedia.org/resource/South_Africa"}, 
{"score": 0,046576, "link": "http://dbpedia.org/resource/Academia"}, 
{"score": 0,046431, "link": "http://dbpedia.org/resource/Berlin"}, 
{"score": 0,046330, "link": "http://dbpedia.org/resource/Comedy"}, 
{"score": 0,046257, "link": "http://dbpedia.org/resource/Cartography"}, 
{"score": 0,046238, "link": "http://dbpedia.org/resource/Blog"}, 
{"score": 0,045642, "link": "http://dbpedia.org/resource/Reality"}, 
{"score": 0,045608, "link": "http://dbpedia.org/resource/Prostitution"}, 
{"score": 0,044772, "link": "http://dbpedia.org/resource/Brand"}, 
{"score": 0,044680, "link": "http://dbpedia.org/resource/Chicago"}, 
{"score": 0,044641, "link": "http://dbpedia.org/resource/War"}, 
{"score": 0,044615, "link": "http://dbpedia.org/resource/Parenting"}, 
{"score": 0,043953, "link": "http://dbpedia.org/resource/Universe"}, 
{"score": 0,043733, "link": "http://dbpedia.org/resource/Measurement"}, 
{"score": 0,043485, "link": "http://dbpedia.org/resource/Republican_Party_(United_States)"}, 
{"score": 0,043300, "link": "http://dbpedia.org/resource/Arranged_marriage"}, 
{"score": 0,043066, "link": "http://dbpedia.org/resource/Arthropod"}, 
{"score": 0,043044, "link": "http://dbpedia.org/resource/Finance"}, 
{"score": 0,042890, "link": "http://dbpedia.org/resource/Roman_Empire"}, 
{"score": 0,042764, "link": "http://dbpedia.org/resource/Waltz"}, 
{"score": 0,042764, "link": "http://dbpedia.org/resource/Herbalism"}, 
{"score": 0,042128, "link": "http://dbpedia.org/resource/Developing_country"}, 
{"score": 0,042061, "link": "http://dbpedia.org/resource/Filmmaking"}, 
{"score": 0,041690, "link": "http://dbpedia.org/resource/Firearm"}, 
{"score": 0,041404, "link": "http://dbpedia.org/resource/Truth"}, 
{"score": 0,041349, "link": "http://dbpedia.org/resource/Racial_segregation"}, 
{"score": 0,041322, "link": "http://dbpedia.org/resource/String_instrument"}, 
{"score": 0,040927, "link": "http://dbpedia.org/resource/Record_chart"}, 
{"score": 0,039537, "link": "http://dbpedia.org/resource/Holy_See"}, 
{"score": 0,039479, "link": "http://dbpedia.org/resource/Muhammad"}, 
{"score": 0,038116, "link": "http://dbpedia.org/resource/Belarus"}, 
{"score": 0,037809, "link": "http://dbpedia.org/resource/Security"}, 
{"score": 0,037776, "link": "http://dbpedia.org/resource/Belief"}, 
{"score": 0,037727, "link": "http://dbpedia.org/resource/Werewolf"}, 
{"score": 0,037173, "link": "http://dbpedia.org/resource/Seoul"}, 
{"score": 0,036727, "link": "http://dbpedia.org/resource/Record_producer"}, 
{"score": 0,036692, "link": "http://dbpedia.org/resource/Library"}, 
{"score": 0,036637, "link": "http://dbpedia.org/resource/Taoism"}, 
{"score": 0,036598, "link": "http://dbpedia.org/resource/Male"}, 
{"score": 0,036286, "link": "http://dbpedia.org/resource/Random_House"}, 
{"score": 0,035485, "link": "http://dbpedia.org/resource/Salvation"}, 
{"score": 0,035356, "link": "http://dbpedia.org/resource/Eastern_Orthodox_Church"}, 
{"score": 0,035201, "link": "http://dbpedia.org/resource/Potato"}, 
{"score": 0,035057, "link": "http://dbpedia.org/resource/Acid_rain"}, 
{"score": 0,034598, "link": "http://dbpedia.org/resource/Justice"}, 
{"score": 0,034481, "link": "http://dbpedia.org/resource/Bankruptcy"}, 
{"score": 0,034436, "link": "http://dbpedia.org/resource/The_Doors"}, 
{"score": 0,034299, "link": "http://dbpedia.org/resource/Smelting"}, 
{"score": 0,034204, "link": "http://dbpedia.org/resource/File_sharing"}, 
{"score": 0,034058, "link": "http://dbpedia.org/resource/BMW"}, 
{"score": 0,033549, "link": "http://dbpedia.org/resource/Concert"}, 
{"score": 0,033491, "link": "http://dbpedia.org/resource/Fundamentalism"}, 
{"score": 0,033449, "link": "http://dbpedia.org/resource/The_arts"}, 
{"score": 0,033317, "link": "http://dbpedia.org/resource/Bank"}, 
{"score": 0,033264, "link": "http://dbpedia.org/resource/Angola"}, 
{"score": 0,033024, "link": "http://dbpedia.org/resource/Baseball"}, 
{"score": 0,032950, "link": "http://dbpedia.org/resource/Sperm"}, 
{"score": 0,032186, "link": "http://dbpedia.org/resource/Dominican_Republic"}, 
{"score": 0,032157, "link": "http://dbpedia.org/resource/Idealism"}, 
{"score": 0,032100, "link": "http://dbpedia.org/resource/Shiva"}, 
{"score": 0,031586, "link": "http://dbpedia.org/resource/2008_Summer_Olympics"}, 
{"score": 0,031362, "link": "http://dbpedia.org/resource/Quebec"}, 
{"score": 0,031139, "link": "http://dbpedia.org/resource/Freddie_Mercury"}, 
{"score": 0,030894, "link": "http://dbpedia.org/resource/Bob_Hope"}, 
{"score": 0,030833, "link": "http://dbpedia.org/resource/Somalia"}, 
{"score": 0,030307, "link": "http://dbpedia.org/resource/Meat"}, 
{"score": 0,030188, "link": "http://dbpedia.org/resource/O._J._Simpson_murder_case"}, 
{"score": 0,030174, "link": "http://dbpedia.org/resource/Mountaineering"}, 
{"score": 0,030034, "link": "http://dbpedia.org/resource/Premier_League"}, 
{"score": 0,029780, "link": "http://dbpedia.org/resource/Christopher_Columbus"}, 
{"score": 0,029374, "link": "http://dbpedia.org/resource/Rail_transport"}, 
{"score": 0,029357, "link": "http://dbpedia.org/resource/Joke"}, 
{"score": 0,028834, "link": "http://dbpedia.org/resource/Parthenogenesis"}, 
{"score": 0,028318, "link": "http://dbpedia.org/resource/Walking"}, 
{"score": 0,028316, "link": "http://dbpedia.org/resource/Stock_market"}, 
{"score": 0,028294, "link": "http://dbpedia.org/resource/Flower"}, 
{"score": 0,028222, "link": "http://dbpedia.org/resource/Bosnian_War"}, 
{"score": 0,028219, "link": "http://dbpedia.org/resource/Stadium"}, 
{"score": 0,028072, "link": "http://dbpedia.org/resource/LGBT_social_movements"}, 
{"score": 0,027955, "link": "http://dbpedia.org/resource/Endangered_species"}, 
{"score": 0,027919, "link": "http://dbpedia.org/resource/Royal_Academy"}, 
{"score": 0,027279, "link": "http://dbpedia.org/resource/Pricing"}, 
{"score": 0,027271, "link": "http://dbpedia.org/resource/Matchmaking"}, 
{"score": 0,027147, "link": "http://dbpedia.org/resource/Fishing"}, 
{"score": 0,026874, "link": "http://dbpedia.org/resource/Addiction"}, 
{"score": 0,026525, "link": "http://dbpedia.org/resource/Dark_Ages_(historiography)"}, 
{"score": 0,026509, "link": "http://dbpedia.org/resource/Embroidery"}, 
{"score": 0,026223, "link": "http://dbpedia.org/resource/Taxidermy"}, 
{"score": 0,026126, "link": "http://dbpedia.org/resource/Auto_racing"}, 
{"score": 0,025840, "link": "http://dbpedia.org/resource/Brian_May"}, 
{"score": 0,025796, "link": "http://dbpedia.org/resource/New_York_Yankees"}, 
{"score": 0,025582, "link": "http://dbpedia.org/resource/Etymology"}, 
{"score": 0,025453, "link": "http://dbpedia.org/resource/England_national_football_team"}, 
{"score": 0,025072, "link": "http://dbpedia.org/resource/Dating"}, 
{"score": 0,024945, "link": "http://dbpedia.org/resource/Public_Enemy_(group)"}, 
{"score": 0,024876, "link": "http://dbpedia.org/resource/Airliner"}, 
{"score": 0,024750, "link": "http://dbpedia.org/resource/Wind_power"}, 
{"score": 0,024404, "link": "http://dbpedia.org/resource/Classroom"}, 
{"score": 0,024290, "link": "http://dbpedia.org/resource/Water_pollution"}, 
{"score": 0,024228, "link": "http://dbpedia.org/resource/Child_abandonment"}, 
{"score": 0,024150, "link": "http://dbpedia.org/resource/England_cricket_team"}, 
{"score": 0,024033, "link": "http://dbpedia.org/resource/Brad_Pitt"}, 
{"score": 0,024022, "link": "http://dbpedia.org/resource/Multiverse"}, 
{"score": 0,023999, "link": "http://dbpedia.org/resource/Pat_Boone"}, 
{"score": 0,023942, "link": "http://dbpedia.org/resource/Speed_limit"}, 
{"score": 0,023591, "link": "http://dbpedia.org/resource/Startup_company"}, 
{"score": 0,023454, "link": "http://dbpedia.org/resource/Passion_(Christianity)"}, 
{"score": 0,023152, "link": "http://dbpedia.org/resource/Gingiva"}, 
{"score": 0,022802, "link": "http://dbpedia.org/resource/Shopping_mall"}, 
{"score": 0,022799, "link": "http://dbpedia.org/resource/Battle_of_France"}, 
{"score": 0,022576, "link": "http://dbpedia.org/resource/Peach"}, 
{"score": 0,022481, "link": "http://dbpedia.org/resource/Tomato"}, 
{"score": 0,020934, "link": "http://dbpedia.org/resource/The_Mothers_of_Invention"}, 
{"score": 0,020607, "link": "http://dbpedia.org/resource/Star_cluster"}, 
{"score": 0,020586, "link": "http://dbpedia.org/resource/Minor_league_baseball"}, 
{"score": 0,020416, "link": "http://dbpedia.org/resource/Appeal"}, 
{"score": 0,020299, "link": "http://dbpedia.org/resource/Stock_Aitken_Waterman"}, 
{"score": 0,020105, "link": "http://dbpedia.org/resource/Claw"}, 
{"score": 0,019920, "link": "http://dbpedia.org/resource/Border"}, 
{"score": 0,019840, "link": "http://dbpedia.org/resource/Barrister"}, 
{"score": 0,019765, "link": "http://dbpedia.org/resource/Jeffrey_Sachs"}, 
{"score": 0,018988, "link": "http://dbpedia.org/resource/Twenty20"}, 
{"score": 0,018933, "link": "http://dbpedia.org/resource/We_Are_Scientists"}, 
{"score": 0,018632, "link": "http://dbpedia.org/resource/Outfielder"}, 
{"score": 0,018545, "link": "http://dbpedia.org/resource/20th_century"}, 
{"score": 0,018110, "link": "http://dbpedia.org/resource/Ruhollah_Khomeini"}, 
{"score": 0,017950, "link": "http://dbpedia.org/resource/1970s_in_music"}, 
{"score": 0,017032, "link": "http://dbpedia.org/resource/Spa"}, 
{"score": 0,016903, "link": "http://dbpedia.org/resource/Lemon"}, 
{"score": 0,016715, "link": "http://dbpedia.org/resource/Contentment"}, 
{"score": 0,016646, "link": "http://dbpedia.org/resource/Take-out"}, 
{"score": 0,016080, "link": "http://dbpedia.org/resource/Surrender_of_Japan"}, 
{"score": 0,014874, "link": "http://dbpedia.org/resource/EverQuest"}, 
{"score": 0,014316, "link": "http://dbpedia.org/resource/Convenience_food"}, 
{"score": 0,014297, "link": "http://dbpedia.org/resource/Leaf"}, 
{"score": 0,014126, "link": "http://dbpedia.org/resource/Berwick-upon-Tweed"}, 
{"score": 0,013877, "link": "http://dbpedia.org/resource/BBC_Trust"}, 
{"score": 0,012959, "link": "http://dbpedia.org/resource/Rafael_Nadal"}, 
{"score": 0,011736, "link": "http://dbpedia.org/resource/Talking_animal"}, 
{"score": 0,011553, "link": "http://dbpedia.org/resource/Train_station"}, 
{"score": 0,008841, "link": "http://dbpedia.org/resource/London_Grand_Prix"}, 
{"score": 0,007205, "link": "http://dbpedia.org/resource/Nine_(musical)"}, 
{"score": 0,006943, "link": "http://dbpedia.org/resource/2011_Formula_One_season"}, 
{"score": 0,004950, "link": "http://dbpedia.org/resource/Rugby_sevens"}, 
{"score": 0,004723, "link": "http://dbpedia.org/resource/The_Few"}, 
{"score": 0,004595, "link": "http://dbpedia.org/resource/Syd_Little"}, 
{"score": 0,003629, "link": "http://dbpedia.org/resource/Apple_juice"}, 
{"score": 0,002124, "link": "http://dbpedia.org/resource/Digby_Jones,_Baron_Jones_of_Birmingham"}]
