[{"score": 0,185381, "link": "http://dbpedia.org/resource/Jesus"}, 
{"score": 0,163568, "link": "http://dbpedia.org/resource/God"}, 
{"score": 0,162741, "link": "http://dbpedia.org/resource/Supernatural"}, 
{"score": 0,148082, "link": "http://dbpedia.org/resource/Vampire"}, 
{"score": 0,142891, "link": "http://dbpedia.org/resource/Free_will"}, 
{"score": 0,139341, "link": "http://dbpedia.org/resource/Hell"}, 
{"score": 0,130579, "link": "http://dbpedia.org/resource/Miracle"}, 
{"score": 0,126033, "link": "http://dbpedia.org/resource/Christianity"}, 
{"score": 0,124126, "link": "http://dbpedia.org/resource/Old_Testament"}, 
{"score": 0,123539, "link": "http://dbpedia.org/resource/Crucifixion_of_Jesus"}, 
{"score": 0,117961, "link": "http://dbpedia.org/resource/Judaism"}, 
{"score": 0,117318, "link": "http://dbpedia.org/resource/New_Testament"}, 
{"score": 0,116281, "link": "http://dbpedia.org/resource/Heresy"}, 
{"score": 0,114754, "link": "http://dbpedia.org/resource/Meaning_of_life"}, 
{"score": 0,112735, "link": "http://dbpedia.org/resource/Time_travel"}, 
{"score": 0,111159, "link": "http://dbpedia.org/resource/Exorcism"}, 
{"score": 0,108992, "link": "http://dbpedia.org/resource/Psychic"}, 
{"score": 0,108785, "link": "http://dbpedia.org/resource/Werewolf"}, 
{"score": 0,108699, "link": "http://dbpedia.org/resource/Christian"}, 
{"score": 0,108043, "link": "http://dbpedia.org/resource/Novel"}, 
{"score": 0,105781, "link": "http://dbpedia.org/resource/Soul"}, 
{"score": 0,103115, "link": "http://dbpedia.org/resource/Virginity"}, 
{"score": 0,102327, "link": "http://dbpedia.org/resource/Telepathy"}, 
{"score": 0,100908, "link": "http://dbpedia.org/resource/Society"}, 
{"score": 0,100077, "link": "http://dbpedia.org/resource/Excommunication"}, 
{"score": 0,099351, "link": "http://dbpedia.org/resource/Belief"}, 
{"score": 0,098650, "link": "http://dbpedia.org/resource/Human"}, 
{"score": 0,096931, "link": "http://dbpedia.org/resource/Morality"}, 
{"score": 0,095873, "link": "http://dbpedia.org/resource/Time"}, 
{"score": 0,093383, "link": "http://dbpedia.org/resource/Book"}, 
{"score": 0,092869, "link": "http://dbpedia.org/resource/Torture"}, 
{"score": 0,090845, "link": "http://dbpedia.org/resource/Human_sexuality"}, 
{"score": 0,090839, "link": "http://dbpedia.org/resource/War"}, 
{"score": 0,090725, "link": "http://dbpedia.org/resource/Suicide"}, 
{"score": 0,090308, "link": "http://dbpedia.org/resource/Fantasy"}, 
{"score": 0,089952, "link": "http://dbpedia.org/resource/Reality"}, 
{"score": 0,089526, "link": "http://dbpedia.org/resource/Life"}, 
{"score": 0,088539, "link": "http://dbpedia.org/resource/Holy_See"}, 
{"score": 0,087499, "link": "http://dbpedia.org/resource/Meditation"}, 
{"score": 0,087327, "link": "http://dbpedia.org/resource/Universe"}, 
{"score": 0,085520, "link": "http://dbpedia.org/resource/Pseudonym"}, 
{"score": 0,085311, "link": "http://dbpedia.org/resource/Religious_conversion"}, 
{"score": 0,084567, "link": "http://dbpedia.org/resource/Murder"}, 
{"score": 0,083758, "link": "http://dbpedia.org/resource/Earth"}, 
{"score": 0,083750, "link": "http://dbpedia.org/resource/Haitian_Vodou"}, 
{"score": 0,083517, "link": "http://dbpedia.org/resource/Science"}, 
{"score": 0,083096, "link": "http://dbpedia.org/resource/Father"}, 
{"score": 0,082352, "link": "http://dbpedia.org/resource/The_Wall_Street_Journal"}, 
{"score": 0,082318, "link": "http://dbpedia.org/resource/Wealth"}, 
{"score": 0,082068, "link": "http://dbpedia.org/resource/Mystery_fiction"}, 
{"score": 0,081858, "link": "http://dbpedia.org/resource/Dyslexia"}, 
{"score": 0,081677, "link": "http://dbpedia.org/resource/Chivalry"}, 
{"score": 0,081497, "link": "http://dbpedia.org/resource/Christ_Church,_Oxford"}, 
{"score": 0,081056, "link": "http://dbpedia.org/resource/Emotion"}, 
{"score": 0,081048, "link": "http://dbpedia.org/resource/History"}, 
{"score": 0,080595, "link": "http://dbpedia.org/resource/Paranoia"}, 
{"score": 0,080468, "link": "http://dbpedia.org/resource/Romani_people"}, 
{"score": 0,080366, "link": "http://dbpedia.org/resource/Children's_literature"}, 
{"score": 0,080080, "link": "http://dbpedia.org/resource/Adolescence"}, 
{"score": 0,079904, "link": "http://dbpedia.org/resource/Poverty"}, 
{"score": 0,079300, "link": "http://dbpedia.org/resource/Human_evolution"}, 
{"score": 0,079083, "link": "http://dbpedia.org/resource/Justice"}, 
{"score": 0,077809, "link": "http://dbpedia.org/resource/Jerusalem"}, 
{"score": 0,077520, "link": "http://dbpedia.org/resource/Ordination"}, 
{"score": 0,076523, "link": "http://dbpedia.org/resource/Boarding_school"}, 
{"score": 0,076241, "link": "http://dbpedia.org/resource/Child_abuse"}, 
{"score": 0,076137, "link": "http://dbpedia.org/resource/University_of_Oxford"}, 
{"score": 0,075223, "link": "http://dbpedia.org/resource/Ancient_Rome"}, 
{"score": 0,075155, "link": "http://dbpedia.org/resource/Roman_Empire"}, 
{"score": 0,074044, "link": "http://dbpedia.org/resource/Technology"}, 
{"score": 0,071633, "link": "http://dbpedia.org/resource/Taoism"}, 
{"score": 0,070517, "link": "http://dbpedia.org/resource/Horror_film"}, 
{"score": 0,069168, "link": "http://dbpedia.org/resource/Rape"}, 
{"score": 0,068694, "link": "http://dbpedia.org/resource/Western_world"}, 
{"score": 0,068568, "link": "http://dbpedia.org/resource/Violence"}, 
{"score": 0,067481, "link": "http://dbpedia.org/resource/Jack_Harkness"}, 
{"score": 0,067467, "link": "http://dbpedia.org/resource/Great_Britain"}, 
{"score": 0,067435, "link": "http://dbpedia.org/resource/Wife"}, 
{"score": 0,066835, "link": "http://dbpedia.org/resource/Southern_United_States"}, 
{"score": 0,066772, "link": "http://dbpedia.org/resource/Artificial_intelligence"}, 
{"score": 0,066693, "link": "http://dbpedia.org/resource/English_Reformation"}, 
{"score": 0,065814, "link": "http://dbpedia.org/resource/Industrial_Revolution"}, 
{"score": 0,065670, "link": "http://dbpedia.org/resource/Pregnancy"}, 
{"score": 0,065197, "link": "http://dbpedia.org/resource/Shiva"}, 
{"score": 0,064650, "link": "http://dbpedia.org/resource/Geography"}, 
{"score": 0,064634, "link": "http://dbpedia.org/resource/Celebrity"}, 
{"score": 0,064080, "link": "http://dbpedia.org/resource/Activism"}, 
{"score": 0,063840, "link": "http://dbpedia.org/resource/Dharma"}, 
{"score": 0,063813, "link": "http://dbpedia.org/resource/Family"}, 
{"score": 0,063735, "link": "http://dbpedia.org/resource/Facebook"}, 
{"score": 0,063120, "link": "http://dbpedia.org/resource/Elephant"}, 
{"score": 0,062020, "link": "http://dbpedia.org/resource/Military"}, 
{"score": 0,061923, "link": "http://dbpedia.org/resource/Thought"}, 
{"score": 0,061917, "link": "http://dbpedia.org/resource/Queen_Victoria"}, 
{"score": 0,061320, "link": "http://dbpedia.org/resource/Broadway_theatre"}, 
{"score": 0,060636, "link": "http://dbpedia.org/resource/Etymology"}, 
{"score": 0,060386, "link": "http://dbpedia.org/resource/Communication"}, 
{"score": 0,060086, "link": "http://dbpedia.org/resource/Orgasm"}, 
{"score": 0,059945, "link": "http://dbpedia.org/resource/Leukemia"}, 
{"score": 0,059519, "link": "http://dbpedia.org/resource/New_York"}, 
{"score": 0,058627, "link": "http://dbpedia.org/resource/Israel"}, 
{"score": 0,058454, "link": "http://dbpedia.org/resource/Talk_show"}, 
{"score": 0,058012, "link": "http://dbpedia.org/resource/U2"}, 
{"score": 0,057999, "link": "http://dbpedia.org/resource/Culture_of_the_United_States"}, 
{"score": 0,057451, "link": "http://dbpedia.org/resource/European_Court_of_Human_Rights"}, 
{"score": 0,056900, "link": "http://dbpedia.org/resource/Recreational_drug_use"}, 
{"score": 0,055922, "link": "http://dbpedia.org/resource/Grief"}, 
{"score": 0,055913, "link": "http://dbpedia.org/resource/Japan"}, 
{"score": 0,055191, "link": "http://dbpedia.org/resource/Anger"}, 
{"score": 0,054660, "link": "http://dbpedia.org/resource/Philosophy_of_science"}, 
{"score": 0,054541, "link": "http://dbpedia.org/resource/Vancouver"}, 
{"score": 0,054058, "link": "http://dbpedia.org/resource/Canada"}, 
{"score": 0,053998, "link": "http://dbpedia.org/resource/Party"}, 
{"score": 0,053932, "link": "http://dbpedia.org/resource/Spoken_word"}, 
{"score": 0,053808, "link": "http://dbpedia.org/resource/Speech"}, 
{"score": 0,053272, "link": "http://dbpedia.org/resource/Korea"}, 
{"score": 0,053167, "link": "http://dbpedia.org/resource/Exploration"}, 
{"score": 0,052914, "link": "http://dbpedia.org/resource/Cover_version"}, 
{"score": 0,052300, "link": "http://dbpedia.org/resource/Lawsuit"}, 
{"score": 0,052296, "link": "http://dbpedia.org/resource/Illegal_drug_trade"}, 
{"score": 0,050560, "link": "http://dbpedia.org/resource/Bavaria"}, 
{"score": 0,050462, "link": "http://dbpedia.org/resource/Festival"}, 
{"score": 0,050268, "link": "http://dbpedia.org/resource/Child_abandonment"}, 
{"score": 0,050234, "link": "http://dbpedia.org/resource/Heredity"}, 
{"score": 0,049916, "link": "http://dbpedia.org/resource/Irish_Rebellion_of_1798"}, 
{"score": 0,049775, "link": "http://dbpedia.org/resource/Napoleonic_Wars"}, 
{"score": 0,049246, "link": "http://dbpedia.org/resource/United_Nations"}, 
{"score": 0,049218, "link": "http://dbpedia.org/resource/Back_pain"}, 
{"score": 0,049146, "link": "http://dbpedia.org/resource/Fixation_(psychology)"}, 
{"score": 0,048210, "link": "http://dbpedia.org/resource/Ted_Nugent"}, 
{"score": 0,048114, "link": "http://dbpedia.org/resource/Learning"}, 
{"score": 0,047424, "link": "http://dbpedia.org/resource/Academia"}, 
{"score": 0,047034, "link": "http://dbpedia.org/resource/Deer"}, 
{"score": 0,046030, "link": "http://dbpedia.org/resource/Photography"}, 
{"score": 0,045894, "link": "http://dbpedia.org/resource/Stepfamily"}, 
{"score": 0,045704, "link": "http://dbpedia.org/resource/Research"}, 
{"score": 0,045431, "link": "http://dbpedia.org/resource/The_Shadows"}, 
{"score": 0,045253, "link": "http://dbpedia.org/resource/Maine"}, 
{"score": 0,045061, "link": "http://dbpedia.org/resource/Lahore"}, 
{"score": 0,044867, "link": "http://dbpedia.org/resource/Intimate_relationship"}, 
{"score": 0,044105, "link": "http://dbpedia.org/resource/Spa"}, 
{"score": 0,044015, "link": "http://dbpedia.org/resource/Concert"}, 
{"score": 0,043159, "link": "http://dbpedia.org/resource/Public_Enemy_(group)"}, 
{"score": 0,042746, "link": "http://dbpedia.org/resource/Yes_(band)"}, 
{"score": 0,042579, "link": "http://dbpedia.org/resource/Dominican_Republic"}, 
{"score": 0,042446, "link": "http://dbpedia.org/resource/Moonshine"}, 
{"score": 0,042265, "link": "http://dbpedia.org/resource/Embroidery"}, 
{"score": 0,041759, "link": "http://dbpedia.org/resource/Venom"}, 
{"score": 0,040256, "link": "http://dbpedia.org/resource/Oregon"}, 
{"score": 0,039775, "link": "http://dbpedia.org/resource/Angola"}, 
{"score": 0,039626, "link": "http://dbpedia.org/resource/Eleven_plus_exam"}, 
{"score": 0,039015, "link": "http://dbpedia.org/resource/Employment"}, 
{"score": 0,038900, "link": "http://dbpedia.org/resource/Contentment"}, 
{"score": 0,038538, "link": "http://dbpedia.org/resource/Metropolitan_Opera"}, 
{"score": 0,038417, "link": "http://dbpedia.org/resource/Freddie_Mercury"}, 
{"score": 0,037745, "link": "http://dbpedia.org/resource/Gemstone"}, 
{"score": 0,037588, "link": "http://dbpedia.org/resource/Coal_mining"}, 
{"score": 0,036356, "link": "http://dbpedia.org/resource/Trade"}, 
{"score": 0,036199, "link": "http://dbpedia.org/resource/Attack_on_Pearl_Harbor"}, 
{"score": 0,035755, "link": "http://dbpedia.org/resource/Sperm"}, 
{"score": 0,035681, "link": "http://dbpedia.org/resource/Appalachian_Mountains"}, 
{"score": 0,035561, "link": "http://dbpedia.org/resource/Richard_Price"}, 
{"score": 0,034601, "link": "http://dbpedia.org/resource/Plate_tectonics"}, 
{"score": 0,033301, "link": "http://dbpedia.org/resource/Lumber"}, 
{"score": 0,032073, "link": "http://dbpedia.org/resource/Office"}, 
{"score": 0,031523, "link": "http://dbpedia.org/resource/Archipelago"}, 
{"score": 0,031063, "link": "http://dbpedia.org/resource/Windmill"}, 
{"score": 0,030870, "link": "http://dbpedia.org/resource/Tabla"}, 
{"score": 0,030273, "link": "http://dbpedia.org/resource/EverQuest"}, 
{"score": 0,029405, "link": "http://dbpedia.org/resource/Pointillism"}, 
{"score": 0,028438, "link": "http://dbpedia.org/resource/Bandleader"}, 
{"score": 0,027516, "link": "http://dbpedia.org/resource/Bite"}, 
{"score": 0,027184, "link": "http://dbpedia.org/resource/Train_station"}, 
{"score": 0,023711, "link": "http://dbpedia.org/resource/Government_spending"}, 
{"score": 0,023566, "link": "http://dbpedia.org/resource/Body_piercing"}, 
{"score": 0,022737, "link": "http://dbpedia.org/resource/Alley"}, 
{"score": 0,022660, "link": "http://dbpedia.org/resource/Field_hockey"}, 
{"score": 0,020272, "link": "http://dbpedia.org/resource/We_Are_Scientists"}, 
{"score": 0,019640, "link": "http://dbpedia.org/resource/Goodison_Park"}, 
{"score": 0,015899, "link": "http://dbpedia.org/resource/Sweetness"}, 
{"score": 0,015370, "link": "http://dbpedia.org/resource/Take-out"}, 
{"score": 0,015005, "link": "http://dbpedia.org/resource/Heart_of_Midlothian_F.C."}, 
{"score": 0,013501, "link": "http://dbpedia.org/resource/Screening_(medicine)"}, 
{"score": 0,012445, "link": "http://dbpedia.org/resource/Wind_wave"}, 
{"score": 0,005411, "link": "http://dbpedia.org/resource/Whale_watching"}, 
{"score": 0,003510, "link": "http://dbpedia.org/resource/Pointing_breed"}]
