[{"score": 0,163735, "link": "http://dbpedia.org/resource/Caregiver"}, 
{"score": 0,157505, "link": "http://dbpedia.org/resource/Respite_care"}, 
{"score": 0,075159, "link": "http://dbpedia.org/resource/Life_(magazine)"}, 
{"score": 0,074803, "link": "http://dbpedia.org/resource/Christmas"}, 
{"score": 0,073726, "link": "http://dbpedia.org/resource/Sleep"}, 
{"score": 0,071397, "link": "http://dbpedia.org/resource/Pregnancy"}, 
{"score": 0,069651, "link": "http://dbpedia.org/resource/Posttraumatic_stress_disorder"}, 
{"score": 0,069508, "link": "http://dbpedia.org/resource/Father"}, 
{"score": 0,067125, "link": "http://dbpedia.org/resource/Song"}, 
{"score": 0,066003, "link": "http://dbpedia.org/resource/Reading_(process)"}, 
{"score": 0,065817, "link": "http://dbpedia.org/resource/Hell"}, 
{"score": 0,065707, "link": "http://dbpedia.org/resource/God"}, 
{"score": 0,063121, "link": "http://dbpedia.org/resource/Sexual_intercourse"}, 
{"score": 0,062885, "link": "http://dbpedia.org/resource/English_language"}, 
{"score": 0,062485, "link": "http://dbpedia.org/resource/Poetry"}, 
{"score": 0,062132, "link": "http://dbpedia.org/resource/Child_sexual_abuse"}, 
{"score": 0,061796, "link": "http://dbpedia.org/resource/Down_syndrome"}, 
{"score": 0,061257, "link": "http://dbpedia.org/resource/Infant"}, 
{"score": 0,060963, "link": "http://dbpedia.org/resource/Newspaper"}, 
{"score": 0,060915, "link": "http://dbpedia.org/resource/Magazine"}, 
{"score": 0,059571, "link": "http://dbpedia.org/resource/Domestic_worker"}, 
{"score": 0,059312, "link": "http://dbpedia.org/resource/Leukemia"}, 
{"score": 0,058225, "link": "http://dbpedia.org/resource/Rape"}, 
{"score": 0,057485, "link": "http://dbpedia.org/resource/California"}, 
{"score": 0,057197, "link": "http://dbpedia.org/resource/Health_insurance"}, 
{"score": 0,056985, "link": "http://dbpedia.org/resource/Earth"}, 
{"score": 0,056918, "link": "http://dbpedia.org/resource/Folklore"}, 
{"score": 0,056740, "link": "http://dbpedia.org/resource/Pop_music"}, 
{"score": 0,055701, "link": "http://dbpedia.org/resource/Fatigue_(medical)"}, 
{"score": 0,055571, "link": "http://dbpedia.org/resource/London"}, 
{"score": 0,055549, "link": "http://dbpedia.org/resource/Christian"}, 
{"score": 0,055396, "link": "http://dbpedia.org/resource/Boarding_school"}, 
{"score": 0,055033, "link": "http://dbpedia.org/resource/Death"}, 
{"score": 0,055019, "link": "http://dbpedia.org/resource/Ultrasound"}, 
{"score": 0,054900, "link": "http://dbpedia.org/resource/Ageing"}, 
{"score": 0,054760, "link": "http://dbpedia.org/resource/Beauty_salon"}, 
{"score": 0,054471, "link": "http://dbpedia.org/resource/Hippie"}, 
{"score": 0,053861, "link": "http://dbpedia.org/resource/Education"}, 
{"score": 0,053738, "link": "http://dbpedia.org/resource/Single_(music)"}, 
{"score": 0,053724, "link": "http://dbpedia.org/resource/Spirituality"}, 
{"score": 0,053686, "link": "http://dbpedia.org/resource/Pseudonym"}, 
{"score": 0,052912, "link": "http://dbpedia.org/resource/Shoemaking"}, 
{"score": 0,052802, "link": "http://dbpedia.org/resource/Mediumship"}, 
{"score": 0,052520, "link": "http://dbpedia.org/resource/The_Independent"}, 
{"score": 0,052124, "link": "http://dbpedia.org/resource/World_War_II"}, 
{"score": 0,052088, "link": "http://dbpedia.org/resource/Facebook"}, 
{"score": 0,051638, "link": "http://dbpedia.org/resource/World_War_I"}, 
{"score": 0,051387, "link": "http://dbpedia.org/resource/Immigration"}, 
{"score": 0,051354, "link": "http://dbpedia.org/resource/Prayer"}, 
{"score": 0,051141, "link": "http://dbpedia.org/resource/Human"}, 
{"score": 0,050945, "link": "http://dbpedia.org/resource/Book_of_Genesis"}, 
{"score": 0,050822, "link": "http://dbpedia.org/resource/Austria"}, 
{"score": 0,050719, "link": "http://dbpedia.org/resource/Canada"}, 
{"score": 0,050382, "link": "http://dbpedia.org/resource/Cocaine"}, 
{"score": 0,050154, "link": "http://dbpedia.org/resource/Cover_version"}, 
{"score": 0,050063, "link": "http://dbpedia.org/resource/New_Year's_Eve"}, 
{"score": 0,049536, "link": "http://dbpedia.org/resource/Werewolf"}, 
{"score": 0,049120, "link": "http://dbpedia.org/resource/Israel"}, 
{"score": 0,049113, "link": "http://dbpedia.org/resource/Working_class"}, 
{"score": 0,048984, "link": "http://dbpedia.org/resource/Back_pain"}, 
{"score": 0,048818, "link": "http://dbpedia.org/resource/Berlin"}, 
{"score": 0,048529, "link": "http://dbpedia.org/resource/Film"}, 
{"score": 0,048305, "link": "http://dbpedia.org/resource/United_States"}, 
{"score": 0,048203, "link": "http://dbpedia.org/resource/Real_estate"}, 
{"score": 0,048138, "link": "http://dbpedia.org/resource/Gambling"}, 
{"score": 0,047845, "link": "http://dbpedia.org/resource/Old_age"}, 
{"score": 0,047835, "link": "http://dbpedia.org/resource/Visual_perception"}, 
{"score": 0,047692, "link": "http://dbpedia.org/resource/Premier_League"}, 
{"score": 0,047687, "link": "http://dbpedia.org/resource/Train"}, 
{"score": 0,047646, "link": "http://dbpedia.org/resource/Arranged_marriage"}, 
{"score": 0,047484, "link": "http://dbpedia.org/resource/Poverty"}, 
{"score": 0,047484, "link": "http://dbpedia.org/resource/Music_industry"}, 
{"score": 0,047457, "link": "http://dbpedia.org/resource/Spa"}, 
{"score": 0,047415, "link": "http://dbpedia.org/resource/England_national_football_team"}, 
{"score": 0,047171, "link": "http://dbpedia.org/resource/School"}, 
{"score": 0,046849, "link": "http://dbpedia.org/resource/Storytelling"}, 
{"score": 0,046769, "link": "http://dbpedia.org/resource/Free_will"}, 
{"score": 0,046465, "link": "http://dbpedia.org/resource/Norway"}, 
{"score": 0,046178, "link": "http://dbpedia.org/resource/Moon"}, 
{"score": 0,046037, "link": "http://dbpedia.org/resource/Orgasm"}, 
{"score": 0,045633, "link": "http://dbpedia.org/resource/Mars"}, 
{"score": 0,045503, "link": "http://dbpedia.org/resource/Amazon.com"}, 
{"score": 0,045376, "link": "http://dbpedia.org/resource/Maine"}, 
{"score": 0,045277, "link": "http://dbpedia.org/resource/Roman_Empire"}, 
{"score": 0,045206, "link": "http://dbpedia.org/resource/Archaeology"}, 
{"score": 0,044967, "link": "http://dbpedia.org/resource/Milk"}, 
{"score": 0,044882, "link": "http://dbpedia.org/resource/Soviet_Union"}, 
{"score": 0,044825, "link": "http://dbpedia.org/resource/Physical_exercise"}, 
{"score": 0,044504, "link": "http://dbpedia.org/resource/Universe"}, 
{"score": 0,044301, "link": "http://dbpedia.org/resource/Doctor_Who"}, 
{"score": 0,044072, "link": "http://dbpedia.org/resource/Reality"}, 
{"score": 0,043944, "link": "http://dbpedia.org/resource/Feminism"}, 
{"score": 0,043658, "link": "http://dbpedia.org/resource/Resignation"}, 
{"score": 0,043657, "link": "http://dbpedia.org/resource/Chicken"}, 
{"score": 0,043478, "link": "http://dbpedia.org/resource/Royal_Academy"}, 
{"score": 0,043438, "link": "http://dbpedia.org/resource/Food"}, 
{"score": 0,043358, "link": "http://dbpedia.org/resource/Concert"}, 
{"score": 0,043130, "link": "http://dbpedia.org/resource/The_Doors"}, 
{"score": 0,043115, "link": "http://dbpedia.org/resource/Cognition"}, 
{"score": 0,042990, "link": "http://dbpedia.org/resource/Deer"}, 
{"score": 0,042681, "link": "http://dbpedia.org/resource/Supermarket"}, 
{"score": 0,042311, "link": "http://dbpedia.org/resource/High_school"}, 
{"score": 0,042233, "link": "http://dbpedia.org/resource/Big_band"}, 
{"score": 0,042171, "link": "http://dbpedia.org/resource/Performance"}, 
{"score": 0,042171, "link": "http://dbpedia.org/resource/Charity_(practice)"}, 
{"score": 0,042157, "link": "http://dbpedia.org/resource/Sex_and_the_City"}, 
{"score": 0,042088, "link": "http://dbpedia.org/resource/Random_House"}, 
{"score": 0,041749, "link": "http://dbpedia.org/resource/Goodison_Park"}, 
{"score": 0,041656, "link": "http://dbpedia.org/resource/Child_abandonment"}, 
{"score": 0,041084, "link": "http://dbpedia.org/resource/Seven_Years'_War"}, 
{"score": 0,040818, "link": "http://dbpedia.org/resource/Dharma"}, 
{"score": 0,040701, "link": "http://dbpedia.org/resource/Bank"}, 
{"score": 0,040600, "link": "http://dbpedia.org/resource/Derby"}, 
{"score": 0,040274, "link": "http://dbpedia.org/resource/House_of_Lords"}, 
{"score": 0,040225, "link": "http://dbpedia.org/resource/Public_Enemy_(group)"}, 
{"score": 0,040111, "link": "http://dbpedia.org/resource/University"}, 
{"score": 0,040024, "link": "http://dbpedia.org/resource/Wish"}, 
{"score": 0,039877, "link": "http://dbpedia.org/resource/Bavaria"}, 
{"score": 0,039450, "link": "http://dbpedia.org/resource/Outing"}, 
{"score": 0,039076, "link": "http://dbpedia.org/resource/Altitude"}, 
{"score": 0,038978, "link": "http://dbpedia.org/resource/Luck"}, 
{"score": 0,038951, "link": "http://dbpedia.org/resource/Oregon"}, 
{"score": 0,038868, "link": "http://dbpedia.org/resource/Pakistan"}, 
{"score": 0,038655, "link": "http://dbpedia.org/resource/Silk"}, 
{"score": 0,038280, "link": "http://dbpedia.org/resource/Wound"}, 
{"score": 0,038166, "link": "http://dbpedia.org/resource/Human_migration"}, 
{"score": 0,038075, "link": "http://dbpedia.org/resource/Take-out"}, 
{"score": 0,038028, "link": "http://dbpedia.org/resource/Freddie_Mercury"}, 
{"score": 0,037391, "link": "http://dbpedia.org/resource/Wealth"}, 
{"score": 0,037239, "link": "http://dbpedia.org/resource/Truck_driver"}, 
{"score": 0,037061, "link": "http://dbpedia.org/resource/Intimate_relationship"}, 
{"score": 0,036745, "link": "http://dbpedia.org/resource/War"}, 
{"score": 0,036728, "link": "http://dbpedia.org/resource/Kylie_Minogue"}, 
{"score": 0,035685, "link": "http://dbpedia.org/resource/Tank"}, 
{"score": 0,035667, "link": "http://dbpedia.org/resource/Rapping"}, 
{"score": 0,035441, "link": "http://dbpedia.org/resource/Trade"}, 
{"score": 0,035391, "link": "http://dbpedia.org/resource/Cinema_of_the_United_States"}, 
{"score": 0,035332, "link": "http://dbpedia.org/resource/Sex"}, 
{"score": 0,035150, "link": "http://dbpedia.org/resource/Castle"}, 
{"score": 0,034656, "link": "http://dbpedia.org/resource/Heredity"}, 
{"score": 0,034116, "link": "http://dbpedia.org/resource/Surrender_of_Japan"}, 
{"score": 0,034070, "link": "http://dbpedia.org/resource/Bosnian_War"}, 
{"score": 0,034047, "link": "http://dbpedia.org/resource/Invention"}, 
{"score": 0,034011, "link": "http://dbpedia.org/resource/Holism"}, 
{"score": 0,033840, "link": "http://dbpedia.org/resource/Something"}, 
{"score": 0,033348, "link": "http://dbpedia.org/resource/Brand"}, 
{"score": 0,033251, "link": "http://dbpedia.org/resource/Etymology"}, 
{"score": 0,033163, "link": "http://dbpedia.org/resource/Fast_bowling"}, 
{"score": 0,033071, "link": "http://dbpedia.org/resource/Right-wing_politics"}, 
{"score": 0,033066, "link": "http://dbpedia.org/resource/Clothing"}, 
{"score": 0,032938, "link": "http://dbpedia.org/resource/Coach_(sport)"}, 
{"score": 0,032665, "link": "http://dbpedia.org/resource/Sperm"}, 
{"score": 0,032053, "link": "http://dbpedia.org/resource/Stepfamily"}, 
{"score": 0,031702, "link": "http://dbpedia.org/resource/ZZ_Top"}, 
{"score": 0,031400, "link": "http://dbpedia.org/resource/Repatriation"}, 
{"score": 0,031195, "link": "http://dbpedia.org/resource/Fee"}, 
{"score": 0,030742, "link": "http://dbpedia.org/resource/Weight"}, 
{"score": 0,030699, "link": "http://dbpedia.org/resource/Embroidery"}, 
{"score": 0,030290, "link": "http://dbpedia.org/resource/Last_glacial_period"}, 
{"score": 0,030077, "link": "http://dbpedia.org/resource/Angola"}, 
{"score": 0,029436, "link": "http://dbpedia.org/resource/United_Nations_Security_Council"}, 
{"score": 0,029188, "link": "http://dbpedia.org/resource/Fifth_column"}, 
{"score": 0,029113, "link": "http://dbpedia.org/resource/Renting"}, 
{"score": 0,028972, "link": "http://dbpedia.org/resource/Crucifixion_of_Jesus"}, 
{"score": 0,028925, "link": "http://dbpedia.org/resource/Gender_identity"}, 
{"score": 0,028838, "link": "http://dbpedia.org/resource/Cultural_identity"}, 
{"score": 0,028178, "link": "http://dbpedia.org/resource/Province"}, 
{"score": 0,028054, "link": "http://dbpedia.org/resource/Marriage"}, 
{"score": 0,027848, "link": "http://dbpedia.org/resource/Jenson_Button"}, 
{"score": 0,027673, "link": "http://dbpedia.org/resource/Speed"}, 
{"score": 0,026378, "link": "http://dbpedia.org/resource/Justice"}, 
{"score": 0,026045, "link": "http://dbpedia.org/resource/Outfielder"}, 
{"score": 0,025654, "link": "http://dbpedia.org/resource/Somalia"}, 
{"score": 0,024858, "link": "http://dbpedia.org/resource/Volleyball"}, 
{"score": 0,024597, "link": "http://dbpedia.org/resource/Heron"}, 
{"score": 0,024258, "link": "http://dbpedia.org/resource/Banquet"}, 
{"score": 0,024055, "link": "http://dbpedia.org/resource/Thought"}, 
{"score": 0,023227, "link": "http://dbpedia.org/resource/Battle_of_France"}, 
{"score": 0,022165, "link": "http://dbpedia.org/resource/Athletics_(sport)"}, 
{"score": 0,021748, "link": "http://dbpedia.org/resource/Wine_tasting"}, 
{"score": 0,020334, "link": "http://dbpedia.org/resource/State_visit"}, 
{"score": 0,018437, "link": "http://dbpedia.org/resource/We_Are_Scientists"}, 
{"score": 0,018066, "link": "http://dbpedia.org/resource/Performance-related_pay"}, 
{"score": 0,017996, "link": "http://dbpedia.org/resource/Barry_Took"}, 
{"score": 0,017329, "link": "http://dbpedia.org/resource/Takeover"}, 
{"score": 0,017142, "link": "http://dbpedia.org/resource/Tin_whistle"}, 
{"score": 0,015613, "link": "http://dbpedia.org/resource/Tasmin_Little"}, 
{"score": 0,015306, "link": "http://dbpedia.org/resource/Rafael_Nadal"}, 
{"score": 0,013827, "link": "http://dbpedia.org/resource/Criminal_procedure"}, 
{"score": 0,010433, "link": "http://dbpedia.org/resource/Crying"}, 
{"score": 0,009436, "link": "http://dbpedia.org/resource/London_Grand_Prix"}]
