[{"score": 0,149640, "link": "http://dbpedia.org/resource/Homosexuality"}, 
{"score": 0,135001, "link": "http://dbpedia.org/resource/God"}, 
{"score": 0,118513, "link": "http://dbpedia.org/resource/Christianity"}, 
{"score": 0,117545, "link": "http://dbpedia.org/resource/Christian"}, 
{"score": 0,111239, "link": "http://dbpedia.org/resource/Pentecostalism"}, 
{"score": 0,104378, "link": "http://dbpedia.org/resource/Jesus"}, 
{"score": 0,101561, "link": "http://dbpedia.org/resource/Outing"}, 
{"score": 0,092539, "link": "http://dbpedia.org/resource/Sex_education"}, 
{"score": 0,090706, "link": "http://dbpedia.org/resource/Satan"}, 
{"score": 0,088458, "link": "http://dbpedia.org/resource/Sexual_intercourse"}, 
{"score": 0,081942, "link": "http://dbpedia.org/resource/The_Times"}, 
{"score": 0,081523, "link": "http://dbpedia.org/resource/Muslim"}, 
{"score": 0,081155, "link": "http://dbpedia.org/resource/Buddhism"}, 
{"score": 0,079571, "link": "http://dbpedia.org/resource/Hinduism"}, 
{"score": 0,079116, "link": "http://dbpedia.org/resource/Hell"}, 
{"score": 0,078687, "link": "http://dbpedia.org/resource/Gender_identity"}, 
{"score": 0,078253, "link": "http://dbpedia.org/resource/Exorcism"}, 
{"score": 0,076476, "link": "http://dbpedia.org/resource/Community"}, 
{"score": 0,075493, "link": "http://dbpedia.org/resource/Family"}, 
{"score": 0,074446, "link": "http://dbpedia.org/resource/Pornography"}, 
{"score": 0,072901, "link": "http://dbpedia.org/resource/Censorship"}, 
{"score": 0,072868, "link": "http://dbpedia.org/resource/Free_will"}, 
{"score": 0,072821, "link": "http://dbpedia.org/resource/Soul"}, 
{"score": 0,071784, "link": "http://dbpedia.org/resource/Youth"}, 
{"score": 0,069195, "link": "http://dbpedia.org/resource/Justice"}, 
{"score": 0,068598, "link": "http://dbpedia.org/resource/Communication"}, 
{"score": 0,068409, "link": "http://dbpedia.org/resource/Genocide"}, 
{"score": 0,067314, "link": "http://dbpedia.org/resource/Orgasm"}, 
{"score": 0,067300, "link": "http://dbpedia.org/resource/Angola"}, 
{"score": 0,066468, "link": "http://dbpedia.org/resource/Fear"}, 
{"score": 0,065959, "link": "http://dbpedia.org/resource/Depression_(mood)"}, 
{"score": 0,065932, "link": "http://dbpedia.org/resource/German_language"}, 
{"score": 0,065479, "link": "http://dbpedia.org/resource/Mass_media"}, 
{"score": 0,065018, "link": "http://dbpedia.org/resource/Music"}, 
{"score": 0,064561, "link": "http://dbpedia.org/resource/Ancient_Rome"}, 
{"score": 0,064412, "link": "http://dbpedia.org/resource/Christmas_Eve"}, 
{"score": 0,064120, "link": "http://dbpedia.org/resource/Pregnancy"}, 
{"score": 0,064085, "link": "http://dbpedia.org/resource/Bishop"}, 
{"score": 0,064008, "link": "http://dbpedia.org/resource/Mecca"}, 
{"score": 0,063976, "link": "http://dbpedia.org/resource/Recreational_drug_use"}, 
{"score": 0,062967, "link": "http://dbpedia.org/resource/Zimbabwe"}, 
{"score": 0,062827, "link": "http://dbpedia.org/resource/Georgia_(country)"}, 
{"score": 0,062732, "link": "http://dbpedia.org/resource/Emotion"}, 
{"score": 0,061547, "link": "http://dbpedia.org/resource/Cathedral"}, 
{"score": 0,061241, "link": "http://dbpedia.org/resource/Lottery"}, 
{"score": 0,061143, "link": "http://dbpedia.org/resource/Roman_Empire"}, 
{"score": 0,060998, "link": "http://dbpedia.org/resource/North_America"}, 
{"score": 0,059746, "link": "http://dbpedia.org/resource/Tattoo"}, 
{"score": 0,059705, "link": "http://dbpedia.org/resource/Money"}, 
{"score": 0,058543, "link": "http://dbpedia.org/resource/Israel"}, 
{"score": 0,058156, "link": "http://dbpedia.org/resource/Japan"}, 
{"score": 0,058050, "link": "http://dbpedia.org/resource/Death"}, 
{"score": 0,057850, "link": "http://dbpedia.org/resource/Jack_Harkness"}, 
{"score": 0,057637, "link": "http://dbpedia.org/resource/Dominican_Republic"}, 
{"score": 0,057415, "link": "http://dbpedia.org/resource/Exile"}, 
{"score": 0,057275, "link": "http://dbpedia.org/resource/Brothel"}, 
{"score": 0,056994, "link": "http://dbpedia.org/resource/Austria"}, 
{"score": 0,056260, "link": "http://dbpedia.org/resource/Confidence_trick"}, 
{"score": 0,055899, "link": "http://dbpedia.org/resource/Canada"}, 
{"score": 0,055471, "link": "http://dbpedia.org/resource/Iraq_War"}, 
{"score": 0,054795, "link": "http://dbpedia.org/resource/The_Wall_Street_Journal"}, 
{"score": 0,054471, "link": "http://dbpedia.org/resource/Damascus"}, 
{"score": 0,053897, "link": "http://dbpedia.org/resource/Wealth"}, 
{"score": 0,053113, "link": "http://dbpedia.org/resource/Communist_Party_of_China"}, 
{"score": 0,052243, "link": "http://dbpedia.org/resource/Human"}, 
{"score": 0,052151, "link": "http://dbpedia.org/resource/Etymology"}, 
{"score": 0,051972, "link": "http://dbpedia.org/resource/Telepathy"}, 
{"score": 0,051844, "link": "http://dbpedia.org/resource/Primary_school"}, 
{"score": 0,051800, "link": "http://dbpedia.org/resource/Finland"}, 
{"score": 0,051449, "link": "http://dbpedia.org/resource/London"}, 
{"score": 0,051146, "link": "http://dbpedia.org/resource/Berlin"}, 
{"score": 0,050952, "link": "http://dbpedia.org/resource/Solitude"}, 
{"score": 0,050871, "link": "http://dbpedia.org/resource/Play_(theatre)"}, 
{"score": 0,050751, "link": "http://dbpedia.org/resource/Theatre"}, 
{"score": 0,050574, "link": "http://dbpedia.org/resource/Hip_hop"}, 
{"score": 0,050075, "link": "http://dbpedia.org/resource/World_War_II"}, 
{"score": 0,049902, "link": "http://dbpedia.org/resource/Mars"}, 
{"score": 0,049427, "link": "http://dbpedia.org/resource/Blindness"}, 
{"score": 0,048720, "link": "http://dbpedia.org/resource/Bath,_Somerset"}, 
{"score": 0,048008, "link": "http://dbpedia.org/resource/Cover_version"}, 
{"score": 0,047655, "link": "http://dbpedia.org/resource/Artisan"}, 
{"score": 0,047265, "link": "http://dbpedia.org/resource/Somalia"}, 
{"score": 0,047051, "link": "http://dbpedia.org/resource/Malaysia"}, 
{"score": 0,046984, "link": "http://dbpedia.org/resource/Synoptic_Gospels"}, 
{"score": 0,046052, "link": "http://dbpedia.org/resource/House"}, 
{"score": 0,045910, "link": "http://dbpedia.org/resource/Paranormal"}, 
{"score": 0,045807, "link": "http://dbpedia.org/resource/Resignation"}, 
{"score": 0,045573, "link": "http://dbpedia.org/resource/Single_(music)"}, 
{"score": 0,045563, "link": "http://dbpedia.org/resource/Cold_War"}, 
{"score": 0,045010, "link": "http://dbpedia.org/resource/Life_expectancy"}, 
{"score": 0,044940, "link": "http://dbpedia.org/resource/Leukemia"}, 
{"score": 0,044839, "link": "http://dbpedia.org/resource/Winston_Churchill"}, 
{"score": 0,044489, "link": "http://dbpedia.org/resource/Manila"}, 
{"score": 0,044152, "link": "http://dbpedia.org/resource/Academia"}, 
{"score": 0,044113, "link": "http://dbpedia.org/resource/Archaeology"}, 
{"score": 0,043380, "link": "http://dbpedia.org/resource/Doctor_Who"}, 
{"score": 0,043308, "link": "http://dbpedia.org/resource/Witness"}, 
{"score": 0,043176, "link": "http://dbpedia.org/resource/Meat"}, 
{"score": 0,042922, "link": "http://dbpedia.org/resource/Thought"}, 
{"score": 0,042005, "link": "http://dbpedia.org/resource/Adult"}, 
{"score": 0,042004, "link": "http://dbpedia.org/resource/Child_abandonment"}, 
{"score": 0,041604, "link": "http://dbpedia.org/resource/May_1968_in_France"}, 
{"score": 0,041541, "link": "http://dbpedia.org/resource/Graphics"}, 
{"score": 0,041333, "link": "http://dbpedia.org/resource/Lahore"}, 
{"score": 0,041022, "link": "http://dbpedia.org/resource/Member_of_Parliament"}, 
{"score": 0,040807, "link": "http://dbpedia.org/resource/Maine"}, 
{"score": 0,040798, "link": "http://dbpedia.org/resource/Sun"}, 
{"score": 0,040041, "link": "http://dbpedia.org/resource/Cheese"}, 
{"score": 0,039733, "link": "http://dbpedia.org/resource/Golf"}, 
{"score": 0,039446, "link": "http://dbpedia.org/resource/Public_speaking"}, 
{"score": 0,039318, "link": "http://dbpedia.org/resource/Friendship"}, 
{"score": 0,038461, "link": "http://dbpedia.org/resource/Mining"}, 
{"score": 0,037612, "link": "http://dbpedia.org/resource/German_reunification"}, 
{"score": 0,037381, "link": "http://dbpedia.org/resource/Speech"}, 
{"score": 0,037223, "link": "http://dbpedia.org/resource/Debt"}, 
{"score": 0,037158, "link": "http://dbpedia.org/resource/Napoleonic_Wars"}, 
{"score": 0,036838, "link": "http://dbpedia.org/resource/St._Peter's_Basilica"}, 
{"score": 0,036039, "link": "http://dbpedia.org/resource/Quality_of_life"}, 
{"score": 0,035977, "link": "http://dbpedia.org/resource/Reality"}, 
{"score": 0,035860, "link": "http://dbpedia.org/resource/Hungarian_Revolution_of_1956"}, 
{"score": 0,035429, "link": "http://dbpedia.org/resource/Filmmaking"}, 
{"score": 0,035126, "link": "http://dbpedia.org/resource/Idealism"}, 
{"score": 0,035091, "link": "http://dbpedia.org/resource/Sound"}, 
{"score": 0,034656, "link": "http://dbpedia.org/resource/Greed"}, 
{"score": 0,033794, "link": "http://dbpedia.org/resource/Quotation"}, 
{"score": 0,033412, "link": "http://dbpedia.org/resource/Axe"}, 
{"score": 0,033187, "link": "http://dbpedia.org/resource/Soundtrack"}, 
{"score": 0,033139, "link": "http://dbpedia.org/resource/Orange_(fruit)"}, 
{"score": 0,032876, "link": "http://dbpedia.org/resource/Oregon"}, 
{"score": 0,032058, "link": "http://dbpedia.org/resource/Archive"}, 
{"score": 0,031865, "link": "http://dbpedia.org/resource/Safety"}, 
{"score": 0,031725, "link": "http://dbpedia.org/resource/Telecommunication"}, 
{"score": 0,031710, "link": "http://dbpedia.org/resource/Volleyball"}, 
{"score": 0,030883, "link": "http://dbpedia.org/resource/Doctor_(Doctor_Who)"}, 
{"score": 0,030031, "link": "http://dbpedia.org/resource/Brand"}, 
{"score": 0,029940, "link": "http://dbpedia.org/resource/Xylophone"}, 
{"score": 0,029794, "link": "http://dbpedia.org/resource/Hyena"}, 
{"score": 0,029601, "link": "http://dbpedia.org/resource/Big_band"}, 
{"score": 0,029268, "link": "http://dbpedia.org/resource/Embroidery"}, 
{"score": 0,029150, "link": "http://dbpedia.org/resource/Cricket"}, 
{"score": 0,027676, "link": "http://dbpedia.org/resource/Sperm"}, 
{"score": 0,026725, "link": "http://dbpedia.org/resource/Jim_Branning"}, 
{"score": 0,024404, "link": "http://dbpedia.org/resource/Stomach"}, 
{"score": 0,023989, "link": "http://dbpedia.org/resource/Flower"}, 
{"score": 0,023259, "link": "http://dbpedia.org/resource/Irish_Rebellion_of_1798"}, 
{"score": 0,023017, "link": "http://dbpedia.org/resource/Taste"}, 
{"score": 0,022921, "link": "http://dbpedia.org/resource/Alley"}, 
{"score": 0,021814, "link": "http://dbpedia.org/resource/Match_fixing"}, 
{"score": 0,021168, "link": "http://dbpedia.org/resource/Train_station"}, 
{"score": 0,019512, "link": "http://dbpedia.org/resource/Plough"}, 
{"score": 0,018983, "link": "http://dbpedia.org/resource/Io_(moon)"}, 
{"score": 0,018447, "link": "http://dbpedia.org/resource/Symphony_No._9_(Beethoven)"}, 
{"score": 0,017995, "link": "http://dbpedia.org/resource/Weight"}, 
{"score": 0,017866, "link": "http://dbpedia.org/resource/Battle_of_France"}, 
{"score": 0,016751, "link": "http://dbpedia.org/resource/Litter"}, 
{"score": 0,016375, "link": "http://dbpedia.org/resource/Twenty20"}, 
{"score": 0,016241, "link": "http://dbpedia.org/resource/Carbon_monoxide"}, 
{"score": 0,015214, "link": "http://dbpedia.org/resource/Daytime_television"}, 
{"score": 0,012096, "link": "http://dbpedia.org/resource/We_Are_Scientists"}, 
{"score": 0,010059, "link": "http://dbpedia.org/resource/Human_enhancement"}, 
{"score": 0,008939, "link": "http://dbpedia.org/resource/Nine_(musical)"}, 
{"score": 0,008856, "link": "http://dbpedia.org/resource/Smile_(The_Beach_Boys_album)"}, 
{"score": 0,008015, "link": "http://dbpedia.org/resource/Large_Magellanic_Cloud"}, 
{"score": 0,007497, "link": "http://dbpedia.org/resource/David_Proud"}, 
{"score": 0,006651, "link": "http://dbpedia.org/resource/Minute_of_arc"}, 
{"score": 0,005893, "link": "http://dbpedia.org/resource/First_Battle_of_Ypres"}, 
{"score": 0,004086, "link": "http://dbpedia.org/resource/Individual_Savings_Account"}]
