[{"score": 0,159564, "link": "http://dbpedia.org/resource/Celibacy"}, 
{"score": 0,127264, "link": "http://dbpedia.org/resource/Holy_See"}, 
{"score": 0,101775, "link": "http://dbpedia.org/resource/Monasticism"}, 
{"score": 0,099378, "link": "http://dbpedia.org/resource/Eastern_Orthodox_Church"}, 
{"score": 0,095575, "link": "http://dbpedia.org/resource/Sexual_intercourse"}, 
{"score": 0,092628, "link": "http://dbpedia.org/resource/Homosexuality"}, 
{"score": 0,087695, "link": "http://dbpedia.org/resource/Monk"}, 
{"score": 0,083051, "link": "http://dbpedia.org/resource/God"}, 
{"score": 0,083027, "link": "http://dbpedia.org/resource/Child_sexual_abuse"}, 
{"score": 0,080888, "link": "http://dbpedia.org/resource/Masturbation"}, 
{"score": 0,080836, "link": "http://dbpedia.org/resource/Diocese"}, 
{"score": 0,072793, "link": "http://dbpedia.org/resource/Old_Testament"}, 
{"score": 0,069360, "link": "http://dbpedia.org/resource/English_Reformation"}, 
{"score": 0,068725, "link": "http://dbpedia.org/resource/Sacrifice"}, 
{"score": 0,061462, "link": "http://dbpedia.org/resource/Hell"}, 
{"score": 0,060568, "link": "http://dbpedia.org/resource/Satan"}, 
{"score": 0,059501, "link": "http://dbpedia.org/resource/Will_(law)"}, 
{"score": 0,059487, "link": "http://dbpedia.org/resource/Muslim"}, 
{"score": 0,058808, "link": "http://dbpedia.org/resource/Outing"}, 
{"score": 0,055061, "link": "http://dbpedia.org/resource/Death"}, 
{"score": 0,054455, "link": "http://dbpedia.org/resource/Pregnancy"}, 
{"score": 0,054153, "link": "http://dbpedia.org/resource/Liberalism"}, 
{"score": 0,053542, "link": "http://dbpedia.org/resource/African_American"}, 
{"score": 0,053268, "link": "http://dbpedia.org/resource/Mysticism"}, 
{"score": 0,052904, "link": "http://dbpedia.org/resource/Austria"}, 
{"score": 0,052511, "link": "http://dbpedia.org/resource/Justice"}, 
{"score": 0,052380, "link": "http://dbpedia.org/resource/Recreational_drug_use"}, 
{"score": 0,050439, "link": "http://dbpedia.org/resource/Property"}, 
{"score": 0,050339, "link": "http://dbpedia.org/resource/Bavaria"}, 
{"score": 0,049217, "link": "http://dbpedia.org/resource/Domestic_violence"}, 
{"score": 0,046981, "link": "http://dbpedia.org/resource/Indiana"}, 
{"score": 0,046821, "link": "http://dbpedia.org/resource/Ritual"}, 
{"score": 0,046691, "link": "http://dbpedia.org/resource/War"}, 
{"score": 0,046663, "link": "http://dbpedia.org/resource/Michigan"}, 
{"score": 0,046448, "link": "http://dbpedia.org/resource/Adolescence"}, 
{"score": 0,045464, "link": "http://dbpedia.org/resource/World_War_I"}, 
{"score": 0,045245, "link": "http://dbpedia.org/resource/Christ_Church,_Oxford"}, 
{"score": 0,045139, "link": "http://dbpedia.org/resource/Japan"}, 
{"score": 0,044250, "link": "http://dbpedia.org/resource/Canada"}, 
{"score": 0,044018, "link": "http://dbpedia.org/resource/Belgium"}, 
{"score": 0,043795, "link": "http://dbpedia.org/resource/Romance_(love)"}, 
{"score": 0,043642, "link": "http://dbpedia.org/resource/Taoism"}, 
{"score": 0,043619, "link": "http://dbpedia.org/resource/Music"}, 
{"score": 0,042537, "link": "http://dbpedia.org/resource/Money"}, 
{"score": 0,042062, "link": "http://dbpedia.org/resource/Iraq_War"}, 
{"score": 0,041888, "link": "http://dbpedia.org/resource/Portuguese_language"}, 
{"score": 0,041612, "link": "http://dbpedia.org/resource/Child_abandonment"}, 
{"score": 0,040771, "link": "http://dbpedia.org/resource/Soviet_Union"}, 
{"score": 0,040726, "link": "http://dbpedia.org/resource/Thomas_More"}, 
{"score": 0,040724, "link": "http://dbpedia.org/resource/Israel"}, 
{"score": 0,040516, "link": "http://dbpedia.org/resource/Leukemia"}, 
{"score": 0,040390, "link": "http://dbpedia.org/resource/Pseudonym"}, 
{"score": 0,040264, "link": "http://dbpedia.org/resource/Spirit_possession"}, 
{"score": 0,039606, "link": "http://dbpedia.org/resource/Manchester"}, 
{"score": 0,039426, "link": "http://dbpedia.org/resource/Norway"}, 
{"score": 0,038617, "link": "http://dbpedia.org/resource/Love"}, 
{"score": 0,036973, "link": "http://dbpedia.org/resource/Goldsmith"}, 
{"score": 0,036765, "link": "http://dbpedia.org/resource/Uttar_Pradesh"}, 
{"score": 0,036594, "link": "http://dbpedia.org/resource/Folklore"}, 
{"score": 0,036523, "link": "http://dbpedia.org/resource/Anschluss"}, 
{"score": 0,036251, "link": "http://dbpedia.org/resource/Archaeology"}, 
{"score": 0,035587, "link": "http://dbpedia.org/resource/Ghost"}, 
{"score": 0,035204, "link": "http://dbpedia.org/resource/Academia"}, 
{"score": 0,035164, "link": "http://dbpedia.org/resource/Public_relations"}, 
{"score": 0,034740, "link": "http://dbpedia.org/resource/Facebook"}, 
{"score": 0,034309, "link": "http://dbpedia.org/resource/Saturday"}, 
{"score": 0,034013, "link": "http://dbpedia.org/resource/Broadway_theatre"}, 
{"score": 0,033313, "link": "http://dbpedia.org/resource/Oregon"}, 
{"score": 0,032661, "link": "http://dbpedia.org/resource/Napoleonic_Wars"}, 
{"score": 0,031840, "link": "http://dbpedia.org/resource/Etymology"}, 
{"score": 0,031385, "link": "http://dbpedia.org/resource/Embroidery"}, 
{"score": 0,031141, "link": "http://dbpedia.org/resource/Angola"}, 
{"score": 0,031070, "link": "http://dbpedia.org/resource/Census"}, 
{"score": 0,030864, "link": "http://dbpedia.org/resource/Leisure"}, 
{"score": 0,030752, "link": "http://dbpedia.org/resource/Volleyball"}, 
{"score": 0,030668, "link": "http://dbpedia.org/resource/Meaning_of_life"}, 
{"score": 0,030389, "link": "http://dbpedia.org/resource/Hunting"}, 
{"score": 0,030069, "link": "http://dbpedia.org/resource/FIFA"}, 
{"score": 0,029780, "link": "http://dbpedia.org/resource/Idealism"}, 
{"score": 0,029486, "link": "http://dbpedia.org/resource/Rock_and_roll"}, 
{"score": 0,029477, "link": "http://dbpedia.org/resource/Mount_Everest"}, 
{"score": 0,029200, "link": "http://dbpedia.org/resource/Dharma"}, 
{"score": 0,028863, "link": "http://dbpedia.org/resource/Irish_Rebellion_of_1798"}, 
{"score": 0,028827, "link": "http://dbpedia.org/resource/Phil_Collins"}, 
{"score": 0,028805, "link": "http://dbpedia.org/resource/Malaysia"}, 
{"score": 0,027892, "link": "http://dbpedia.org/resource/Somalia"}, 
{"score": 0,027848, "link": "http://dbpedia.org/resource/Breastfeeding"}, 
{"score": 0,027775, "link": "http://dbpedia.org/resource/Red_Sea"}, 
{"score": 0,027412, "link": "http://dbpedia.org/resource/Engineering"}, 
{"score": 0,027288, "link": "http://dbpedia.org/resource/County"}, 
{"score": 0,027237, "link": "http://dbpedia.org/resource/Cricket"}, 
{"score": 0,026818, "link": "http://dbpedia.org/resource/Speech"}, 
{"score": 0,024873, "link": "http://dbpedia.org/resource/Freddie_Mercury"}, 
{"score": 0,023821, "link": "http://dbpedia.org/resource/Thought"}, 
{"score": 0,023230, "link": "http://dbpedia.org/resource/Werewolf"}, 
{"score": 0,023019, "link": "http://dbpedia.org/resource/Cultural_icon"}, 
{"score": 0,023011, "link": "http://dbpedia.org/resource/Fear"}, 
{"score": 0,022201, "link": "http://dbpedia.org/resource/Entomology"}, 
{"score": 0,021085, "link": "http://dbpedia.org/resource/Crime_scene"}, 
{"score": 0,021011, "link": "http://dbpedia.org/resource/Marathon"}, 
{"score": 0,020786, "link": "http://dbpedia.org/resource/Learning"}, 
{"score": 0,020459, "link": "http://dbpedia.org/resource/Motivation"}, 
{"score": 0,019472, "link": "http://dbpedia.org/resource/Carbon_monoxide"}, 
{"score": 0,019180, "link": "http://dbpedia.org/resource/Gold_mining"}, 
{"score": 0,017814, "link": "http://dbpedia.org/resource/Ethology"}, 
{"score": 0,017729, "link": "http://dbpedia.org/resource/Forestry"}, 
{"score": 0,017144, "link": "http://dbpedia.org/resource/Iceberg"}, 
{"score": 0,016924, "link": "http://dbpedia.org/resource/Big_band"}, 
{"score": 0,016873, "link": "http://dbpedia.org/resource/Knife"}, 
{"score": 0,016142, "link": "http://dbpedia.org/resource/Clip_show"}, 
{"score": 0,015505, "link": "http://dbpedia.org/resource/Surrender_of_Japan"}, 
{"score": 0,014720, "link": "http://dbpedia.org/resource/We_Are_Scientists"}, 
{"score": 0,014651, "link": "http://dbpedia.org/resource/Contentment"}, 
{"score": 0,013192, "link": "http://dbpedia.org/resource/Takeover"}, 
{"score": 0,011012, "link": "http://dbpedia.org/resource/Goodison_Park"}, 
{"score": 0,010993, "link": "http://dbpedia.org/resource/Project_Gemini"}, 
{"score": 0,007779, "link": "http://dbpedia.org/resource/Ovoviviparity"}, 
{"score": 0,007529, "link": "http://dbpedia.org/resource/Talking_animal"}, 
{"score": 0,006385, "link": "http://dbpedia.org/resource/Operating_system"}, 
{"score": 0,006050, "link": "http://dbpedia.org/resource/Welding"}, 
{"score": 0,005524, "link": "http://dbpedia.org/resource/Bedroom"}, 
{"score": 0,005403, "link": "http://dbpedia.org/resource/Barry_Took"}, 
{"score": 0,002981, "link": "http://dbpedia.org/resource/Subtraction"}, 
{"score": 0,002553, "link": "http://dbpedia.org/resource/Addition"}]
